##FastQC	0.10.1
>>Basic Statistics	pass
#Measure	Value	
Filename	20190308sample4-trimmed.fastq	
File type	Conventional base calls	
Encoding	Sanger / Illumina 1.9	
Total Sequences	3587905	
Filtered Sequences	0	
Sequence length	15-32	
%GC	53	
>>END_MODULE
>>Per base sequence quality	pass
#Base	Mean	Median	Lower Quartile	Upper Quartile	10th Percentile	90th Percentile
1	32.981330051938386	34.0	33.0	34.0	32.0	34.0
2	33.263720471974594	34.0	33.0	34.0	32.0	34.0
3	33.265776267766284	34.0	33.0	34.0	32.0	34.0
4	33.11659868363293	34.0	33.0	34.0	31.0	34.0
5	33.294896882721254	34.0	33.0	34.0	33.0	34.0
6	34.602072518642494	38.0	35.0	38.0	27.0	38.0
7	34.242022851775616	38.0	34.0	38.0	26.0	38.0
8	34.68299132780829	38.0	35.0	38.0	27.0	38.0
9	34.91375663513945	38.0	35.0	38.0	28.0	38.0
10	35.253762293037305	38.0	36.0	38.0	29.0	38.0
11	35.35235353221448	38.0	36.0	38.0	29.0	38.0
12	35.18520835975311	38.0	36.0	38.0	29.0	38.0
13	35.17329750927073	38.0	36.0	38.0	28.0	38.0
14	35.305373470033345	38.0	36.0	38.0	29.0	38.0
15	35.24896255614349	38.0	36.0	38.0	28.0	38.0
16	35.361434586035266	38.0	36.0	38.0	28.0	38.0
17	35.33232279546981	38.0	36.0	38.0	29.0	38.0
18	35.40236458767884	38.0	36.0	38.0	29.0	38.0
19	35.02442981077261	38.0	36.0	38.0	28.0	38.0
20	35.574902471218586	38.0	36.0	38.0	29.0	38.0
21	34.98669076080458	38.0	36.0	38.0	28.0	38.0
22	35.41400169769038	38.0	36.0	38.0	29.0	38.0
23	35.64290718659578	38.0	36.0	38.0	29.0	38.0
24	35.72077806946804	38.0	36.0	38.0	29.0	38.0
25	35.66614495569455	38.0	36.0	38.0	29.0	38.0
26	34.97776732427383	38.0	35.0	38.0	28.0	38.0
27	35.56843490692881	38.0	36.0	38.0	29.0	38.0
28	35.174485224847636	38.0	36.0	38.0	28.0	38.0
29	35.324070378391816	38.0	36.0	38.0	28.0	38.0
30	34.99352358238414	38.0	35.0	38.0	27.0	38.0
31	34.870499447195115	38.0	35.0	38.0	27.0	38.0
32	34.544510901022576	38.0	35.0	38.0	27.0	38.0
>>END_MODULE
>>Per sequence quality scores	pass
#Quality	Count
15	1.0
16	8.0
17	31.0
18	136.0
19	429.0
20	1153.0
21	2749.0
22	5214.0
23	9504.0
24	15448.0
25	23986.0
26	34842.0
27	48927.0
28	67165.0
29	89926.0
30	118250.0
31	153921.0
32	201108.0
33	268665.0
34	380211.0
35	561131.0
36	1305624.0
37	299476.0
>>END_MODULE
>>Per base sequence content	fail
#Base	G	A	T	C
1	14.475074684212785	14.96578495519505	38.42697230731139	32.13216805328078
2	40.65361262352264	21.116333905161927	17.866721666264855	20.36333180505058
3	24.865318340368546	21.17483601154434	11.929775175206702	42.03007047288042
4	37.82423205099583	18.848401892917334	15.927111701242595	27.40025435484424
5	21.09559695966742	33.08427488781637	24.3425659943083	21.477562158207917
6	35.99732991815558	12.4086618792861	17.747041797372002	33.846966405186315
7	34.026876408377596	12.707471351666221	20.532706412237783	32.7329458277184
8	22.682986310953048	17.597929711070943	41.81852641025891	17.900557567717094
9	29.80820283703164	17.92143325979924	20.19317679815937	32.07718710500975
10	34.01035814797585	27.446193348564975	17.835988278864466	20.707460224594705
11	40.91342998212048	20.118843726352846	15.42827917684554	23.53944711468113
12	26.227377613421655	34.42984185895097	19.29594497910043	20.04683554852694
13	25.330297206865843	16.768281211459055	29.186976801225228	28.71444478044987
14	26.943801466315303	14.810230482691153	20.187017214781328	38.05895083621222
15	27.552931306709628	36.05134472623996	18.024975577669977	18.37074838938043
16	33.214804982366914	26.953629704538983	19.27737433092893	20.55419098216517
17	22.516007215113763	36.47447460118213	18.74888802157502	22.26063016212909
18	24.94341684226957	25.543497423500323	22.411050642173777	27.102035092056333
19	27.13863820759884	30.902657483908946	25.059603911192173	16.899100397300035
20	22.90593028481708	29.98033954017913	30.783434450013193	16.330295724990602
21	31.27598370064349	30.14342972404847	17.37339499716831	21.20719157813973
22	21.623790917281937	38.78671031872311	27.132565174393342	12.45693358960161
23	13.079482099778888	51.11863802477939	13.77990678256069	22.021973092881026
24	19.697528639979865	39.302402727017956	26.815771863900757	14.184296769101422
25	11.54722593128593	36.35912976037227	34.065795680784206	18.02784862755759
26	11.206946393562392	32.950167405141464	19.357237841446043	36.485648359850096
27	13.41003508697241	31.922758992588808	27.41998999542344	27.247215925015343
28	20.283871339857342	31.863668698210063	8.514698248514794	39.3377617134178
29	40.33344020519397	40.77445020970876	6.386138937780948	12.505970647316317
30	6.81278463705242	39.59063666176637	8.802031396173655	44.794547305007555
31	4.82327482567925	61.68309689829285	19.277069808447543	14.216558467580349
32	0.10418676442214933	99.60640555662744	0.26625506463438164	0.023152614316033188
>>END_MODULE
>>Per base GC content	fail
#Base	%GC
1	46.607242737493564
2	61.01694442857322
3	66.89538881324896
4	65.22448640584008
5	42.573159117875335
6	69.8442963233419
7	66.75982223609599
8	40.58354387867014
9	61.88538994204139
10	54.71781837257056
11	64.45287709680161
12	46.274213161948595
13	54.04474198731572
14	65.00275230252753
15	45.92367969609006
16	53.76899596453208
17	44.77663737724286
18	52.045451934325904
19	44.03773860489888
20	39.23622600980768
21	52.48317527878322
22	34.08072450688355
23	35.10145519265992
24	33.88182540908129
25	29.575074558843518
26	47.692594753412486
27	40.65725101198775
28	59.62163305327515
29	52.83941085251029
30	51.60733194205997
31	19.039833293259598
32	0.12733937873818252
>>END_MODULE
>>Per sequence GC content	fail
#GC Content	Count
0	0.0
1	0.0
2	0.0
3	2.0
4	4.0
5	4.0
6	4.5
7	8.5
8	19.0
9	45.0
10	90.5
11	118.5
12	122.5
13	152.5
14	205.5
15	331.5
16	539.5
17	858.5
18	1411.5
19	2203.5
20	3526.0
21	5177.5
22	6800.0
23	9389.0
24	12282.0
25	14950.5
26	18609.0
27	21170.5
28	29833.0
29	41266.0
30	52390.0
31	70371.5
32	85627.5
33	101032.0
34	135314.0
35	167519.0
36	183408.5
37	241608.5
38	304670.5
39	332692.5
40	370387.5
41	393045.0
42	403271.0
43	433906.0
44	460054.5
45	487338.5
46	493456.5
47	499011.0
48	524886.0
49	529423.0
50	569821.0
51	610219.0
52	590260.5
53	565685.0
54	547524.0
55	506298.0
56	484550.0
57	586582.0
58	669729.0
59	641960.0
60	606825.0
61	565845.0
62	557713.0
63	444873.5
64	313744.5
65	296596.0
66	290656.0
67	290103.5
68	250039.5
69	207525.0
70	184647.0
71	167011.5
72	161994.0
73	155422.5
74	148561.5
75	144452.5
76	139201.0
77	131699.0
78	123426.5
79	109144.5
80	96695.5
81	89708.0
82	81289.0
83	70964.0
84	58014.5
85	47892.5
86	41563.0
87	37784.5
88	34958.0
89	31143.5
90	24069.5
91	15309.0
92	9622.0
93	6773.0
94	5311.0
95	5018.0
96	5012.0
97	2591.0
98	90.0
99	10.0
100	10.0
>>END_MODULE
>>Per base N content	pass
#Base	N-Count
1	0.04099885587829109
2	0.0
3	0.0
4	1.1148567200079155E-4
5	0.025892547322183837
6	0.0
7	0.0
8	0.0
9	0.0
10	0.0055185407640391815
11	0.0
12	8.918853760063324E-4
13	0.0
14	0.0
15	0.0
16	0.0
17	0.0
18	0.0
19	0.0
20	0.0
21	0.0
22	0.0
23	5.750580089766555E-4
24	0.0
25	1.9988926134921256E-4
26	0.0018395830979104964
27	0.0035475963261092447
28	0.0
29	0.0
30	0.0030840083885028164
31	0.0384559919242417
32	0.0
>>END_MODULE
>>Sequence Length Distribution	warn
#Length	Count
15	475007.0
16	268868.0
17	319869.0
18	278503.0
19	338785.0
20	259446.0
21	305604.0
22	298450.0
23	344001.0
24	199095.0
25	119756.0
26	98640.0
27	73829.0
28	55221.0
29	55555.0
30	34867.0
31	36494.0
32	25915.0
>>END_MODULE
>>Sequence Duplication Levels	fail
#Total Duplicate Percentage	90.22672770678477
#Duplication Level	Relative count
1	100.0
2	23.477102567635846
3	10.844701667355656
4	7.425474254742547
5	5.511000872720592
6	4.076983142712783
7	3.208855817371733
8	2.682467502641128
9	2.1762895595057645
10++	24.32777548114464
>>END_MODULE
>>Overrepresented sequences	fail
#Sequence	Count	Percentage	Possible Source
CGCGACCTCAGATCA	211000	5.880869198041754	No Hit
TACCTGGTTGATCCTGCCA	76630	2.1357867613551638	No Hit
CGCGACCTCAGATCAGACGTA	67767	1.8887623836194103	No Hit
TGGACGGTGTGAGGCCA	57977	1.6159012013974727	No Hit
TCAGTGCACTACAGAACTTTGTA	37195	1.0366773925173605	No Hit
CGCGACCTCAGATCAGACGA	30436	0.8482944782540229	No Hit
CGCGACCTCAGATCAGACGTGGCA	27299	0.7608618399874021	No Hit
TACCTGGTTGATCCTGCA	22759	0.6343256022665037	No Hit
CGCGACCTCAGATCAGAA	21246	0.5921561468322043	No Hit
TGAGATGAAGCACTGTAGCTCTA	21113	0.588449248238178	No Hit
CGACTCTTAGCGGTGGATCA	20804	0.5798369800761168	No Hit
TACCTGGTTGATCCTGCTA	19223	0.535772268217804	No Hit
TGGAAGTCGGAATCCA	18689	0.5208889310056983	No Hit
TGGACGGTGTGAGGCTA	17952	0.5003476959395524	No Hit
CTCTCGGCGCCCCCTCGATGCTCTA	17688	0.49298964158750025	No Hit
TGAGATGAAGCACTGTAGCTCA	16819	0.4687693793453283	No Hit
CGACTCTTAGCGGTGGATA	16032	0.44683457337917254	No Hit
CGACTCTTAGCGGTGA	13220	0.36846014596261606	No Hit
TTCAAGTAATCCAGGATAGGCTA	12153	0.33872134295640494	No Hit
CGCGACCTCAGATTA	12051	0.3358784583203847	No Hit
CGCGACCTCAGATCAGACGCA	11017	0.3070594121081801	No Hit
TGGACGGTGTGAGGCCGA	10976	0.305916683970172	No Hit
TCGGAGGTTCGAAGACGATCA	10837	0.3020425568681445	No Hit
AACCCGTAGATCCGATCTTGTA	10814	0.3014015142541399	No Hit
TACCCTGTAGAACCGAATTTGTA	10137	0.282532564268006	No Hit
AGAAGACGGTCGAACTTGACTATCTA	9839	0.274226881703947	No Hit
CGCGACCTCAGATCAGACGTGA	9726	0.27107741146992465	No Hit
CGCGACCTCAGATCAGACA	9611	0.2678721983999019	No Hit
TACCCTGTAGATCCGAATTTGTA	9336	0.2602075584498475	No Hit
TAATACTGCCTGGTAATGATGA	8582	0.23919250927769828	No Hit
GCATTGGTGGTTCAGTGGTAGAATTCTCA	8352	0.23278208313765275	No Hit
TACCTGGTTGATCCA	8288	0.23099831238564011	No Hit
TACCTGGTTGATCCTGCAA	7928	0.22096460190556885	No Hit
GCATTGGTGGTTCAGTGGTAGAATTCTCGCA	7697	0.21452630434752312	No Hit
TAGCTTATCAGACTGATGTTGA	7673	0.21385739031551837	No Hit
CGACTCTTAGCGGTGGATCACTA	7654	0.21332783337351466	No Hit
CGCGACCTCAGATCAGACGTGGCGACCCGCTA	7555	0.21056856299149504	No Hit
CTCTCGGCGCCCCCTCGATGCTCTTA	7170	0.19983806706141885	No Hit
CTCTCGGCGCCCCCTCGATGCTCA	7094	0.1977198392934038	No Hit
TACCTGGTTGATCCTA	7046	0.1963820112293943	No Hit
TCGGAGGTTCGAAGACGAA	6861	0.1912257988993577	No Hit
TACCTGGTTGATCCTGCCAGTA	6793	0.18933054247534425	No Hit
TGAAACTGCGAATGGCA	6747	0.18804845724733515	No Hit
TGGACGGTGTGAGGCAA	6670	0.1859023580613199	No Hit
TAGCTTATCAGACTGATGTTGAA	6411	0.17868366079926865	No Hit
GAGAAGACGGTCGAACTTGACTATCTA	6172	0.17202239189722135	No Hit
TACCTGGTTGATCCTGCCAA	6166	0.1718551633892202	No Hit
TACCTGGTTGATCCTGA	6136	0.17101902084921422	No Hit
GGCGTGAAACCGTTAAGAGGTA	6023	0.16786955061519188	No Hit
ACGGCCCTGGCGGAGCA	6014	0.1676187078531901	No Hit
CGCGACCTCAGATCAGACGTGGA	5907	0.1646364661271689	No Hit
TGGAAGTCGGAATCCGA	5564	0.15507656975310102	No Hit
TGAGATGAAGCACTGTAGCTA	5252	0.1463806873370393	No Hit
TCGGAGGTTCGAAGACGA	5245	0.1461855874110379	No Hit
CGCGACCTCAGATCAA	4911	0.13687653379897183	No Hit
TCAGTGCACTACAGAACTTTGCA	4861	0.13548296289896194	No Hit
CGACTCTTAGCGGTGGAA	4782	0.1332811208769463	No Hit
TCGGAGGTTCGAAGACGATA	4758	0.13261220684494154	No Hit
CGCGACCTCAGATAA	4656	0.12976932220892137	No Hit
CGACTCTTAGCGGTGGATCACTCA	4575	0.12751173735090535	No Hit
CTGAGTGTCCCGCGA	4511	0.12572796659889265	No Hit
GTGGACGGTGTGAGGCCA	4500	0.12542138100089048	No Hit
TCCCTGTGGTCTAGTGGTTAGGATTCGGA	4468	0.12452949562488418	No Hit
TTCTGATCGAGGCCCAGCCA	4373	0.12188171091486535	No Hit
CGCGACCTCAGATCAGACGTGGCGACCCGCA	4298	0.11979135456485052	No Hit
CGCGACCTCAGATCAGACGTGGTA	4288	0.11951264038484855	No Hit
TCCCTGGTGGTCTAGTGGTTAGGATTCGGA	4202	0.11711569843683152	No Hit
CCCCGGGCCGCGGTTA	4106	0.11444004230881251	No Hit
GACTCTTAGCGGTGGATCACTCA	4069	0.1134087998428052	No Hit
TAACACTGTCTGGTAACGATGA	4068	0.11338092842480499	No Hit
CGCGACCTCAGATCAGACAA	3984	0.11103972931278838	No Hit
CTCCTACTTGGATAACTGTGGTAA	3941	0.10984125833877988	No Hit
ACCCTGTAGATCCGAATTTGTGA	3878	0.1080853590047674	No Hit
GGCGTGAAACCGTTAAGAGGA	3865	0.10772303057076484	No Hit
CGATACGACTCTTAGCGGTGA	3786	0.1055211885487492	No Hit
TGGAAGTCGGAATCCGCTAAGGAGTGA	3780	0.10535396004074801	No Hit
TGAGATGAAGCACTGTAGCTCCA	3738	0.10418336048473971	No Hit
TAATACTGCCGGGTAATGATGA	3694	0.10295701809273099	No Hit
CGCGACCTCAGATCAGA	3689	0.10281766100273002	No Hit
TGGAAGTCGGAATCTA	3684	0.10267830391272903	No Hit
TGGAAGTCGGAATCCGCTAAGGAGTA	3677	0.10248320398672764	No Hit
TGAGGTAGTAGATTGTATAGTTA	3661	0.10203726129872445	No Hit
>>END_MODULE
>>Kmer Content	fail
#Sequence	Count	Obs/Exp Overall	Obs/Exp Max	Max Obs/Exp Position
TCAGA	790905	14.469359	151.20319	8
GATCA	610505	11.168998	139.76547	11
ACCTC	522460	10.023198	152.0616	5
CCTCA	519780	9.971785	151.43523	6
AGATC	533200	9.754727	139.22171	10
CAGAT	500695	9.160057	144.33273	9
CTCAG	526325	9.154921	137.32387	7
GACCT	514075	8.941843	137.5076	4
CGACC	595350	8.894732	119.60922	3
GCGAC	572650	7.757058	108.55831	2
CGCGA	535225	7.250103	108.10341	1
TGGTT	344455	7.0006123	63.2092	5
ACTCT	250590	5.597023	36.56423	3
TCTTA	209175	5.4393024	41.563618	5
TTGAT	228030	5.376166	71.647415	8
TGATC	258845	5.2417994	61.632927	9
CTCTT	211175	5.2209735	39.834232	4
ATCAG	283145	5.180049	83.40833	12
ATCCT	218430	4.878717	63.185894	11
GATCC	274845	4.780666	58.544353	10
CGGTG	344980	4.6899114	24.479012	5
CTGGT	267925	4.6771007	58.667797	4
CCTGG	301320	4.5180535	50.95327	3
AGACG	315230	4.4911723	74.557846	15
TACCT	198925	4.4430656	69.19191	1
GTTGA	239055	4.389203	56.362164	7
GTGGT	270650	4.283697	29.83974	15
GACTC	242035	4.209967	28.399786	2
ACCTG	234395	4.0770764	53.95576	2
CAGAC	256255	4.026774	78.43481	14
TGGAT	217075	3.9856365	30.842754	14
CTTAG	194815	3.9451454	32.63646	6
TGTGA	209530	3.8471053	32.753693	8
TCCTG	194045	3.7361016	60.259068	12
TTAGC	173400	3.511476	32.46632	7
GTGGA	238440	3.4093702	24.624678	13
CTGTA	168160	3.4053624	27.569206	13
GAATT	159335	3.3937213	126.31023	21
GGTTG	209510	3.3160071	48.42713	6
ACTGT	161715	3.2748463	25.862692	12
TGGTA	175015	3.2133877	31.274452	16
TCGGA	199700	3.149386	46.720875	26
GAACT	170180	3.1133895	23.997288	14
CGACT	177960	3.0954442	28.364662	1
TTTGT	118285	3.0869243	76.082695	18
AACTT	131170	3.08143	32.826183	15
GGTGT	194650	3.0808115	28.567503	6
CCTGC	183695	3.0379002	53.357185	13
GTCGG	223040	3.0321693	14.630751	6
ACGGT	191945	3.027085	28.126793	4
GTAGA	179710	2.9808798	38.43152	18
TGGAC	188645	2.975042	29.90566	1
GCGGT	217100	2.9514165	25.526993	10
TGAGG	204295	2.9211428	26.12796	10
GAGGC	235330	2.89023	22.125315	11
GGTGG	233860	2.8825305	19.507908	12
GACGT	180470	2.8461177	73.416	16
TGTAG	154765	2.8415847	27.463278	14
AACTG	154675	2.8297307	10.926353	14
GGTTC	161295	2.8156872	15.772818	9
CTGCC	168975	2.7944646	39.663296	14
GTGTG	176515	2.7937808	28.659164	7
TCAGT	134510	2.7239254	20.96584	12
TAGCG	171270	2.701028	25.35339	8
CCCCC	169430	2.654478	11.941128	10
GACGG	213055	2.6166568	22.36611	3
CCCTG	154550	2.5559077	14.86421	2
AACGA	153550	2.53781	6.6731787	1
AGCGG	206385	2.5347385	20.193172	9
AGGCC	186240	2.522788	20.691235	12
TTGTA	106245	2.504893	80.14371	19
CAGTG	154615	2.438369	17.409664	13
CTTTG	107490	2.4094858	39.557686	17
TGCCA	138050	2.4012477	46.73876	15
GATGA	144580	2.3981726	18.522043	18
TTCGA	118305	2.3957622	17.583838	25
GTGAG	164460	2.351556	26.462694	9
TCGAA	126690	2.3177536	11.990421	9
GCACT	132900	2.3116684	18.631811	10
TGGAA	137815	2.2859604	15.958568	1
ACTTG	112150	2.271119	9.572923	14
AATTC	96525	2.2675538	174.56584	22
GGACG	183935	2.2590165	23.214783	2
AGAAC	136620	2.2579982	18.364388	13
ACTTT	86455	2.248141	39.853336	16
TAGAA	116735	2.2462103	57.475964	19
CCTGT	116375	2.2406597	13.412989	4
TCGGC	146760	2.2005496	31.32932	26
AATCC	108545	2.1902192	15.218653	11
TGTGG	138270	2.1884604	9.489479	17
TAGCT	106245	2.1515386	39.33811	16
AAGTC	117140	2.1430397	16.555304	4
GTTCA	105460	2.1356418	17.753824	10
TGAAA	110920	2.1343184	6.165683	1
GGATA	128560	2.1324463	12.400482	14
GAGGT	149050	2.1312144	9.671735	4
TCCGA	122040	2.122769	10.240356	11
TTGGT	103395	2.1013725	15.207923	4
GCTCT	108380	2.0867257	45.11543	20
TGATG	113205	2.0785165	16.616888	17
AGTGG	145125	2.0750916	24.259459	14
ATTCT	79335	2.0629954	237.36615	23
TTGGA	111940	2.0552902	7.372951	8
CGTGG	150390	2.044512	39.517513	18
GGATC	128995	2.0343268	21.891	15
ATAAC	95270	2.0218935	8.775316	12
GTAAT	94410	2.0108654	13.7904215	13
CTCTA	89915	2.0082858	52.641346	21
GATAA	103535	1.9922166	8.584882	11
CTGTG	113995	1.9899826	10.771971	16
ATGAA	103230	1.9863476	20.616474	5
TCTCG	102100	1.9658121	188.15364	25
CCCGC	137100	1.9474826	131.25053	26
GGAAT	117310	1.9458406	15.263125	9
CGAAT	105740	1.9344801	19.784412	14
ACGTG	121060	1.909187	43.682106	17
ATCCG	109650	1.9072568	11.109281	10
CTCTC	89370	1.8978449	15.969774	1
AATTT	69255	1.8941263	33.32103	16
AAGAC	114015	1.8843921	11.203403	12
TAACT	79820	1.8751218	12.316457	13
TGGCG	137835	1.8738301	27.699877	20
CCCTC	101735	1.8556638	15.466524	12
CGGCG	158045	1.8454887	11.601459	26
AGTCG	116885	1.8433449	14.287871	5
CGGAA	128385	1.8291379	13.069347	8
TGAGA	110200	1.8279059	19.524471	1
CAGAA	110520	1.8266282	16.612425	12
GGTAG	127520	1.8233639	26.921179	17
GAAGA	121270	1.8172302	9.468643	11
TCGAT	89080	1.8039348	22.32058	15
AAGCA	109045	1.80225	18.26721	8
ATTTG	75065	1.7697755	30.358706	17
TCTGA	87315	1.7681923	6.1872096	2
GTGGC	129660	1.762693	41.633976	19
CACTA	86755	1.7505409	16.379759	7
CGAAC	111270	1.7484893	5.248515	11
GACGA	122600	1.7467173	16.11523	16
TTCTC	70565	1.74461	268.16382	24
GAATC	94970	1.7374464	16.403078	10
CGATG	110105	1.7364203	20.540499	16
ACCCG	115310	1.7227706	100.36696	25
TGAAG	103565	1.7178499	18.203001	6
CTACT	76325	1.704748	7.851854	4
GGCCA	125575	1.7010261	18.20991	13
TGACT	83510	1.6911383	13.959842	17
TTCAG	83470	1.6903282	17.470314	11
TACTT	64970	1.6894537	9.183794	5
TGGTG	106430	1.6845145	16.059332	5
GGCGC	142155	1.6599414	8.687453	6
ACTGA	90645	1.6583217	8.940599	12
GAAAC	99210	1.6397014	5.184513	2
CCCCT	89560	1.6335899	13.374768	11
AGAAT	84365	1.6233481	82.46772	20
CCGGG	138390	1.6159778	5.2519555	9
CGGAG	131245	1.6118989	7.9316425	2
CTCGG	107180	1.6070788	19.18164	21
TCCTA	71860	1.6050204	7.8281646	2
GGTAA	96610	1.6024863	13.955718	12
TAGAT	74990	1.5972333	11.511603	7
CACTG	91410	1.5899894	18.559757	11
GGAGG	142545	1.5872827	7.7191634	3
ACGTA	86570	1.5837709	47.794674	17
TCTCA	70390	1.5721875	113.78932	25
ACTGC	90075	1.5667684	13.47826	5
AGGTT	85200	1.564327	11.231415	5
CCGAA	99390	1.561808	13.702418	13
CTCGA	89330	1.55381	57.762257	26
TCACT	69015	1.5414764	27.087063	18
GCTCA	88430	1.5381553	19.077354	18
GGTCG	113000	1.5362049	6.187702	4
ACCCT	80040	1.5355372	12.793527	2
AGACT	83400	1.5257767	10.5847	10
GTAGT	83095	1.5256776	7.714295	5
AGCTC	87660	1.5247618	34.227448	17
CCTAC	79420	1.5236431	6.8224845	3
TGGCA	96305	1.5187863	40.435303	20
GGTTA	82125	1.5078677	12.013782	17
CGATC	85870	1.4936265	8.095635	13
ATGCT	73345	1.4852896	37.42437	18
GTAGC	93465	1.4739978	27.248161	15
CTTGG	84275	1.471168	6.934448	7
CATTG	72500	1.4681777	15.675364	2
GGATT	79675	1.4628842	42.55754	22
TACAG	78985	1.4450059	15.042123	10
CTGAT	71180	1.4414468	9.758624	13
GGCTA	90880	1.4332309	13.840399	19
GAAGC	100560	1.4327072	16.163948	7
CCTCG	86440	1.4295223	14.803666	13
GACCC	95465	1.4262798	86.29073	24
GGCGA	115635	1.4201831	35.31845	21
GAGAT	85455	1.4174565	17.883059	2
ATCAC	69200	1.3963164	21.078012	17
GATCT	68660	1.390415	10.072564	14
GTCTG	79525	1.3882483	6.6767845	8
ATCCA	68570	1.3836042	8.04512	9
AAACT	65125	1.382133	7.4655356	21
GCGCC	107020	1.3783145	10.027177	7
AGGAT	83020	1.3770667	30.069025	21
CTGAA	75140	1.3746626	5.7810493	14
GAAGT	82525	1.368856	14.909989	3
AGATG	81175	1.3464632	17.89794	3
CTACA	66355	1.33891	16.437527	9
GCATT	65915	1.3348267	19.63535	1
CCGCT	80440	1.3302958	129.74146	27
CCGCC	92970	1.3206233	16.526747	27
TTGAA	61715	1.3144853	10.461065	19
TGCTC	68250	1.3140712	42.77548	19
TTGAC	64655	1.3093108	12.20066	16
TTTGA	55510	1.3087354	10.781972	18
GATGT	70760	1.299199	12.796945	15
TTGTG	63400	1.2885247	12.956225	18
CGCCC	90485	1.2853242	10.748981	8
AGCAC	81550	1.2814713	17.397402	9
GACTA	69680	1.2747737	15.706118	18
CGGTC	85015	1.2747324	5.0876207	3
CGCTA	73190	1.2730701	381.1498	28
GATGC	80695	1.2726074	23.411345	17
GACTG	80540	1.2701629	6.5627503	11
GTTCG	72250	1.2612505	10.699268	7
ACTAC	62060	1.2522455	16.440817	8
TCCGC	75470	1.2481033	7.206981	13
GCCCC	87440	1.2420706	10.359668	9
TCCCT	58205	1.2360307	12.71481	1
GAATG	74315	1.2326753	5.5027075	15
ATGAT	57450	1.2236438	18.434303	16
CTTGA	60245	1.220005	11.079811	15
CAGGA	85100	1.2124441	8.651729	12
AACCT	59485	1.2002872	5.4084015	10
TGCAC	68715	1.1952317	14.207659	5
CTGCA	68360	1.1890569	14.363708	14
TAGTG	64565	1.1854548	7.2003007	13
GGAAG	91545	1.1825352	11.920179	2
TAATT	43230	1.1823418	17.48284	22
TTAAG	55330	1.1784893	5.70948	13
ACGAT	64385	1.1779033	9.206256	15
ATTGG	63900	1.1732451	11.514553	3
CACTC	60525	1.1611494	19.765625	19
GAACC	73690	1.1579597	6.180673	10
GTGCA	73260	1.1553532	13.404003	4
TTCAA	49090	1.1532164	13.421386	1
AGTGC	71935	1.1344571	13.550678	3
TACTG	55735	1.1286743	10.391868	4
CGAAG	78160	1.113568	8.892641	10
TGTCT	49425	1.1079061	5.836313	7
ATCTA	46720	1.0975406	40.195248	22
TGTTG	53745	1.0922991	14.657015	17
TGAAT	51165	1.0897778	6.0113125	15
CTGGA	68995	1.0880916	7.31849	28
TACCC	56490	1.0837394	13.245059	1
AATGA	56280	1.0829376	14.792692	15
CGTGA	68530	1.0807582	8.33497	18
GATTA	50580	1.0773178	8.176721	23
TCTAG	52315	1.0594168	5.8933616	11
TCGCT	55010	1.0591509	22.580933	27
ACAGA	63715	1.0530548	14.137031	11
TTCTG	46735	1.0476073	7.385783	1
TTCGG	59480	1.0383277	57.546032	25
CTCGC	62715	1.0371643	186.36487	26
TAATA	41975	1.0371293	12.93459	1
CCCGT	62350	1.031128	7.468536	26
GGCTC	68710	1.0302519	11.606213	24
CGGGT	75475	1.0260625	5.0499535	10
AGGCT	64865	1.0229591	10.370495	18
CAAGT	55390	1.0133426	8.877655	3
AAGTA	52445	1.0091447	9.334188	4
TAGGA	60390	1.0016991	22.290962	20
AATAC	46565	0.98823833	10.958208	2
CTCCT	45810	0.9728128	7.7890344	1
GTCTA	47455	0.96099824	5.4906693	10
ATCGA	52485	0.96019655	5.425855	6
AAAGT	49860	0.95940423	5.833082	20
GCTAA	52120	0.953519	9.971649	16
CTCCA	49645	0.9524207	7.625891	21
CTAGT	46335	0.9383175	5.8887887	12
CGGCT	62530	0.93758756	18.282635	23
TAATG	43995	0.93706197	15.168277	14
TAGTT	39040	0.9204294	6.770914	18
AACCG	57815	0.908501	5.967542	11
AATTA	36605	0.9044459	16.118038	22
GATTC	44595	0.9030812	56.50504	23
AGGTA	54290	0.9005174	6.7486043	3
TAGTA	42250	0.8998947	8.48516	6
GCCCA	60185	0.89918435	5.093235	12
TGCTA	44370	0.89852476	11.768506	15
TCTTG	39870	0.89372224	14.272632	16
CCGAT	51380	0.89370614	7.226534	12
ACTAT	38005	0.8928089	18.407976	19
TGTAA	41155	0.876572	6.178229	1
CTCAA	43120	0.87007457	10.205988	26
AGTAG	51980	0.862201	6.8014345	7
CCCGA	57620	0.8608625	13.944093	26
ATACT	36265	0.851933	11.999518	3
TATCA	36140	0.8489965	8.768457	6
CTATC	37965	0.8479628	25.90661	20
GTTAG	45935	0.84339607	13.0400505	18
CGTAG	53405	0.84222806	6.233654	5
AGATT	38510	0.8202354	7.727756	10
ATCTT	31305	0.8140426	14.030867	15
GCTTA	40025	0.8105354	7.6229057	3
TAATC	34175	0.802835	9.368222	7
AGGAG	62140	0.80269533	14.323981	20
ATTCA	33495	0.7868605	25.002367	23
AGTAA	40865	0.7863228	9.255672	5
CTTGT	34915	0.7826514	14.687161	17
TTATC	29940	0.7785477	9.782045	5
AGTGA	46650	0.7737914	14.167824	23
CTAAG	42265	0.77322495	10.82561	17
TTCTT	26550	0.7642115	5.4502773	1
GTTAA	35450	0.7550596	5.3246217	12
TTAGG	40915	0.75122565	16.268044	19
ACTCG	42670	0.74220383	19.302439	20
TCAAG	39975	0.7313301	9.37915	2
CCGTA	41915	0.7290714	12.028576	27
TATCT	27505	0.7152289	33.799225	21
AGCTA	38885	0.7113888	6.682217	21
ATTCG	34875	0.7062441	62.471188	24
TCGCC	42670	0.70566535	80.595795	27
ATAGG	42525	0.7053693	14.592865	16
AAGGA	46905	0.70287114	13.680863	19
AACTA	33095	0.7023676	11.193292	22
CTGCT	36460	0.70199317	9.623529	14
AGCTT	34605	0.7007764	7.7154245	2
TGCCT	36395	0.70074165	5.97415	7
ATGTT	29605	0.69798446	15.90576	16
CAGTA	37840	0.6922709	8.7340555	18
CCAGG	49770	0.6741794	5.612665	11
CTATT	25735	0.6692026	5.8654027	13
ACCTA	32510	0.6559862	7.209834	25
GATAG	39445	0.65428084	12.6545	15
TCCAG	37610	0.65419	7.138033	10
GATAC	35525	0.64991874	5.0358458	2
CTTAT	24905	0.6476196	9.74813	4
CGGTA	41060	0.6475403	7.0740967	27
TAAGG	38730	0.642421	11.461714	18
TCGTA	31615	0.6402267	48.446507	27
ATCTC	28510	0.6367817	5.4228473	5
GTGTA	34660	0.63637984	6.198295	24
AACCA	34545	0.6297197	5.597966	26
CCAGT	35345	0.6147926	6.4360113	17
GGAGT	42880	0.6131262	18.903807	21
TAAGA	31630	0.60862327	5.8106904	14
AACCC	34960	0.6059114	6.3753905	1
TTCTA	23175	0.6026333	36.509533	24
AGTGT	32600	0.59855694	8.958772	23
GAGTG	41685	0.59603935	14.60867	22
AGTTA	27955	0.59542155	11.692483	19
TAACA	28040	0.5950865	5.3731065	1
ATGGA	35435	0.5877663	5.907541	19
TAGGC	37200	0.5866658	11.88934	17
TAAAC	27580	0.58532405	5.881661	3
GACGC	42445	0.5749556	5.1703815	16
ACCGA	36010	0.5658587	6.234516	12
GACCA	35670	0.560516	7.946107	24
AGACA	33375	0.551608	6.813835	15
AACAT	25930	0.55030644	5.890302	5
CGCCA	36830	0.55025274	221.01709	28
TATTC	21005	0.5462056	5.1446834	14
GTAAA	28175	0.5421423	5.387645	2
GGCAA	38000	0.5413969	6.2890716	28
CCTAT	24000	0.5360492	5.1594563	12
TGACA	29210	0.53438777	10.2962885	20
GCTCC	32100	0.53086144	5.3175707	20
AAACA	27525	0.52773243	5.332315	4
TCGTG	29610	0.51689446	5.255712	26
CGGCA	37830	0.5124413	30.760681	27
TTCCA	22680	0.5065664	5.079322	24
TCGCA	28890	0.50251395	201.72247	27
GAGTA	29690	0.49247304	12.316809	22
GCCAG	35855	0.48568815	5.694491	16
ACTCA	23975	0.48376712	9.1879015	20
TTGCA	23855	0.4830811	9.326573	19
ACATC	23820	0.48063952	5.582812	6
TGTAT	20285	0.47825077	7.357252	14
AAGAG	31535	0.4725518	5.1117787	15
CATTT	18060	0.46962497	5.596423	2
GCTCG	31015	0.46504524	8.324457	25
CCGCA	30390	0.454037	76.859886	27
ACGCA	27905	0.4384973	6.607849	17
CATCC	22695	0.43539503	5.4206405	7
CTAAC	21395	0.43170792	5.15873	24
AAGTT	19950	0.4249207	6.43102	21
GTATA	19210	0.40915924	5.5617127	15
TATAG	19190	0.40873325	6.0303097	16
ACTAA	19245	0.40843225	5.210769	23
TACCA	17810	0.35936987	9.0704365	25
CTCGT	18565	0.3574466	31.708202	26
GCCTA	20135	0.35022908	7.481246	28
ACCCA	19770	0.3426449	19.011148	25
TTACC	15230	0.34016785	7.2877226	24
TTTGC	13745	0.30810657	8.087367	18
CGCAA	19495	0.3063431	34.860268	28
ATAGT	13830	0.2945691	7.3091416	17
ACTTA	12370	0.29059455	5.0519743	28
CAATA	8965	0.19026215	8.167154	28
GTTAC	8490	0.17192867	7.3528175	23
>>END_MODULE
