%!PS-Adobe-3.0 EPSF-3.0
%%DocumentNeededResources: font Helvetica
%%+ font Helvetica-Bold
%%+ font Helvetica-Oblique
%%+ font Helvetica-BoldOblique
%%+ font Symbol
%%Title: R Graphics Output
%%Creator: R Software
%%Pages: (atend)
%%BoundingBox: 0 0 612 792
%%EndComments
%%BeginProlog
/bp  { gs sRGB gs } def
% begin .ps.prolog
/gs  { gsave } bind def
/gr  { grestore } bind def
/ep  { showpage gr gr } bind def
/m   { moveto } bind def
/l  { rlineto } bind def
/np  { newpath } bind def
/cp  { closepath } bind def
/f   { fill } bind def
/o   { stroke } bind def
/c   { newpath 0 360 arc } bind def
/r   { 4 2 roll moveto 1 copy 3 -1 roll exch 0 exch rlineto 0 rlineto -1 mul 0 exch rlineto closepath } bind def
/p1  { stroke } bind def
/p2  { gsave bg fill grestore newpath } bind def
/p3  { gsave bg fill grestore stroke } bind def
/p6  { gsave bg eofill grestore newpath } bind def
/p7  { gsave bg eofill grestore stroke } bind def
/t   { 5 -2 roll moveto gsave rotate
       1 index stringwidth pop
       mul neg 0 rmoveto show grestore } bind def
/ta  { 4 -2 roll moveto gsave rotate show } bind def
/tb  { 2 -1 roll 0 rmoveto show } bind def
/cl  { grestore gsave newpath 3 index 3 index moveto 1 index
       4 -1 roll lineto  exch 1 index lineto lineto
       closepath clip newpath } bind def
/rgb { setrgbcolor } bind def
/s   { scalefont setfont } bind def
% end   .ps.prolog
/sRGB { [ /CIEBasedABC
          << /DecodeLMN
               [ { dup 0.03928 le
                        {12.92321 div}
                        {0.055 add 1.055 div 2.4 exp }
                     ifelse
                 } bind dup dup
               ]
             /MatrixLMN [0.412457 0.212673 0.019334
                         0.357576 0.715152 0.119192
                         0.180437 0.072175 0.950301]
             /WhitePoint [0.9505 1.0 1.0890]
           >>
         ] setcolorspace } bind def
/srgb { setcolor } bind def
%%IncludeResource: font Helvetica
/Helvetica findfont
dup length dict begin
  {1 index /FID ne {def} {pop pop} ifelse} forall
  /Encoding ISOLatin1Encoding def
  currentdict
  end
/Font1 exch definefont pop
%%IncludeResource: font Helvetica-Bold
/Helvetica-Bold findfont
dup length dict begin
  {1 index /FID ne {def} {pop pop} ifelse} forall
  /Encoding ISOLatin1Encoding def
  currentdict
  end
/Font2 exch definefont pop
%%IncludeResource: font Helvetica-Oblique
/Helvetica-Oblique findfont
dup length dict begin
  {1 index /FID ne {def} {pop pop} ifelse} forall
  /Encoding ISOLatin1Encoding def
  currentdict
  end
/Font3 exch definefont pop
%%IncludeResource: font Helvetica-BoldOblique
/Helvetica-BoldOblique findfont
dup length dict begin
  {1 index /FID ne {def} {pop pop} ifelse} forall
  /Encoding ISOLatin1Encoding def
  currentdict
  end
/Font4 exch definefont pop
%%IncludeResource: font Symbol
/Symbol findfont
dup length dict begin
  {1 index /FID ne {def} {pop pop} ifelse} forall
  currentdict
  end
/Font5 exch definefont pop
%%EndProlog
%%Page: 1 1
bp
0.00 0.00 612.00 792.00 cl
0.00 0.00 612.00 792.00 cl
0.00 0.00 612.00 792.00 cl
0.00 0.00 612.00 792.00 cl
0.00 0.00 612.00 792.00 cl
0.00 0.00 612.00 792.00 cl
0.00 0.00 612.00 792.00 cl
0.00 0.00 612.00 792.00 cl
0.00 0.00 612.00 792.00 cl
0.00 0.00 612.00 792.00 cl
0.00 0.00 612.00 792.00 cl
185.26 281.54 426.74 510.46 cl
/bg { 1 1 1 srgb } def
1 1 1 srgb
1.07 setlinewidth
[] 0 setdash
1 setlinecap
1 setlinejoin
10.00 setmiterlimit
185.26 281.54 241.49 228.93 r p3
0.00 0.00 612.00 792.00 cl
217.93 368.00 331.31 495.56 cl
/bg { 1 1 1 srgb } def
217.93 368.00 113.39 127.56 r p2
0.9216 0.9216 0.9216 srgb
0.53 setlinewidth
[] 0 setdash
0 setlinecap
1 setlinejoin
10.00 setmiterlimit
np
217.93 388.29 m
113.38 0 l
o
np
217.93 417.28 m
113.38 0 l
o
np
217.93 446.27 m
113.38 0 l
o
np
217.93 475.26 m
113.38 0 l
o
1.07 setlinewidth
[] 0 setdash
np
217.93 373.79 m
113.38 0 l
o
np
217.93 402.79 m
113.38 0 l
o
np
217.93 431.78 m
113.38 0 l
o
np
217.93 460.77 m
113.38 0 l
o
np
217.93 489.76 m
113.38 0 l
o
np
224.60 368.00 m
0 127.56 l
o
np
235.71 368.00 m
0 127.56 l
o
np
246.83 368.00 m
0 127.56 l
o
np
257.94 368.00 m
0 127.56 l
o
np
269.06 368.00 m
0 127.56 l
o
np
280.18 368.00 m
0 127.56 l
o
np
291.29 368.00 m
0 127.56 l
o
np
302.41 368.00 m
0 127.56 l
o
np
313.53 368.00 m
0 127.56 l
o
np
324.64 368.00 m
0 127.56 l
o
/bg { 0.5333 0.8000 0.9333 srgb } def
275.17 451.64 10.00 38.12 r p2
/bg { 0.2000 0.1333 0.5333 srgb } def
275.17 387.68 10.00 23.54 r p2
/bg { 0.8000 0.4000 0.4667 srgb } def
275.17 435.73 10.00 15.91 r p2
/bg { 0.0667 0.4667 0.2000 srgb } def
275.17 411.22 10.00 19.00 r p2
/bg { 0.2667 0.6667 0.6000 srgb } def
275.17 379.50 10.00 6.82 r p2
/bg { 0.8667 0.8000 0.4667 srgb } def
275.17 430.22 10.00 5.51 r p2
/bg { 0.6667 0.2667 0.6000 srgb } def
275.17 386.32 10.00 1.36 r p2
/bg { 0.5333 0.5333 0.5333 srgb } def
275.17 373.79 10.00 5.70 r p2
/bg { 0.5333 0.8000 0.9333 srgb } def
219.59 454.84 10.00 34.92 r p2
/bg { 0.2000 0.1333 0.5333 srgb } def
219.59 390.99 10.00 24.16 r p2
/bg { 0.8000 0.4000 0.4667 srgb } def
219.59 437.19 10.00 17.65 r p2
/bg { 0.0667 0.4667 0.2000 srgb } def
219.59 415.14 10.00 17.11 r p2
/bg { 0.2667 0.6667 0.6000 srgb } def
219.59 382.52 10.00 6.02 r p2
/bg { 0.8667 0.8000 0.4667 srgb } def
219.59 432.26 10.00 4.93 r p2
/bg { 0.6667 0.2667 0.6000 srgb } def
219.59 388.54 10.00 2.45 r p2
/bg { 0.5333 0.5333 0.5333 srgb } def
219.59 373.79 10.00 8.72 r p2
/bg { 0.5333 0.8000 0.9333 srgb } def
286.29 427.74 10.00 62.02 r p2
/bg { 0.2000 0.1333 0.5333 srgb } def
286.29 390.29 10.00 12.06 r p2
/bg { 0.8000 0.4000 0.4667 srgb } def
286.29 416.67 10.00 11.06 r p2
/bg { 0.0667 0.4667 0.2000 srgb } def
286.29 402.35 10.00 9.45 r p2
/bg { 0.2667 0.6667 0.6000 srgb } def
286.29 385.23 10.00 3.39 r p2
/bg { 0.8667 0.8000 0.4667 srgb } def
286.29 411.80 10.00 4.87 r p2
/bg { 0.6667 0.2667 0.6000 srgb } def
286.29 388.62 10.00 1.67 r p2
/bg { 0.5333 0.5333 0.5333 srgb } def
286.29 373.79 10.00 11.43 r p2
/bg { 0.5333 0.8000 0.9333 srgb } def
230.71 440.48 10.00 49.28 r p2
/bg { 0.2000 0.1333 0.5333 srgb } def
230.71 389.96 10.00 22.80 r p2
/bg { 0.8000 0.4000 0.4667 srgb } def
230.71 422.89 10.00 17.59 r p2
/bg { 0.0667 0.4667 0.2000 srgb } def
230.71 412.76 10.00 6.82 r p2
/bg { 0.2667 0.6667 0.6000 srgb } def
230.71 385.34 10.00 3.13 r p2
/bg { 0.8667 0.8000 0.4667 srgb } def
230.71 419.58 10.00 3.31 r p2
/bg { 0.6667 0.2667 0.6000 srgb } def
230.71 388.47 10.00 1.49 r p2
/bg { 0.5333 0.5333 0.5333 srgb } def
230.71 373.79 10.00 11.54 r p2
/bg { 0.5333 0.8000 0.9333 srgb } def
297.41 437.42 10.00 52.33 r p2
/bg { 0.2000 0.1333 0.5333 srgb } def
297.41 383.58 10.00 20.06 r p2
/bg { 0.8000 0.4000 0.4667 srgb } def
297.41 421.90 10.00 15.52 r p2
/bg { 0.0667 0.4667 0.2000 srgb } def
297.41 403.64 10.00 15.69 r p2
/bg { 0.2667 0.6667 0.6000 srgb } def
297.41 379.24 10.00 3.42 r p2
/bg { 0.8667 0.8000 0.4667 srgb } def
297.41 419.33 10.00 2.57 r p2
/bg { 0.6667 0.2667 0.6000 srgb } def
297.41 382.66 10.00 0.91 r p2
/bg { 0.5333 0.5333 0.5333 srgb } def
297.41 373.79 10.00 5.45 r p2
/bg { 0.5333 0.8000 0.9333 srgb } def
241.83 448.37 10.00 41.39 r p2
/bg { 0.2000 0.1333 0.5333 srgb } def
241.83 385.60 10.00 28.29 r p2
/bg { 0.8000 0.4000 0.4667 srgb } def
241.83 431.08 10.00 17.28 r p2
/bg { 0.0667 0.4667 0.2000 srgb } def
241.83 413.89 10.00 14.25 r p2
/bg { 0.2667 0.6667 0.6000 srgb } def
241.83 379.19 10.00 4.92 r p2
/bg { 0.8667 0.8000 0.4667 srgb } def
241.83 428.14 10.00 2.94 r p2
/bg { 0.6667 0.2667 0.6000 srgb } def
241.83 384.12 10.00 1.48 r p2
/bg { 0.5333 0.5333 0.5333 srgb } def
241.83 373.79 10.00 5.40 r p2
/bg { 0.5333 0.8000 0.9333 srgb } def
308.52 422.79 10.00 66.97 r p2
/bg { 0.2000 0.1333 0.5333 srgb } def
308.52 386.58 10.00 9.57 r p2
/bg { 0.8000 0.4000 0.4667 srgb } def
308.52 408.79 10.00 14.00 r p2
/bg { 0.0667 0.4667 0.2000 srgb } def
308.52 396.16 10.00 10.23 r p2
/bg { 0.2667 0.6667 0.6000 srgb } def
308.52 381.86 10.00 2.65 r p2
/bg { 0.8667 0.8000 0.4667 srgb } def
308.52 406.38 10.00 2.41 r p2
/bg { 0.6667 0.2667 0.6000 srgb } def
308.52 384.51 10.00 2.07 r p2
/bg { 0.5333 0.5333 0.5333 srgb } def
308.52 373.79 10.00 8.06 r p2
/bg { 0.5333 0.8000 0.9333 srgb } def
252.94 471.88 10.00 17.88 r p2
/bg { 0.2000 0.1333 0.5333 srgb } def
252.94 401.43 10.00 29.29 r p2
/bg { 0.8000 0.4000 0.4667 srgb } def
252.94 461.86 10.00 10.02 r p2
/bg { 0.0667 0.4667 0.2000 srgb } def
252.94 430.72 10.00 19.65 r p2
/bg { 0.2667 0.6667 0.6000 srgb } def
252.94 390.87 10.00 8.01 r p2
/bg { 0.8667 0.8000 0.4667 srgb } def
252.94 450.38 10.00 11.49 r p2
/bg { 0.6667 0.2667 0.6000 srgb } def
252.94 398.87 10.00 2.56 r p2
/bg { 0.5333 0.5333 0.5333 srgb } def
252.94 373.79 10.00 17.07 r p2
/bg { 0.5333 0.8000 0.9333 srgb } def
264.06 452.58 10.00 37.17 r p2
/bg { 0.2000 0.1333 0.5333 srgb } def
264.06 391.77 10.00 29.30 r p2
/bg { 0.8000 0.4000 0.4667 srgb } def
264.06 436.25 10.00 16.33 r p2
/bg { 0.0667 0.4667 0.2000 srgb } def
264.06 421.07 10.00 10.33 r p2
/bg { 0.2667 0.6667 0.6000 srgb } def
264.06 386.18 10.00 4.05 r p2
/bg { 0.8667 0.8000 0.4667 srgb } def
264.06 431.40 10.00 4.85 r p2
/bg { 0.6667 0.2667 0.6000 srgb } def
264.06 390.22 10.00 1.55 r p2
/bg { 0.5333 0.5333 0.5333 srgb } def
264.06 373.79 10.00 12.38 r p2
/bg { 0.5333 0.8000 0.9333 srgb } def
319.64 459.64 10.00 30.12 r p2
/bg { 0.2000 0.1333 0.5333 srgb } def
319.64 387.03 10.00 34.28 r p2
/bg { 0.8000 0.4000 0.4667 srgb } def
319.64 437.54 10.00 22.10 r p2
/bg { 0.0667 0.4667 0.2000 srgb } def
319.64 421.31 10.00 12.35 r p2
/bg { 0.2667 0.6667 0.6000 srgb } def
319.64 380.34 10.00 5.47 r p2
/bg { 0.8667 0.8000 0.4667 srgb } def
319.64 433.67 10.00 3.88 r p2
/bg { 0.6667 0.2667 0.6000 srgb } def
319.64 385.80 10.00 1.23 r p2
/bg { 0.5333 0.5333 0.5333 srgb } def
319.64 373.79 10.00 6.54 r p2
0 0 0 srgb
1.49 setlinewidth
[] 0 setdash
1 setlinecap
217.93 368.00 113.39 127.56 r p1
0.00 0.00 612.00 792.00 cl
0.00 0.00 612.00 792.00 cl
0.00 0.00 612.00 792.00 cl
0.00 0.00 612.00 792.00 cl
0.00 0.00 612.00 792.00 cl
0.00 0.00 612.00 792.00 cl
0.00 0.00 612.00 792.00 cl
0.00 0.00 612.00 792.00 cl
0.00 0.00 612.00 792.00 cl
0.00 0.00 612.00 792.00 cl
0.00 0.00 612.00 792.00 cl
0.00 0.00 612.00 792.00 cl
0.00 0.00 612.00 792.00 cl
0.00 0.00 612.00 792.00 cl
0.00 0.00 612.00 792.00 cl
0.00 0.00 612.00 792.00 cl
/Font1 findfont 8 s
0 0 0 srgb
212.99 370.92 (0.00) 1 0 t
212.99 399.91 (0.25) 1 0 t
212.99 428.90 (0.50) 1 0 t
212.99 457.89 (0.75) 1 0 t
212.99 486.89 (1.00) 1 0 t
0.00 0.00 612.00 792.00 cl
0.00 0.00 612.00 792.00 cl
0.2000 0.2000 0.2000 srgb
1.07 setlinewidth
[] 0 setdash
0 setlinecap
1 setlinejoin
10.00 setmiterlimit
np
215.19 373.79 m
2.74 0 l
o
np
215.19 402.79 m
2.74 0 l
o
np
215.19 431.78 m
2.74 0 l
o
np
215.19 460.77 m
2.74 0 l
o
np
215.19 489.76 m
2.74 0 l
o
0.00 0.00 612.00 792.00 cl
0.00 0.00 612.00 792.00 cl
0.00 0.00 612.00 792.00 cl
0.00 0.00 612.00 792.00 cl
0.00 0.00 612.00 792.00 cl
0.00 0.00 612.00 792.00 cl
0.00 0.00 612.00 792.00 cl
0.00 0.00 612.00 792.00 cl
0.00 0.00 612.00 792.00 cl
0.00 0.00 612.00 792.00 cl
0.00 0.00 612.00 792.00 cl
0.00 0.00 612.00 792.00 cl
/Font1 findfont 8 s
0 0 0 srgb
230.34 328.38 (MS28F1_sample3) .5 90 t
241.46 328.38 (MS28F1_sample5) .5 90 t
252.57 328.38 (MS28F1_sample7) .5 90 t
263.69 328.38 (MS28F1_sample9) .5 90 t
274.80 328.38 (MS28F1_sample11) .5 90 t
285.92 328.38 (MS28F1_sample2) .5 90 t
297.04 328.38 (MS28F1_sample4) .5 90 t
308.15 328.38 (MS28F1_sample6) .5 90 t
319.27 328.38 (MS28F1_sample8) .5 90 t
330.39 328.38 (MS28F1_sample14) .5 90 t
0.00 0.00 612.00 792.00 cl
0.00 0.00 612.00 792.00 cl
0.00 0.00 612.00 792.00 cl
0.00 0.00 612.00 792.00 cl
0.00 0.00 612.00 792.00 cl
0.00 0.00 612.00 792.00 cl
0.00 0.00 612.00 792.00 cl
0.00 0.00 612.00 792.00 cl
0.00 0.00 612.00 792.00 cl
0.00 0.00 612.00 792.00 cl
0.00 0.00 612.00 792.00 cl
0.00 0.00 612.00 792.00 cl
0.00 0.00 612.00 792.00 cl
0.00 0.00 612.00 792.00 cl
0.00 0.00 612.00 792.00 cl
0.00 0.00 612.00 792.00 cl
/bg { 1 1 1 srgb } def
337.29 390.87 71.07 104.69 r p2
0.00 0.00 612.00 792.00 cl
0.00 0.00 612.00 792.00 cl
0.00 0.00 612.00 792.00 cl
0.00 0.00 612.00 792.00 cl
/Font1 findfont 10 s
0 0 0 srgb
337.29 487.47 (Biotypes) 0 0 t
0.00 0.00 612.00 792.00 cl
0.00 0.00 612.00 792.00 cl
0.00 0.00 612.00 792.00 cl
0.00 0.00 612.00 792.00 cl
0.00 0.00 612.00 792.00 cl
/bg { 0.5333 0.8000 0.9333 srgb } def
338.00 470.94 9.92 9.92 r p2
0.00 0.00 612.00 792.00 cl
0.00 0.00 612.00 792.00 cl
0.00 0.00 612.00 792.00 cl
0.00 0.00 612.00 792.00 cl
/bg { 0.8000 0.4000 0.4667 srgb } def
338.00 459.61 9.92 9.92 r p2
0.00 0.00 612.00 792.00 cl
0.00 0.00 612.00 792.00 cl
0.00 0.00 612.00 792.00 cl
0.00 0.00 612.00 792.00 cl
/bg { 0.8667 0.8000 0.4667 srgb } def
338.00 448.27 9.92 9.92 r p2
0.00 0.00 612.00 792.00 cl
0.00 0.00 612.00 792.00 cl
0.00 0.00 612.00 792.00 cl
0.00 0.00 612.00 792.00 cl
/bg { 0.0667 0.4667 0.2000 srgb } def
338.00 436.93 9.92 9.92 r p2
0.00 0.00 612.00 792.00 cl
0.00 0.00 612.00 792.00 cl
0.00 0.00 612.00 792.00 cl
0.00 0.00 612.00 792.00 cl
/bg { 0.2000 0.1333 0.5333 srgb } def
338.00 425.59 9.92 9.92 r p2
0.00 0.00 612.00 792.00 cl
0.00 0.00 612.00 792.00 cl
0.00 0.00 612.00 792.00 cl
0.00 0.00 612.00 792.00 cl
/bg { 0.6667 0.2667 0.6000 srgb } def
338.00 414.25 9.92 9.92 r p2
0.00 0.00 612.00 792.00 cl
0.00 0.00 612.00 792.00 cl
0.00 0.00 612.00 792.00 cl
0.00 0.00 612.00 792.00 cl
/bg { 0.2667 0.6667 0.6000 srgb } def
338.00 402.91 9.92 9.92 r p2
0.00 0.00 612.00 792.00 cl
0.00 0.00 612.00 792.00 cl
0.00 0.00 612.00 792.00 cl
0.00 0.00 612.00 792.00 cl
/bg { 0.5333 0.5333 0.5333 srgb } def
338.00 391.57 9.92 9.92 r p2
0.00 0.00 612.00 792.00 cl
0.00 0.00 612.00 792.00 cl
0.00 0.00 612.00 792.00 cl
0.00 0.00 612.00 792.00 cl
/Font1 findfont 8 s
0 0 0 srgb
353.61 470.24 (tRNA) 0 0 t
0.00 0.00 612.00 792.00 cl
0.00 0.00 612.00 792.00 cl
0.00 0.00 612.00 792.00 cl
0.00 0.00 612.00 792.00 cl
0.00 0.00 612.00 792.00 cl
/Font1 findfont 8 s
0 0 0 srgb
353.61 458.90 (miRNA) 0 0 t
0.00 0.00 612.00 792.00 cl
0.00 0.00 612.00 792.00 cl
0.00 0.00 612.00 792.00 cl
0.00 0.00 612.00 792.00 cl
0.00 0.00 612.00 792.00 cl
/Font1 findfont 8 s
0 0 0 srgb
353.61 447.56 (snoRNA) 0 0 t
0.00 0.00 612.00 792.00 cl
0.00 0.00 612.00 792.00 cl
0.00 0.00 612.00 792.00 cl
0.00 0.00 612.00 792.00 cl
0.00 0.00 612.00 792.00 cl
/Font1 findfont 8 s
0 0 0 srgb
353.61 436.22 (snRNA) 0 0 t
0.00 0.00 612.00 792.00 cl
0.00 0.00 612.00 792.00 cl
0.00 0.00 612.00 792.00 cl
0.00 0.00 612.00 792.00 cl
0.00 0.00 612.00 792.00 cl
/Font1 findfont 8 s
0 0 0 srgb
353.61 424.88 (Protein coding) 0 0 t
0.00 0.00 612.00 792.00 cl
0.00 0.00 612.00 792.00 cl
0.00 0.00 612.00 792.00 cl
0.00 0.00 612.00 792.00 cl
0.00 0.00 612.00 792.00 cl
/Font1 findfont 8 s
0 0 0 srgb
353.61 413.54 (Misc RNA) 0 0 t
0.00 0.00 612.00 792.00 cl
0.00 0.00 612.00 792.00 cl
0.00 0.00 612.00 792.00 cl
0.00 0.00 612.00 792.00 cl
0.00 0.00 612.00 792.00 cl
/Font1 findfont 8 s
0 0 0 srgb
353.61 402.20 (Retained intron) 0 0 t
0.00 0.00 612.00 792.00 cl
0.00 0.00 612.00 792.00 cl
0.00 0.00 612.00 792.00 cl
0.00 0.00 612.00 792.00 cl
0.00 0.00 612.00 792.00 cl
/Font1 findfont 8 s
0 0 0 srgb
353.61 390.87 (Others) 0 0 t
0.00 0.00 612.00 792.00 cl
0.00 0.00 612.00 792.00 cl
0.00 0.00 612.00 792.00 cl
0.00 0.00 612.00 792.00 cl
0.00 0.00 612.00 792.00 cl
0.00 0.00 612.00 792.00 cl
0.00 0.00 612.00 792.00 cl
0.00 0.00 612.00 792.00 cl
0.00 0.00 612.00 792.00 cl
0.00 0.00 612.00 792.00 cl
0.00 0.00 612.00 792.00 cl
0.00 0.00 612.00 792.00 cl
0.00 0.00 612.00 792.00 cl
0.00 0.00 612.00 792.00 cl
ep
%%Trailer
%%Pages: 1
%%EOF
