%!PS-Adobe-3.0
%%DocumentNeededResources: font Helvetica
%%+ font Helvetica-Bold
%%+ font Helvetica-Oblique
%%+ font Helvetica-BoldOblique
%%+ font Symbol
%%DocumentMedia: a4 595 841 0 () ()
%%Title: R Graphics Output
%%Creator: R Software
%%Pages: (atend)
%%Orientation: Landscape
%%BoundingBox: 18 25 577 817
%%EndComments
%%BeginProlog
/bp  { gs sRGB 595.00 0 translate 90 rotate gs } def
% begin .ps.prolog
/gs  { gsave } bind def
/gr  { grestore } bind def
/ep  { showpage gr gr } bind def
/m   { moveto } bind def
/l  { rlineto } bind def
/np  { newpath } bind def
/cp  { closepath } bind def
/f   { fill } bind def
/o   { stroke } bind def
/c   { newpath 0 360 arc } bind def
/r   { 4 2 roll moveto 1 copy 3 -1 roll exch 0 exch rlineto 0 rlineto -1 mul 0 exch rlineto closepath } bind def
/p1  { stroke } bind def
/p2  { gsave bg fill grestore newpath } bind def
/p3  { gsave bg fill grestore stroke } bind def
/p6  { gsave bg eofill grestore newpath } bind def
/p7  { gsave bg eofill grestore stroke } bind def
/t   { 5 -2 roll moveto gsave rotate
       1 index stringwidth pop
       mul neg 0 rmoveto show grestore } bind def
/ta  { 4 -2 roll moveto gsave rotate show } bind def
/tb  { 2 -1 roll 0 rmoveto show } bind def
/cl  { grestore gsave newpath 3 index 3 index moveto 1 index
       4 -1 roll lineto  exch 1 index lineto lineto
       closepath clip newpath } bind def
/rgb { setrgbcolor } bind def
/s   { scalefont setfont } bind def
% end   .ps.prolog
/sRGB { [ /CIEBasedABC
          << /DecodeLMN
               [ { dup 0.03928 le
                        {12.92321 div}
                        {0.055 add 1.055 div 2.4 exp }
                     ifelse
                 } bind dup dup
               ]
             /MatrixLMN [0.412457 0.212673 0.019334
                         0.357576 0.715152 0.119192
                         0.180437 0.072175 0.950301]
             /WhitePoint [0.9505 1.0 1.0890]
           >>
         ] setcolorspace } bind def
/srgb { setcolor } bind def
%%IncludeResource: font Helvetica
/Helvetica findfont
dup length dict begin
  {1 index /FID ne {def} {pop pop} ifelse} forall
  /Encoding ISOLatin1Encoding def
  currentdict
  end
/Font1 exch definefont pop
%%IncludeResource: font Helvetica-Bold
/Helvetica-Bold findfont
dup length dict begin
  {1 index /FID ne {def} {pop pop} ifelse} forall
  /Encoding ISOLatin1Encoding def
  currentdict
  end
/Font2 exch definefont pop
%%IncludeResource: font Helvetica-Oblique
/Helvetica-Oblique findfont
dup length dict begin
  {1 index /FID ne {def} {pop pop} ifelse} forall
  /Encoding ISOLatin1Encoding def
  currentdict
  end
/Font3 exch definefont pop
%%IncludeResource: font Helvetica-BoldOblique
/Helvetica-BoldOblique findfont
dup length dict begin
  {1 index /FID ne {def} {pop pop} ifelse} forall
  /Encoding ISOLatin1Encoding def
  currentdict
  end
/Font4 exch definefont pop
%%IncludeResource: font Symbol
/Symbol findfont
dup length dict begin
  {1 index /FID ne {def} {pop pop} ifelse} forall
  currentdict
  end
/Font5 exch definefont pop
%%EndProlog
%%Page: 1 1
bp
24.94 18.00 816.94 577.28 cl
24.94 18.00 816.94 577.28 cl
/bg { 0.4549 0.1020 0.4314 srgb } def
375.36 345.90 8.22 2.76 r p2
/bg { 0.5608 0.1412 0.4078 srgb } def
375.36 343.14 8.22 2.76 r p2
/bg { 0.5490 0.1373 0.4118 srgb } def
375.36 340.38 8.22 2.76 r p2
/bg { 0.5647 0.1451 0.4078 srgb } def
375.36 337.61 8.22 2.76 r p2
/bg { 0.4039 0.0863 0.4314 srgb } def
375.36 334.85 8.22 2.76 r p2
/bg { 0.6314 0.1647 0.3882 srgb } def
375.36 332.09 8.22 2.76 r p2
/bg { 0.7255 0.2078 0.3373 srgb } def
375.36 329.33 8.22 2.76 r p2
/bg { 0.6118 0.1569 0.3961 srgb } def
375.36 326.57 8.22 2.76 r p2
/bg { 0.5843 0.1490 0.4039 srgb } def
375.36 323.80 8.22 2.76 r p2
/bg { 0.5294 0.1333 0.4157 srgb } def
375.36 321.04 8.22 2.76 r p2
/bg { 0.7765 0.2431 0.2980 srgb } def
375.36 318.28 8.22 2.76 r p2
/bg { 0.6510 0.1725 0.3765 srgb } def
375.36 315.52 8.22 2.76 r p2
/bg { 0.6118 0.1569 0.3961 srgb } def
375.36 312.76 8.22 2.76 r p2
/bg { 0.6627 0.1804 0.3686 srgb } def
375.36 309.99 8.22 2.76 r p2
/bg { 0.6549 0.1765 0.3725 srgb } def
375.36 307.23 8.22 2.76 r p2
/bg { 0.7451 0.2235 0.3216 srgb } def
375.36 304.47 8.22 2.76 r p2
/bg { 0.6157 0.1608 0.3922 srgb } def
375.36 301.71 8.22 2.76 r p2
/bg { 0.6431 0.1725 0.3804 srgb } def
375.36 298.95 8.22 2.76 r p2
/bg { 0.6980 0.2000 0.3490 srgb } def
375.36 296.18 8.22 2.76 r p2
/bg { 0.6314 0.1686 0.3843 srgb } def
375.36 293.42 8.22 2.76 r p2
/bg { 0.7216 0.2078 0.3373 srgb } def
375.36 290.66 8.22 2.76 r p2
/bg { 0.7098 0.2039 0.3451 srgb } def
375.36 287.90 8.22 2.76 r p2
/bg { 0.6471 0.1725 0.3765 srgb } def
375.36 285.14 8.22 2.76 r p2
/bg { 0.7725 0.2392 0.3020 srgb } def
375.36 282.37 8.22 2.76 r p2
/bg { 0.7020 0.2000 0.3490 srgb } def
375.36 279.61 8.22 2.76 r p2
/bg { 0.5725 0.1451 0.4078 srgb } def
375.36 276.85 8.22 2.76 r p2
/bg { 0.8353 0.2902 0.2549 srgb } def
375.36 274.09 8.22 2.76 r p2
/bg { 0.7765 0.2431 0.2980 srgb } def
375.36 271.33 8.22 2.76 r p2
/bg { 0.7098 0.2039 0.3451 srgb } def
375.36 268.56 8.22 2.76 r p2
/bg { 0.7176 0.2039 0.3412 srgb } def
375.36 265.80 8.22 2.76 r p2
/bg { 0.9804 0.5608 0.0353 srgb } def
375.36 263.04 8.22 2.76 r p2
/bg { 0.8039 0.2588 0.2824 srgb } def
375.36 260.28 8.22 2.76 r p2
/bg { 0.7569 0.2275 0.3176 srgb } def
375.36 257.52 8.22 2.76 r p2
/bg { 0.7569 0.2314 0.3137 srgb } def
375.36 254.75 8.22 2.76 r p2
/bg { 0.9098 0.3765 0.1725 srgb } def
375.36 251.99 8.22 2.76 r p2
/bg { 0.7020 0.2000 0.3490 srgb } def
383.58 345.90 8.22 2.76 r p2
/bg { 0.6745 0.1882 0.3608 srgb } def
383.58 343.14 8.22 2.76 r p2
/bg { 0.7216 0.2078 0.3412 srgb } def
383.58 340.38 8.22 2.76 r p2
/bg { 0.5882 0.1490 0.4039 srgb } def
383.58 337.61 8.22 2.76 r p2
/bg { 0.5961 0.1529 0.4000 srgb } def
383.58 334.85 8.22 2.76 r p2
/bg { 0.5529 0.1373 0.4118 srgb } def
383.58 332.09 8.22 2.76 r p2
/bg { 0.5608 0.1412 0.4118 srgb } def
383.58 329.33 8.22 2.76 r p2
/bg { 0.7216 0.2078 0.3373 srgb } def
383.58 326.57 8.22 2.76 r p2
/bg { 0.5412 0.1333 0.4157 srgb } def
383.58 323.80 8.22 2.76 r p2
/bg { 0.4902 0.1176 0.4275 srgb } def
383.58 321.04 8.22 2.76 r p2
/bg { 0.7020 0.2000 0.3490 srgb } def
383.58 318.28 8.22 2.76 r p2
/bg { 0.6314 0.1686 0.3843 srgb } def
383.58 315.52 8.22 2.76 r p2
/bg { 0.6275 0.1647 0.3882 srgb } def
383.58 312.76 8.22 2.76 r p2
/bg { 0.6980 0.1961 0.3529 srgb } def
383.58 309.99 8.22 2.76 r p2
/bg { 0.7255 0.2078 0.3373 srgb } def
383.58 307.23 8.22 2.76 r p2
/bg { 0.7412 0.2196 0.3255 srgb } def
383.58 304.47 8.22 2.76 r p2
/bg { 0.5176 0.1294 0.4196 srgb } def
383.58 301.71 8.22 2.76 r p2
/bg { 0.6157 0.1608 0.3922 srgb } def
383.58 298.95 8.22 2.76 r p2
/bg { 0.5843 0.1490 0.4039 srgb } def
383.58 296.18 8.22 2.76 r p2
/bg { 0.6235 0.1647 0.3882 srgb } def
383.58 293.42 8.22 2.76 r p2
/bg { 0.7451 0.2235 0.3216 srgb } def
383.58 290.66 8.22 2.76 r p2
/bg { 0.6510 0.1765 0.3725 srgb } def
383.58 287.90 8.22 2.76 r p2
/bg { 0.5647 0.1412 0.4078 srgb } def
383.58 285.14 8.22 2.76 r p2
/bg { 0.7961 0.2549 0.2863 srgb } def
383.58 282.37 8.22 2.76 r p2
/bg { 0.6510 0.1725 0.3765 srgb } def
383.58 279.61 8.22 2.76 r p2
/bg { 0.6863 0.1922 0.3569 srgb } def
383.58 276.85 8.22 2.76 r p2
/bg { 0.6118 0.1608 0.3922 srgb } def
383.58 274.09 8.22 2.76 r p2
/bg { 0.4196 0.0941 0.4314 srgb } def
383.58 271.33 8.22 2.76 r p2
/bg { 0.6627 0.1804 0.3686 srgb } def
383.58 268.56 8.22 2.76 r p2
/bg { 0.6941 0.1961 0.3529 srgb } def
383.58 265.80 8.22 2.76 r p2
/bg { 0.8784 0.3333 0.2118 srgb } def
383.58 263.04 8.22 2.76 r p2
/bg { 0.7255 0.2078 0.3373 srgb } def
383.58 260.28 8.22 2.76 r p2
/bg { 0.7098 0.2039 0.3451 srgb } def
383.58 257.52 8.22 2.76 r p2
/bg { 0.5882 0.1490 0.4039 srgb } def
383.58 254.75 8.22 2.76 r p2
/bg { 0.8706 0.3216 0.2196 srgb } def
383.58 251.99 8.22 2.76 r p2
/bg { 0.8824 0.3373 0.2078 srgb } def
391.80 345.90 8.22 2.76 r p2
/bg { 0.9647 0.4941 0.0784 srgb } def
391.80 343.14 8.22 2.76 r p2
/bg { 0.9255 0.4078 0.1490 srgb } def
391.80 340.38 8.22 2.76 r p2
/bg { 0.8745 0.3216 0.2157 srgb } def
391.80 337.61 8.22 2.76 r p2
/bg { 0.8118 0.2667 0.2745 srgb } def
391.80 334.85 8.22 2.76 r p2
/bg { 0.8980 0.3608 0.1882 srgb } def
391.80 332.09 8.22 2.76 r p2
/bg { 0.9137 0.3804 0.1686 srgb } def
391.80 329.33 8.22 2.76 r p2
/bg { 0.8824 0.3373 0.2078 srgb } def
391.80 326.57 8.22 2.76 r p2
/bg { 0.9412 0.4353 0.1294 srgb } def
391.80 323.80 8.22 2.76 r p2
/bg { 0.9255 0.4078 0.1490 srgb } def
391.80 321.04 8.22 2.76 r p2
/bg { 0.7725 0.2392 0.3020 srgb } def
391.80 318.28 8.22 2.76 r p2
/bg { 0.7804 0.2471 0.2941 srgb } def
391.80 315.52 8.22 2.76 r p2
/bg { 0.7647 0.2353 0.3098 srgb } def
391.80 312.76 8.22 2.76 r p2
/bg { 0.7686 0.2353 0.3059 srgb } def
391.80 309.99 8.22 2.76 r p2
/bg { 0.8941 0.3529 0.1961 srgb } def
391.80 307.23 8.22 2.76 r p2
/bg { 0.8706 0.3216 0.2196 srgb } def
391.80 304.47 8.22 2.76 r p2
/bg { 0.8784 0.3255 0.2118 srgb } def
391.80 301.71 8.22 2.76 r p2
/bg { 0.9137 0.3804 0.1686 srgb } def
391.80 298.95 8.22 2.76 r p2
/bg { 0.8510 0.3059 0.2392 srgb } def
391.80 296.18 8.22 2.76 r p2
/bg { 0.8588 0.3137 0.2314 srgb } def
391.80 293.42 8.22 2.76 r p2
/bg { 0.7647 0.2353 0.3059 srgb } def
391.80 290.66 8.22 2.76 r p2
/bg { 0.8392 0.2941 0.2510 srgb } def
391.80 287.90 8.22 2.76 r p2
/bg { 0.8157 0.2706 0.2706 srgb } def
391.80 285.14 8.22 2.76 r p2
/bg { 0.8039 0.2627 0.2784 srgb } def
391.80 282.37 8.22 2.76 r p2
/bg { 0.8784 0.3294 0.2118 srgb } def
391.80 279.61 8.22 2.76 r p2
/bg { 0.9294 0.4118 0.1451 srgb } def
391.80 276.85 8.22 2.76 r p2
/bg { 0.8314 0.2824 0.2588 srgb } def
391.80 274.09 8.22 2.76 r p2
/bg { 0.8314 0.2863 0.2588 srgb } def
391.80 271.33 8.22 2.76 r p2
/bg { 0.8667 0.3176 0.2235 srgb } def
391.80 268.56 8.22 2.76 r p2
/bg { 0.8078 0.2627 0.2784 srgb } def
391.80 265.80 8.22 2.76 r p2
/bg { 0.8392 0.2941 0.2510 srgb } def
391.80 263.04 8.22 2.76 r p2
/bg { 0.8039 0.2588 0.2824 srgb } def
391.80 260.28 8.22 2.76 r p2
/bg { 0.8431 0.2941 0.2471 srgb } def
391.80 257.52 8.22 2.76 r p2
/bg { 0.8549 0.3098 0.2353 srgb } def
391.80 254.75 8.22 2.76 r p2
/bg { 0.6863 0.1922 0.3569 srgb } def
391.80 251.99 8.22 2.76 r p2
/bg { 0.8706 0.3216 0.2196 srgb } def
400.02 345.90 8.22 2.76 r p2
/bg { 0.9451 0.4471 0.1176 srgb } def
400.02 343.14 8.22 2.76 r p2
/bg { 0.9882 0.6353 0.0314 srgb } def
400.02 340.38 8.22 2.76 r p2
/bg { 0.9725 0.5294 0.0549 srgb } def
400.02 337.61 8.22 2.76 r p2
/bg { 0.9490 0.4510 0.1137 srgb } def
400.02 334.85 8.22 2.76 r p2
/bg { 0.9843 0.6118 0.0235 srgb } def
400.02 332.09 8.22 2.76 r p2
/bg { 0.9451 0.4431 0.1216 srgb } def
400.02 329.33 8.22 2.76 r p2
/bg { 0.8745 0.3255 0.2157 srgb } def
400.02 326.57 8.22 2.76 r p2
/bg { 0.9804 0.5686 0.0314 srgb } def
400.02 323.80 8.22 2.76 r p2
/bg { 0.9373 0.4235 0.1373 srgb } def
400.02 321.04 8.22 2.76 r p2
/bg { 0.9569 0.4706 0.0980 srgb } def
400.02 318.28 8.22 2.76 r p2
/bg { 0.8941 0.3529 0.1961 srgb } def
400.02 315.52 8.22 2.76 r p2
/bg { 0.9569 0.4784 0.0902 srgb } def
400.02 312.76 8.22 2.76 r p2
/bg { 0.9608 0.4902 0.0824 srgb } def
400.02 309.99 8.22 2.76 r p2
/bg { 0.9098 0.3725 0.1765 srgb } def
400.02 307.23 8.22 2.76 r p2
/bg { 0.9451 0.4431 0.1216 srgb } def
400.02 304.47 8.22 2.76 r p2
/bg { 0.8863 0.3451 0.2039 srgb } def
400.02 301.71 8.22 2.76 r p2
/bg { 0.9569 0.4706 0.0980 srgb } def
400.02 298.95 8.22 2.76 r p2
/bg { 0.8784 0.3294 0.2118 srgb } def
400.02 296.18 8.22 2.76 r p2
/bg { 0.9569 0.4784 0.0902 srgb } def
400.02 293.42 8.22 2.76 r p2
/bg { 0.9412 0.4353 0.1255 srgb } def
400.02 290.66 8.22 2.76 r p2
/bg { 0.9137 0.3804 0.1686 srgb } def
400.02 287.90 8.22 2.76 r p2
/bg { 0.9412 0.4392 0.1255 srgb } def
400.02 285.14 8.22 2.76 r p2
/bg { 0.9373 0.4314 0.1294 srgb } def
400.02 282.37 8.22 2.76 r p2
/bg { 0.9020 0.3647 0.1843 srgb } def
400.02 279.61 8.22 2.76 r p2
/bg { 0.7961 0.2549 0.2863 srgb } def
400.02 276.85 8.22 2.76 r p2
/bg { 0.8941 0.3529 0.1961 srgb } def
400.02 274.09 8.22 2.76 r p2
/bg { 0.9569 0.4667 0.0980 srgb } def
400.02 271.33 8.22 2.76 r p2
/bg { 0.9490 0.4510 0.1137 srgb } def
400.02 268.56 8.22 2.76 r p2
/bg { 0.9294 0.4157 0.1451 srgb } def
400.02 265.80 8.22 2.76 r p2
/bg { 0.7647 0.2314 0.3098 srgb } def
400.02 263.04 8.22 2.76 r p2
/bg { 0.8588 0.3137 0.2314 srgb } def
400.02 260.28 8.22 2.76 r p2
/bg { 0.8863 0.3412 0.2039 srgb } def
400.02 257.52 8.22 2.76 r p2
/bg { 0.9098 0.3725 0.1765 srgb } def
400.02 254.75 8.22 2.76 r p2
/bg { 0.2784 0.0431 0.4157 srgb } def
400.02 251.99 8.22 2.76 r p2
/bg { 0.9725 0.5294 0.0549 srgb } def
408.24 345.90 8.22 2.76 r p2
/bg { 0.9686 0.5137 0.0667 srgb } def
408.24 343.14 8.22 2.76 r p2
/bg { 0.9686 0.5098 0.0706 srgb } def
408.24 340.38 8.22 2.76 r p2
/bg { 0.9882 0.6471 0.0392 srgb } def
408.24 337.61 8.22 2.76 r p2
/bg { 0.9686 0.5059 0.0706 srgb } def
408.24 334.85 8.22 2.76 r p2
/bg { 0.9608 0.4824 0.0902 srgb } def
408.24 332.09 8.22 2.76 r p2
/bg { 0.9647 0.4980 0.0784 srgb } def
408.24 329.33 8.22 2.76 r p2
/bg { 0.9882 0.6196 0.0275 srgb } def
408.24 326.57 8.22 2.76 r p2
/bg { 0.9451 0.4431 0.1216 srgb } def
408.24 323.80 8.22 2.76 r p2
/bg { 0.8784 0.3333 0.2118 srgb } def
408.24 321.04 8.22 2.76 r p2
/bg { 0.9882 0.6588 0.0510 srgb } def
408.24 318.28 8.22 2.76 r p2
/bg { 0.9843 0.6000 0.0235 srgb } def
408.24 315.52 8.22 2.76 r p2
/bg { 0.9216 0.3922 0.1608 srgb } def
408.24 312.76 8.22 2.76 r p2
/bg { 0.9608 0.4863 0.0863 srgb } def
408.24 309.99 8.22 2.76 r p2
/bg { 0.9176 0.3922 0.1647 srgb } def
408.24 307.23 8.22 2.76 r p2
/bg { 0.9333 0.4235 0.1373 srgb } def
408.24 304.47 8.22 2.76 r p2
/bg { 0.9294 0.4118 0.1451 srgb } def
408.24 301.71 8.22 2.76 r p2
/bg { 0.8784 0.3333 0.2118 srgb } def
408.24 298.95 8.22 2.76 r p2
/bg { 0.9176 0.3882 0.1647 srgb } def
408.24 296.18 8.22 2.76 r p2
/bg { 0.8941 0.3529 0.1961 srgb } def
408.24 293.42 8.22 2.76 r p2
/bg { 0.9569 0.4706 0.0980 srgb } def
408.24 290.66 8.22 2.76 r p2
/bg { 0.9569 0.4706 0.0941 srgb } def
408.24 287.90 8.22 2.76 r p2
/bg { 0.9216 0.3922 0.1608 srgb } def
408.24 285.14 8.22 2.76 r p2
/bg { 0.9451 0.4431 0.1216 srgb } def
408.24 282.37 8.22 2.76 r p2
/bg { 0.8745 0.3216 0.2157 srgb } def
408.24 279.61 8.22 2.76 r p2
/bg { 0.9373 0.4275 0.1333 srgb } def
408.24 276.85 8.22 2.76 r p2
/bg { 0.9765 0.5451 0.0431 srgb } def
408.24 274.09 8.22 2.76 r p2
/bg { 0.8510 0.3020 0.2392 srgb } def
408.24 271.33 8.22 2.76 r p2
/bg { 0.7725 0.2392 0.3020 srgb } def
408.24 268.56 8.22 2.76 r p2
/bg { 0.7412 0.2196 0.3255 srgb } def
408.24 265.80 8.22 2.76 r p2
/bg { 0.9843 0.7333 0.1255 srgb } def
408.24 263.04 8.22 2.76 r p2
/bg { 0.9216 0.3922 0.1647 srgb } def
408.24 260.28 8.22 2.76 r p2
/bg { 0.8314 0.2863 0.2588 srgb } def
408.24 257.52 8.22 2.76 r p2
/bg { 0.7882 0.2510 0.2902 srgb } def
408.24 254.75 8.22 2.76 r p2
/bg { 0 0 0.0157 srgb } def
408.24 251.99 8.22 2.76 r p2
24.94 18.00 816.94 577.28 cl
/bg { 0.1412 0.0471 0.3059 srgb } def
419.30 345.90 8.22 2.76 r p2
/bg { 0.2902 0.0471 0.4196 srgb } def
419.30 343.14 8.22 2.76 r p2
/bg { 0.5176 0.1294 0.4196 srgb } def
419.30 340.38 8.22 2.76 r p2
/bg { 0.3843 0.0784 0.4314 srgb } def
419.30 337.61 8.22 2.76 r p2
/bg { 0.3255 0.0549 0.4275 srgb } def
419.30 334.85 8.22 2.76 r p2
/bg { 0.2706 0.0431 0.4118 srgb } def
419.30 332.09 8.22 2.76 r p2
/bg { 0.2980 0.0471 0.4196 srgb } def
419.30 329.33 8.22 2.76 r p2
/bg { 0.3765 0.0745 0.4314 srgb } def
419.30 326.57 8.22 2.76 r p2
/bg { 0.5490 0.1373 0.4118 srgb } def
419.30 323.80 8.22 2.76 r p2
/bg { 0.1608 0.0431 0.3333 srgb } def
419.30 321.04 8.22 2.76 r p2
/bg { 0.4902 0.1176 0.4275 srgb } def
419.30 318.28 8.22 2.76 r p2
/bg { 0.3255 0.0588 0.4275 srgb } def
419.30 315.52 8.22 2.76 r p2
/bg { 0.4392 0.0980 0.4314 srgb } def
419.30 312.76 8.22 2.76 r p2
/bg { 0.5412 0.1333 0.4157 srgb } def
419.30 309.99 8.22 2.76 r p2
/bg { 0.5922 0.1529 0.4000 srgb } def
419.30 307.23 8.22 2.76 r p2
/bg { 0.6588 0.1765 0.3725 srgb } def
419.30 304.47 8.22 2.76 r p2
/bg { 0.3804 0.0784 0.4314 srgb } def
419.30 301.71 8.22 2.76 r p2
/bg { 0.4627 0.1059 0.4275 srgb } def
419.30 298.95 8.22 2.76 r p2
/bg { 0.3922 0.0824 0.4314 srgb } def
419.30 296.18 8.22 2.76 r p2
/bg { 0.5843 0.1490 0.4039 srgb } def
419.30 293.42 8.22 2.76 r p2
/bg { 0.6000 0.1529 0.4000 srgb } def
419.30 290.66 8.22 2.76 r p2
/bg { 0.5098 0.1255 0.4235 srgb } def
419.30 287.90 8.22 2.76 r p2
/bg { 0.3922 0.0824 0.4314 srgb } def
419.30 285.14 8.22 2.76 r p2
/bg { 0.6667 0.1843 0.3647 srgb } def
419.30 282.37 8.22 2.76 r p2
/bg { 0.5882 0.1490 0.4039 srgb } def
419.30 279.61 8.22 2.76 r p2
/bg { 0.6314 0.1647 0.3882 srgb } def
419.30 276.85 8.22 2.76 r p2
/bg { 0.3882 0.0784 0.4314 srgb } def
419.30 274.09 8.22 2.76 r p2
/bg { 0.4627 0.1059 0.4275 srgb } def
419.30 271.33 8.22 2.76 r p2
/bg { 0.5529 0.1373 0.4118 srgb } def
419.30 268.56 8.22 2.76 r p2
/bg { 0.4980 0.1216 0.4235 srgb } def
419.30 265.80 8.22 2.76 r p2
/bg { 0.2118 0.0353 0.3804 srgb } def
419.30 263.04 8.22 2.76 r p2
/bg { 0.4078 0.0863 0.4314 srgb } def
419.30 260.28 8.22 2.76 r p2
/bg { 0.6196 0.1647 0.3882 srgb } def
419.30 257.52 8.22 2.76 r p2
/bg { 0.5725 0.1451 0.4078 srgb } def
419.30 254.75 8.22 2.76 r p2
/bg { 0.9569 0.4745 0.0941 srgb } def
419.30 251.99 8.22 2.76 r p2
/bg { 0.1176 0.0471 0.2745 srgb } def
427.52 345.90 8.22 2.76 r p2
/bg { 0.4118 0.0863 0.4314 srgb } def
427.52 343.14 8.22 2.76 r p2
/bg { 0.3176 0.0510 0.4235 srgb } def
427.52 340.38 8.22 2.76 r p2
/bg { 0.4510 0.1020 0.4314 srgb } def
427.52 337.61 8.22 2.76 r p2
/bg { 0.2745 0.0431 0.4157 srgb } def
427.52 334.85 8.22 2.76 r p2
/bg { 0.5059 0.1216 0.4235 srgb } def
427.52 332.09 8.22 2.76 r p2
/bg { 0.3176 0.0510 0.4235 srgb } def
427.52 329.33 8.22 2.76 r p2
/bg { 0.4627 0.1059 0.4275 srgb } def
427.52 326.57 8.22 2.76 r p2
/bg { 0.4745 0.1098 0.4275 srgb } def
427.52 323.80 8.22 2.76 r p2
/bg { 0.5216 0.1294 0.4196 srgb } def
427.52 321.04 8.22 2.76 r p2
/bg { 0.3961 0.0824 0.4314 srgb } def
427.52 318.28 8.22 2.76 r p2
/bg { 0.4510 0.1020 0.4314 srgb } def
427.52 315.52 8.22 2.76 r p2
/bg { 0.4078 0.0863 0.4314 srgb } def
427.52 312.76 8.22 2.76 r p2
/bg { 0.4980 0.1216 0.4235 srgb } def
427.52 309.99 8.22 2.76 r p2
/bg { 0.3412 0.0627 0.4314 srgb } def
427.52 307.23 8.22 2.76 r p2
/bg { 0.3922 0.0824 0.4314 srgb } def
427.52 304.47 8.22 2.76 r p2
/bg { 0.4902 0.1176 0.4275 srgb } def
427.52 301.71 8.22 2.76 r p2
/bg { 0.5804 0.1490 0.4039 srgb } def
427.52 298.95 8.22 2.76 r p2
/bg { 0.4627 0.1059 0.4275 srgb } def
427.52 296.18 8.22 2.76 r p2
/bg { 0.5020 0.1216 0.4235 srgb } def
427.52 293.42 8.22 2.76 r p2
/bg { 0.4902 0.1176 0.4275 srgb } def
427.52 290.66 8.22 2.76 r p2
/bg { 0.5922 0.1490 0.4039 srgb } def
427.52 287.90 8.22 2.76 r p2
/bg { 0.5882 0.1490 0.4039 srgb } def
427.52 285.14 8.22 2.76 r p2
/bg { 0.4941 0.1176 0.4275 srgb } def
427.52 282.37 8.22 2.76 r p2
/bg { 0.4314 0.0941 0.4314 srgb } def
427.52 279.61 8.22 2.76 r p2
/bg { 0.4157 0.0863 0.4314 srgb } def
427.52 276.85 8.22 2.76 r p2
/bg { 0.6471 0.1725 0.3765 srgb } def
427.52 274.09 8.22 2.76 r p2
/bg { 0.4471 0.0980 0.4314 srgb } def
427.52 271.33 8.22 2.76 r p2
/bg { 0.4431 0.0980 0.4314 srgb } def
427.52 268.56 8.22 2.76 r p2
/bg { 0.3529 0.0667 0.4314 srgb } def
427.52 265.80 8.22 2.76 r p2
/bg { 0.7137 0.2039 0.3451 srgb } def
427.52 263.04 8.22 2.76 r p2
/bg { 0.6353 0.1686 0.3843 srgb } def
427.52 260.28 8.22 2.76 r p2
/bg { 0.3922 0.0824 0.4314 srgb } def
427.52 257.52 8.22 2.76 r p2
/bg { 0.4902 0.1176 0.4275 srgb } def
427.52 254.75 8.22 2.76 r p2
/bg { 0.9843 0.5922 0.0235 srgb } def
427.52 251.99 8.22 2.76 r p2
/bg { 0.3373 0.0588 0.4275 srgb } def
435.74 345.90 8.22 2.76 r p2
/bg { 0.2863 0.0471 0.4196 srgb } def
435.74 343.14 8.22 2.76 r p2
/bg { 0.2941 0.0471 0.4196 srgb } def
435.74 340.38 8.22 2.76 r p2
/bg { 0.4549 0.1020 0.4314 srgb } def
435.74 337.61 8.22 2.76 r p2
/bg { 0.4980 0.1216 0.4235 srgb } def
435.74 334.85 8.22 2.76 r p2
/bg { 0.4157 0.0902 0.4314 srgb } def
435.74 332.09 8.22 2.76 r p2
/bg { 0.4275 0.0941 0.4314 srgb } def
435.74 329.33 8.22 2.76 r p2
/bg { 0.5882 0.1490 0.4039 srgb } def
435.74 326.57 8.22 2.76 r p2
/bg { 0.3412 0.0627 0.4314 srgb } def
435.74 323.80 8.22 2.76 r p2
/bg { 0.4275 0.0941 0.4314 srgb } def
435.74 321.04 8.22 2.76 r p2
/bg { 0.6510 0.1725 0.3765 srgb } def
435.74 318.28 8.22 2.76 r p2
/bg { 0.5765 0.1490 0.4039 srgb } def
435.74 315.52 8.22 2.76 r p2
/bg { 0.4824 0.1137 0.4275 srgb } def
435.74 312.76 8.22 2.76 r p2
/bg { 0.4471 0.0980 0.4314 srgb } def
435.74 309.99 8.22 2.76 r p2
/bg { 0.4078 0.0863 0.4314 srgb } def
435.74 307.23 8.22 2.76 r p2
/bg { 0.3843 0.0784 0.4314 srgb } def
435.74 304.47 8.22 2.76 r p2
/bg { 0.6078 0.1569 0.3961 srgb } def
435.74 301.71 8.22 2.76 r p2
/bg { 0.2471 0.0353 0.4000 srgb } def
435.74 298.95 8.22 2.76 r p2
/bg { 0.6392 0.1686 0.3804 srgb } def
435.74 296.18 8.22 2.76 r p2
/bg { 0.4157 0.0902 0.4314 srgb } def
435.74 293.42 8.22 2.76 r p2
/bg { 0.4510 0.1020 0.4314 srgb } def
435.74 290.66 8.22 2.76 r p2
/bg { 0.5843 0.1490 0.4039 srgb } def
435.74 287.90 8.22 2.76 r p2
/bg { 0.4706 0.1098 0.4275 srgb } def
435.74 285.14 8.22 2.76 r p2
/bg { 0.4118 0.0863 0.4314 srgb } def
435.74 282.37 8.22 2.76 r p2
/bg { 0.4863 0.1176 0.4275 srgb } def
435.74 279.61 8.22 2.76 r p2
/bg { 0.4980 0.1216 0.4235 srgb } def
435.74 276.85 8.22 2.76 r p2
/bg { 0.7451 0.2235 0.3216 srgb } def
435.74 274.09 8.22 2.76 r p2
/bg { 0.5725 0.1451 0.4078 srgb } def
435.74 271.33 8.22 2.76 r p2
/bg { 0.4196 0.0902 0.4314 srgb } def
435.74 268.56 8.22 2.76 r p2
435.74 265.80 8.22 2.76 r p2
/bg { 0.4980 0.1216 0.4235 srgb } def
435.74 263.04 8.22 2.76 r p2
/bg { 0.5020 0.1216 0.4235 srgb } def
435.74 260.28 8.22 2.76 r p2
/bg { 0.4941 0.1176 0.4275 srgb } def
435.74 257.52 8.22 2.76 r p2
/bg { 0.5529 0.1373 0.4118 srgb } def
435.74 254.75 8.22 2.76 r p2
/bg { 0.9020 0.3608 0.1882 srgb } def
435.74 251.99 8.22 2.76 r p2
/bg { 0.7490 0.2235 0.3216 srgb } def
443.96 345.90 8.22 2.76 r p2
/bg { 0.5333 0.1333 0.4157 srgb } def
443.96 343.14 8.22 2.76 r p2
/bg { 0.4000 0.0824 0.4314 srgb } def
443.96 340.38 8.22 2.76 r p2
/bg { 0.5529 0.1373 0.4118 srgb } def
443.96 337.61 8.22 2.76 r p2
/bg { 0.6549 0.1765 0.3725 srgb } def
443.96 334.85 8.22 2.76 r p2
/bg { 0.5216 0.1294 0.4196 srgb } def
443.96 332.09 8.22 2.76 r p2
/bg { 0.6314 0.1686 0.3843 srgb } def
443.96 329.33 8.22 2.76 r p2
/bg { 0.4706 0.1098 0.4275 srgb } def
443.96 326.57 8.22 2.76 r p2
/bg { 0.5608 0.1412 0.4118 srgb } def
443.96 323.80 8.22 2.76 r p2
/bg { 0.6863 0.1922 0.3569 srgb } def
443.96 321.04 8.22 2.76 r p2
/bg { 0.4196 0.0902 0.4314 srgb } def
443.96 318.28 8.22 2.76 r p2
/bg { 0.6784 0.1882 0.3608 srgb } def
443.96 315.52 8.22 2.76 r p2
/bg { 0.6627 0.1804 0.3686 srgb } def
443.96 312.76 8.22 2.76 r p2
/bg { 0.6157 0.1608 0.3922 srgb } def
443.96 309.99 8.22 2.76 r p2
/bg { 0.5843 0.1490 0.4039 srgb } def
443.96 307.23 8.22 2.76 r p2
/bg { 0.5490 0.1373 0.4118 srgb } def
443.96 304.47 8.22 2.76 r p2
/bg { 0.6471 0.1725 0.3765 srgb } def
443.96 301.71 8.22 2.76 r p2
/bg { 0.7176 0.2039 0.3412 srgb } def
443.96 298.95 8.22 2.76 r p2
/bg { 0.6039 0.1529 0.4000 srgb } def
443.96 296.18 8.22 2.76 r p2
/bg { 0.6196 0.1647 0.3882 srgb } def
443.96 293.42 8.22 2.76 r p2
/bg { 0.6118 0.1608 0.3922 srgb } def
443.96 290.66 8.22 2.76 r p2
/bg { 0.5451 0.1373 0.4118 srgb } def
443.96 287.90 8.22 2.76 r p2
/bg { 0.7176 0.2078 0.3412 srgb } def
443.96 285.14 8.22 2.76 r p2
/bg { 0.5647 0.1451 0.4078 srgb } def
443.96 282.37 8.22 2.76 r p2
/bg { 0.6157 0.1608 0.3922 srgb } def
443.96 279.61 8.22 2.76 r p2
/bg { 0.6196 0.1608 0.3922 srgb } def
443.96 276.85 8.22 2.76 r p2
/bg { 0.4627 0.1059 0.4275 srgb } def
443.96 274.09 8.22 2.76 r p2
/bg { 0.7098 0.2039 0.3451 srgb } def
443.96 271.33 8.22 2.76 r p2
/bg { 0.5922 0.1529 0.4000 srgb } def
443.96 268.56 8.22 2.76 r p2
/bg { 0.6745 0.1882 0.3608 srgb } def
443.96 265.80 8.22 2.76 r p2
/bg { 0.5647 0.1451 0.4078 srgb } def
443.96 263.04 8.22 2.76 r p2
/bg { 0.6824 0.1882 0.3608 srgb } def
443.96 260.28 8.22 2.76 r p2
/bg { 0.6196 0.1608 0.3922 srgb } def
443.96 257.52 8.22 2.76 r p2
/bg { 0.6314 0.1686 0.3843 srgb } def
443.96 254.75 8.22 2.76 r p2
/bg { 0.7843 0.2510 0.2902 srgb } def
443.96 251.99 8.22 2.76 r p2
/bg { 0.9412 0.4353 0.1255 srgb } def
452.18 345.90 8.22 2.76 r p2
/bg { 0.9804 0.5608 0.0314 srgb } def
452.18 343.14 8.22 2.76 r p2
/bg { 0.9843 0.6039 0.0235 srgb } def
452.18 340.38 8.22 2.76 r p2
/bg { 0.9882 0.6471 0.0392 srgb } def
452.18 337.61 8.22 2.76 r p2
/bg { 0.9686 0.5216 0.0627 srgb } def
452.18 334.85 8.22 2.76 r p2
/bg { 0.9059 0.3686 0.1804 srgb } def
452.18 332.09 8.22 2.76 r p2
/bg { 0.8863 0.3412 0.2039 srgb } def
452.18 329.33 8.22 2.76 r p2
/bg { 0.9490 0.4471 0.1176 srgb } def
452.18 326.57 8.22 2.76 r p2
/bg { 0.9294 0.4118 0.1451 srgb } def
452.18 323.80 8.22 2.76 r p2
/bg { 0.8824 0.3333 0.2078 srgb } def
452.18 321.04 8.22 2.76 r p2
/bg { 0.9529 0.4667 0.1020 srgb } def
452.18 318.28 8.22 2.76 r p2
/bg { 0.9020 0.3647 0.1843 srgb } def
452.18 315.52 8.22 2.76 r p2
/bg { 0.9412 0.4353 0.1294 srgb } def
452.18 312.76 8.22 2.76 r p2
/bg { 0.9529 0.4588 0.1059 srgb } def
452.18 309.99 8.22 2.76 r p2
/bg { 0.9412 0.4392 0.1255 srgb } def
452.18 307.23 8.22 2.76 r p2
/bg { 0.9725 0.5333 0.0549 srgb } def
452.18 304.47 8.22 2.76 r p2
/bg { 0.9098 0.3765 0.1725 srgb } def
452.18 301.71 8.22 2.76 r p2
/bg { 0.9137 0.3804 0.1686 srgb } def
452.18 298.95 8.22 2.76 r p2
/bg { 0.9490 0.4471 0.1176 srgb } def
452.18 296.18 8.22 2.76 r p2
/bg { 0.9333 0.4196 0.1373 srgb } def
452.18 293.42 8.22 2.76 r p2
/bg { 0.9608 0.4863 0.0863 srgb } def
452.18 290.66 8.22 2.76 r p2
/bg { 0.9529 0.4627 0.1020 srgb } def
452.18 287.90 8.22 2.76 r p2
/bg { 0.8745 0.3255 0.2157 srgb } def
452.18 285.14 8.22 2.76 r p2
/bg { 0.9725 0.5294 0.0549 srgb } def
452.18 282.37 8.22 2.76 r p2
/bg { 0.9451 0.4392 0.1255 srgb } def
452.18 279.61 8.22 2.76 r p2
/bg { 0.7882 0.2510 0.2902 srgb } def
452.18 276.85 8.22 2.76 r p2
/bg { 0.7804 0.2471 0.2941 srgb } def
452.18 274.09 8.22 2.76 r p2
/bg { 0.8196 0.2706 0.2706 srgb } def
452.18 271.33 8.22 2.76 r p2
/bg { 0.8471 0.2980 0.2431 srgb } def
452.18 268.56 8.22 2.76 r p2
/bg { 0.8745 0.3216 0.2196 srgb } def
452.18 265.80 8.22 2.76 r p2
/bg { 0.6510 0.1765 0.3725 srgb } def
452.18 263.04 8.22 2.76 r p2
/bg { 0.8706 0.3216 0.2196 srgb } def
452.18 260.28 8.22 2.76 r p2
/bg { 0.9176 0.3843 0.1647 srgb } def
452.18 257.52 8.22 2.76 r p2
/bg { 0.8275 0.2824 0.2627 srgb } def
452.18 254.75 8.22 2.76 r p2
/bg { 0.5843 0.1490 0.4039 srgb } def
452.18 251.99 8.22 2.76 r p2
24.94 18.00 816.94 577.28 cl
/bg { 0.5647 0.1451 0.4078 srgb } def
375.36 246.40 8.22 2.76 r p2
/bg { 0.3137 0.0510 0.4235 srgb } def
375.36 243.63 8.22 2.76 r p2
/bg { 0.5176 0.1294 0.4196 srgb } def
375.36 240.87 8.22 2.76 r p2
/bg { 0.8196 0.2706 0.2706 srgb } def
383.58 246.40 8.22 2.76 r p2
/bg { 0.6510 0.1725 0.3765 srgb } def
383.58 243.63 8.22 2.76 r p2
/bg { 0.5608 0.1412 0.4078 srgb } def
383.58 240.87 8.22 2.76 r p2
/bg { 0.9137 0.3804 0.1686 srgb } def
391.80 246.40 8.22 2.76 r p2
/bg { 0.9608 0.4863 0.0824 srgb } def
391.80 243.63 8.22 2.76 r p2
/bg { 0.9137 0.3804 0.1686 srgb } def
391.80 240.87 8.22 2.76 r p2
/bg { 0.9529 0.4627 0.1020 srgb } def
400.02 246.40 8.22 2.76 r p2
/bg { 0.8196 0.2706 0.2706 srgb } def
400.02 243.63 8.22 2.76 r p2
/bg { 0.8980 0.3569 0.1922 srgb } def
400.02 240.87 8.22 2.76 r p2
/bg { 0.9843 0.7490 0.1451 srgb } def
408.24 246.40 8.22 2.76 r p2
/bg { 0.9882 0.7098 0.0980 srgb } def
408.24 243.63 8.22 2.76 r p2
/bg { 0.9176 0.3882 0.1647 srgb } def
408.24 240.87 8.22 2.76 r p2
24.94 18.00 816.94 577.28 cl
/bg { 0.4471 0.0980 0.4314 srgb } def
419.30 246.40 8.22 2.76 r p2
/bg { 0.3176 0.0549 0.4235 srgb } def
419.30 243.63 8.22 2.76 r p2
/bg { 0.2118 0.0353 0.3804 srgb } def
419.30 240.87 8.22 2.76 r p2
/bg { 0.2549 0.0392 0.4039 srgb } def
427.52 246.40 8.22 2.76 r p2
/bg { 0.3137 0.0510 0.4235 srgb } def
427.52 243.63 8.22 2.76 r p2
/bg { 0.2980 0.0471 0.4196 srgb } def
427.52 240.87 8.22 2.76 r p2
/bg { 0.1569 0.0431 0.3255 srgb } def
435.74 246.40 8.22 2.76 r p2
/bg { 0.3137 0.0510 0.4235 srgb } def
435.74 243.63 8.22 2.76 r p2
/bg { 0.5412 0.1333 0.4157 srgb } def
435.74 240.87 8.22 2.76 r p2
/bg { 0.5882 0.1490 0.4039 srgb } def
443.96 246.40 8.22 2.76 r p2
/bg { 0.7412 0.2196 0.3255 srgb } def
443.96 243.63 8.22 2.76 r p2
/bg { 0.6000 0.1529 0.4000 srgb } def
443.96 240.87 8.22 2.76 r p2
/bg { 0.9608 0.8510 0.2863 srgb } def
452.18 246.40 8.22 2.76 r p2
/bg { 0.8941 0.3569 0.1922 srgb } def
452.18 243.63 8.22 2.76 r p2
/bg { 0.9412 0.4314 0.1294 srgb } def
452.18 240.87 8.22 2.76 r p2
24.94 18.00 816.94 577.28 cl
/bg { 0.9843 0.6078 0.0235 srgb } def
375.36 235.28 8.22 2.76 r p2
/bg { 0.7725 0.2392 0.3020 srgb } def
383.58 235.28 8.22 2.76 r p2
/bg { 0.4039 0.0863 0.4314 srgb } def
391.80 235.28 8.22 2.76 r p2
/bg { 0.4745 0.1098 0.4275 srgb } def
400.02 235.28 8.22 2.76 r p2
/bg { 0.3490 0.0667 0.4314 srgb } def
408.24 235.28 8.22 2.76 r p2
24.94 18.00 816.94 577.28 cl
/bg { 0.9882 1 0.6431 srgb } def
419.30 235.28 8.22 2.76 r p2
/bg { 0.8980 0.3569 0.1922 srgb } def
427.52 235.28 8.22 2.76 r p2
/bg { 0.7451 0.2196 0.3255 srgb } def
435.74 235.28 8.22 2.76 r p2
/bg { 0.9882 0.6392 0.0353 srgb } def
443.96 235.28 8.22 2.76 r p2
/bg { 0.3020 0.0471 0.4196 srgb } def
452.18 235.28 8.22 2.76 r p2
24.94 18.00 816.94 577.28 cl
24.94 18.00 816.94 577.28 cl
/Font1 findfont 8 s
0 0 0 srgb
368.28 297.46 (miRNA) 1 0 t
24.94 18.00 816.94 577.28 cl
/Font1 findfont 8 s
0 0 0 srgb
368.28 242.14 (piRNA) 1 0 t
24.94 18.00 816.94 577.28 cl
/Font1 findfont 8 s
0 0 0 srgb
368.28 233.78 (tRNA) 1 0 t
24.94 18.00 816.94 577.28 cl
24.94 18.00 816.94 577.28 cl
/bg { 0.2941 0.0471 0.4196 srgb } def
375.36 351.50 8.22 8.50 r p2
383.58 351.50 8.22 8.50 r p2
391.80 351.50 8.22 8.50 r p2
400.02 351.50 8.22 8.50 r p2
408.24 351.50 8.22 8.50 r p2
24.94 18.00 816.94 577.28 cl
24.94 18.00 816.94 577.28 cl
24.94 18.00 816.94 577.28 cl
24.94 18.00 816.94 577.28 cl
24.94 18.00 816.94 577.28 cl
/bg { 0.9294 0.4118 0.1451 srgb } def
419.30 351.50 8.22 8.50 r p2
427.52 351.50 8.22 8.50 r p2
435.74 351.50 8.22 8.50 r p2
443.96 351.50 8.22 8.50 r p2
452.18 351.50 8.22 8.50 r p2
24.94 18.00 816.94 577.28 cl
/Font1 findfont 10 s
0 0 0 srgb
463.24 355.75 (Group) 0 0 t
24.94 18.00 816.94 577.28 cl
24.94 18.00 816.94 577.28 cl
24.94 18.00 816.94 577.28 cl
24.94 18.00 816.94 577.28 cl
24.94 18.00 816.94 577.28 cl
24.94 18.00 816.94 577.28 cl
24.94 18.00 816.94 577.28 cl
24.94 18.00 816.94 577.28 cl
24.94 18.00 816.94 577.28 cl
24.94 18.00 816.94 577.28 cl
/Font1 findfont 10 s
0 0 0 srgb
467.49 332.85 (Group) 0 0 t
/Font1 findfont 8 s
481.66 318.64 (Control) 0 0 t
481.66 307.30 (MSUS) 0 0 t
/bg { 0.2941 0.0471 0.4196 srgb } def
1 1 1 srgb
0.75 setlinewidth
[] 0 setdash
1 setlinecap
1 setlinejoin
10.00 setmiterlimit
467.49 315.84 11.34 11.34 r p3
/bg { 0.9294 0.4118 0.1451 srgb } def
467.49 304.50 11.34 11.34 r p3
24.94 18.00 816.94 577.28 cl
24.94 18.00 816.94 577.28 cl
/Font1 findfont 10 s
0 0 0 srgb
467.49 285.79 (L) 0 0 t
473.05 285.79 (o) 0 0 t
478.61 285.79 (g) 0 0 t
/Font1 findfont 7 s
484.17 283.96 (2) 0 0 t
/Font5 findfont 10 s
488.06 285.79 ( ) 0 0 t
/Font1 findfont 10 s
490.56 285.79 (FC) 0 0 t
/Font1 findfont 8 s
481.66 242.45 (-2) 0 0 t
481.66 258.04 (0) 0 0 t
481.66 273.63 (2) 0 0 t
/bg { 0.9882 1 0.6431 srgb } def
0.9882 1 0.6431 srgb
0.75 setlinewidth
[] 0 setdash
1 setlinecap
1 setlinejoin
10.00 setmiterlimit
467.49 277.41 11.34 0.34 r p3
467.49 277.07 11.34 0.34 r p3
467.49 276.72 11.34 0.34 r p3
467.49 276.38 11.34 0.34 r p3
467.49 276.03 11.34 0.34 r p3
467.49 275.69 11.34 0.34 r p3
/bg { 0.9843 0.9961 0.6314 srgb } def
0.9843 0.9961 0.6314 srgb
467.49 275.35 11.34 0.34 r p3
/bg { 0.9686 0.9804 0.5882 srgb } def
0.9686 0.9804 0.5882 srgb
467.49 275.00 11.34 0.34 r p3
/bg { 0.9569 0.9647 0.5412 srgb } def
0.9569 0.9647 0.5412 srgb
467.49 274.66 11.34 0.34 r p3
/bg { 0.9490 0.9529 0.4941 srgb } def
0.9490 0.9529 0.4941 srgb
467.49 274.32 11.34 0.34 r p3
/bg { 0.9451 0.9294 0.4431 srgb } def
0.9451 0.9294 0.4431 srgb
467.49 273.97 11.34 0.34 r p3
/bg { 0.9490 0.9098 0.4000 srgb } def
0.9490 0.9098 0.4000 srgb
467.49 273.63 11.34 0.34 r p3
/bg { 0.9529 0.8902 0.3529 srgb } def
0.9529 0.8902 0.3529 srgb
467.49 273.29 11.34 0.34 r p3
/bg { 0.9569 0.8706 0.3137 srgb } def
0.9569 0.8706 0.3137 srgb
467.49 272.94 11.34 0.34 r p3
/bg { 0.9647 0.8431 0.2784 srgb } def
0.9647 0.8431 0.2784 srgb
467.49 272.60 11.34 0.34 r p3
/bg { 0.9686 0.8196 0.2431 srgb } def
0.9686 0.8196 0.2431 srgb
467.49 272.25 11.34 0.34 r p3
/bg { 0.9765 0.7961 0.2078 srgb } def
0.9765 0.7961 0.2078 srgb
467.49 271.91 11.34 0.34 r p3
/bg { 0.9765 0.7765 0.1765 srgb } def
0.9765 0.7765 0.1765 srgb
467.49 271.57 11.34 0.34 r p3
/bg { 0.9804 0.7569 0.1490 srgb } def
0.9804 0.7569 0.1490 srgb
467.49 271.22 11.34 0.34 r p3
/bg { 0.9843 0.7333 0.1216 srgb } def
0.9843 0.7333 0.1216 srgb
467.49 270.88 11.34 0.34 r p3
/bg { 0.9882 0.7059 0.0941 srgb } def
0.9882 0.7059 0.0941 srgb
467.49 270.54 11.34 0.34 r p3
/bg { 0.9882 0.6824 0.0745 srgb } def
0.9882 0.6824 0.0745 srgb
467.49 270.19 11.34 0.34 r p3
/bg { 0.9882 0.6588 0.0510 srgb } def
0.9882 0.6588 0.0510 srgb
467.49 269.85 11.34 0.34 r p3
/bg { 0.9882 0.6431 0.0353 srgb } def
0.9882 0.6431 0.0353 srgb
467.49 269.51 11.34 0.34 r p3
/bg { 0.9882 0.6196 0.0275 srgb } def
0.9882 0.6196 0.0275 srgb
467.49 269.16 11.34 0.34 r p3
/bg { 0.9843 0.5961 0.0235 srgb } def
0.9843 0.5961 0.0235 srgb
467.49 268.82 11.34 0.34 r p3
/bg { 0.9804 0.5725 0.0275 srgb } def
0.9804 0.5725 0.0275 srgb
467.49 268.48 11.34 0.34 r p3
/bg { 0.9765 0.5529 0.0392 srgb } def
0.9765 0.5529 0.0392 srgb
467.49 268.13 11.34 0.34 r p3
/bg { 0.9725 0.5294 0.0549 srgb } def
0.9725 0.5294 0.0549 srgb
467.49 267.79 11.34 0.34 r p3
/bg { 0.9686 0.5137 0.0667 srgb } def
0.9686 0.5137 0.0667 srgb
467.49 267.44 11.34 0.34 r p3
/bg { 0.9647 0.4902 0.0824 srgb } def
0.9647 0.4902 0.0824 srgb
467.49 267.10 11.34 0.34 r p3
/bg { 0.9569 0.4667 0.0980 srgb } def
0.9569 0.4667 0.0980 srgb
467.49 266.76 11.34 0.34 r p3
/bg { 0.9490 0.4510 0.1137 srgb } def
0.9490 0.4510 0.1137 srgb
467.49 266.41 11.34 0.34 r p3
/bg { 0.9412 0.4314 0.1294 srgb } def
0.9412 0.4314 0.1294 srgb
467.49 266.07 11.34 0.34 r p3
/bg { 0.9294 0.4118 0.1451 srgb } def
0.9294 0.4118 0.1451 srgb
467.49 265.73 11.34 0.34 r p3
/bg { 0.9216 0.3961 0.1608 srgb } def
0.9216 0.3961 0.1608 srgb
467.49 265.38 11.34 0.34 r p3
/bg { 0.9098 0.3765 0.1725 srgb } def
0.9098 0.3765 0.1725 srgb
467.49 265.04 11.34 0.34 r p3
/bg { 0.8980 0.3608 0.1882 srgb } def
0.8980 0.3608 0.1882 srgb
467.49 264.70 11.34 0.34 r p3
/bg { 0.8863 0.3451 0.2039 srgb } def
0.8863 0.3451 0.2039 srgb
467.49 264.35 11.34 0.34 r p3
/bg { 0.8784 0.3255 0.2118 srgb } def
0.8784 0.3255 0.2118 srgb
467.49 264.01 11.34 0.34 r p3
/bg { 0.8627 0.3137 0.2275 srgb } def
0.8627 0.3137 0.2275 srgb
467.49 263.67 11.34 0.34 r p3
/bg { 0.8471 0.2980 0.2431 srgb } def
0.8471 0.2980 0.2431 srgb
467.49 263.32 11.34 0.34 r p3
/bg { 0.8314 0.2863 0.2588 srgb } def
0.8314 0.2863 0.2588 srgb
467.49 262.98 11.34 0.34 r p3
/bg { 0.8196 0.2706 0.2706 srgb } def
0.8196 0.2706 0.2706 srgb
467.49 262.63 11.34 0.34 r p3
/bg { 0.8039 0.2588 0.2824 srgb } def
0.8039 0.2588 0.2824 srgb
467.49 262.29 11.34 0.34 r p3
/bg { 0.7843 0.2510 0.2902 srgb } def
0.7843 0.2510 0.2902 srgb
467.49 261.95 11.34 0.34 r p3
/bg { 0.7686 0.2353 0.3059 srgb } def
0.7686 0.2353 0.3059 srgb
467.49 261.60 11.34 0.34 r p3
/bg { 0.7529 0.2275 0.3176 srgb } def
0.7529 0.2275 0.3176 srgb
467.49 261.26 11.34 0.34 r p3
/bg { 0.7373 0.2157 0.3294 srgb } def
0.7373 0.2157 0.3294 srgb
467.49 260.92 11.34 0.34 r p3
/bg { 0.7216 0.2078 0.3412 srgb } def
0.7216 0.2078 0.3412 srgb
467.49 260.57 11.34 0.34 r p3
/bg { 0.7020 0.2000 0.3490 srgb } def
0.7020 0.2000 0.3490 srgb
467.49 260.23 11.34 0.34 r p3
/bg { 0.6824 0.1922 0.3569 srgb } def
0.6824 0.1922 0.3569 srgb
467.49 259.89 11.34 0.34 r p3
/bg { 0.6667 0.1804 0.3686 srgb } def
0.6667 0.1804 0.3686 srgb
467.49 259.54 11.34 0.34 r p3
/bg { 0.6471 0.1725 0.3765 srgb } def
0.6471 0.1725 0.3765 srgb
467.49 259.20 11.34 0.34 r p3
/bg { 0.6314 0.1686 0.3843 srgb } def
0.6314 0.1686 0.3843 srgb
467.49 258.85 11.34 0.34 r p3
/bg { 0.6118 0.1569 0.3961 srgb } def
0.6118 0.1569 0.3961 srgb
467.49 258.51 11.34 0.34 r p3
/bg { 0.5922 0.1529 0.4000 srgb } def
0.5922 0.1529 0.4000 srgb
467.49 258.17 11.34 0.34 r p3
/bg { 0.5725 0.1451 0.4078 srgb } def
0.5725 0.1451 0.4078 srgb
467.49 257.82 11.34 0.34 r p3
/bg { 0.5569 0.1373 0.4118 srgb } def
0.5569 0.1373 0.4118 srgb
467.49 257.48 11.34 0.34 r p3
/bg { 0.5333 0.1333 0.4157 srgb } def
0.5333 0.1333 0.4157 srgb
467.49 257.14 11.34 0.34 r p3
/bg { 0.5176 0.1294 0.4196 srgb } def
0.5176 0.1294 0.4196 srgb
467.49 256.79 11.34 0.34 r p3
/bg { 0.4980 0.1216 0.4235 srgb } def
0.4980 0.1216 0.4235 srgb
467.49 256.45 11.34 0.34 r p3
/bg { 0.4824 0.1137 0.4275 srgb } def
0.4824 0.1137 0.4275 srgb
467.49 256.11 11.34 0.34 r p3
/bg { 0.4627 0.1059 0.4314 srgb } def
0.4627 0.1059 0.4314 srgb
467.49 255.76 11.34 0.34 r p3
/bg { 0.4471 0.0980 0.4314 srgb } def
0.4471 0.0980 0.4314 srgb
467.49 255.42 11.34 0.34 r p3
/bg { 0.4235 0.0941 0.4314 srgb } def
0.4235 0.0941 0.4314 srgb
467.49 255.08 11.34 0.34 r p3
/bg { 0.4118 0.0863 0.4314 srgb } def
0.4118 0.0863 0.4314 srgb
467.49 254.73 11.34 0.34 r p3
/bg { 0.3882 0.0784 0.4314 srgb } def
0.3882 0.0784 0.4314 srgb
467.49 254.39 11.34 0.34 r p3
/bg { 0.3686 0.0745 0.4314 srgb } def
0.3686 0.0745 0.4314 srgb
467.49 254.04 11.34 0.34 r p3
/bg { 0.3529 0.0667 0.4314 srgb } def
0.3529 0.0667 0.4314 srgb
467.49 253.70 11.34 0.34 r p3
/bg { 0.3333 0.0588 0.4275 srgb } def
0.3333 0.0588 0.4275 srgb
467.49 253.36 11.34 0.34 r p3
/bg { 0.3137 0.0510 0.4235 srgb } def
0.3137 0.0510 0.4235 srgb
467.49 253.01 11.34 0.34 r p3
/bg { 0.2941 0.0471 0.4196 srgb } def
0.2941 0.0471 0.4196 srgb
467.49 252.67 11.34 0.34 r p3
/bg { 0.2745 0.0431 0.4157 srgb } def
0.2745 0.0431 0.4157 srgb
467.49 252.33 11.34 0.34 r p3
/bg { 0.2549 0.0392 0.4039 srgb } def
0.2549 0.0392 0.4039 srgb
467.49 251.98 11.34 0.34 r p3
/bg { 0.2353 0.0353 0.3922 srgb } def
0.2353 0.0353 0.3922 srgb
467.49 251.64 11.34 0.34 r p3
/bg { 0.2157 0.0353 0.3843 srgb } def
0.2157 0.0353 0.3843 srgb
467.49 251.30 11.34 0.34 r p3
/bg { 0.1961 0.0392 0.3647 srgb } def
0.1961 0.0392 0.3647 srgb
467.49 250.95 11.34 0.34 r p3
/bg { 0.1725 0.0431 0.3451 srgb } def
0.1725 0.0431 0.3451 srgb
467.49 250.61 11.34 0.34 r p3
/bg { 0.1529 0.0431 0.3216 srgb } def
0.1529 0.0431 0.3216 srgb
467.49 250.26 11.34 0.34 r p3
/bg { 0.1333 0.0471 0.2941 srgb } def
0.1333 0.0471 0.2941 srgb
467.49 249.92 11.34 0.34 r p3
/bg { 0.1137 0.0471 0.2706 srgb } def
0.1137 0.0471 0.2706 srgb
467.49 249.58 11.34 0.34 r p3
/bg { 0.0980 0.0471 0.2392 srgb } def
0.0980 0.0471 0.2392 srgb
467.49 249.23 11.34 0.34 r p3
/bg { 0.0824 0.0431 0.2118 srgb } def
0.0824 0.0431 0.2118 srgb
467.49 248.89 11.34 0.34 r p3
/bg { 0.0667 0.0392 0.1843 srgb } def
0.0667 0.0392 0.1843 srgb
467.49 248.55 11.34 0.34 r p3
/bg { 0.0510 0.0314 0.1569 srgb } def
0.0510 0.0314 0.1569 srgb
467.49 248.20 11.34 0.34 r p3
/bg { 0.0353 0.0235 0.1294 srgb } def
0.0353 0.0235 0.1294 srgb
467.49 247.86 11.34 0.34 r p3
/bg { 0.0275 0.0157 0.1020 srgb } def
0.0275 0.0157 0.1020 srgb
467.49 247.52 11.34 0.34 r p3
/bg { 0.0157 0.0118 0.0745 srgb } def
0.0157 0.0118 0.0745 srgb
467.49 247.17 11.34 0.34 r p3
/bg { 0.0078 0.0078 0.0510 srgb } def
0.0078 0.0078 0.0510 srgb
467.49 246.83 11.34 0.34 r p3
/bg { 0.0039 0.0039 0.0275 srgb } def
0.0039 0.0039 0.0275 srgb
467.49 246.49 11.34 0.34 r p3
/bg { 0 0 0.0157 srgb } def
0 0 0.0157 srgb
467.49 246.14 11.34 0.34 r p3
467.49 245.80 11.34 0.34 r p3
467.49 245.45 11.34 0.34 r p3
467.49 245.11 11.34 0.34 r p3
467.49 244.77 11.34 0.34 r p3
467.49 244.42 11.34 0.34 r p3
467.49 244.08 11.34 0.34 r p3
467.49 243.74 11.34 0.34 r p3
1 1 1 srgb
np
467.49 245.33 m
2.27 0 l
o
np
467.49 260.92 m
2.27 0 l
o
np
467.49 276.51 m
2.27 0 l
o
np
478.83 245.33 m
-2.27 0 l
o
np
478.83 260.92 m
-2.27 0 l
o
np
478.83 276.51 m
-2.27 0 l
o
24.94 18.00 816.94 577.28 cl
24.94 18.00 816.94 577.28 cl
24.94 18.00 816.94 577.28 cl
24.94 18.00 816.94 577.28 cl
24.94 18.00 816.94 577.28 cl
24.94 18.00 816.94 577.28 cl
24.94 18.00 816.94 577.28 cl
ep
%%Trailer
%%Pages: 1
%%EOF
