%!PS-Adobe-3.0
%%DocumentNeededResources: font Helvetica
%%+ font Helvetica-Bold
%%+ font Helvetica-Oblique
%%+ font Helvetica-BoldOblique
%%+ font Symbol
%%DocumentMedia: a4 595 841 0 () ()
%%Title: R Graphics Output
%%Creator: R Software
%%Pages: (atend)
%%Orientation: Landscape
%%BoundingBox: 18 25 577 817
%%EndComments
%%BeginProlog
/bp  { gs sRGB 595.00 0 translate 90 rotate gs } def
% begin .ps.prolog
/gs  { gsave } bind def
/gr  { grestore } bind def
/ep  { showpage gr gr } bind def
/m   { moveto } bind def
/l  { rlineto } bind def
/np  { newpath } bind def
/cp  { closepath } bind def
/f   { fill } bind def
/o   { stroke } bind def
/c   { newpath 0 360 arc } bind def
/r   { 4 2 roll moveto 1 copy 3 -1 roll exch 0 exch rlineto 0 rlineto -1 mul 0 exch rlineto closepath } bind def
/p1  { stroke } bind def
/p2  { gsave bg fill grestore newpath } bind def
/p3  { gsave bg fill grestore stroke } bind def
/p6  { gsave bg eofill grestore newpath } bind def
/p7  { gsave bg eofill grestore stroke } bind def
/t   { 5 -2 roll moveto gsave rotate
       1 index stringwidth pop
       mul neg 0 rmoveto show grestore } bind def
/ta  { 4 -2 roll moveto gsave rotate show } bind def
/tb  { 2 -1 roll 0 rmoveto show } bind def
/cl  { grestore gsave newpath 3 index 3 index moveto 1 index
       4 -1 roll lineto  exch 1 index lineto lineto
       closepath clip newpath } bind def
/rgb { setrgbcolor } bind def
/s   { scalefont setfont } bind def
% end   .ps.prolog
/sRGB { [ /CIEBasedABC
          << /DecodeLMN
               [ { dup 0.03928 le
                        {12.92321 div}
                        {0.055 add 1.055 div 2.4 exp }
                     ifelse
                 } bind dup dup
               ]
             /MatrixLMN [0.412457 0.212673 0.019334
                         0.357576 0.715152 0.119192
                         0.180437 0.072175 0.950301]
             /WhitePoint [0.9505 1.0 1.0890]
           >>
         ] setcolorspace } bind def
/srgb { setcolor } bind def
%%IncludeResource: font Helvetica
/Helvetica findfont
dup length dict begin
  {1 index /FID ne {def} {pop pop} ifelse} forall
  /Encoding ISOLatin1Encoding def
  currentdict
  end
/Font1 exch definefont pop
%%IncludeResource: font Helvetica-Bold
/Helvetica-Bold findfont
dup length dict begin
  {1 index /FID ne {def} {pop pop} ifelse} forall
  /Encoding ISOLatin1Encoding def
  currentdict
  end
/Font2 exch definefont pop
%%IncludeResource: font Helvetica-Oblique
/Helvetica-Oblique findfont
dup length dict begin
  {1 index /FID ne {def} {pop pop} ifelse} forall
  /Encoding ISOLatin1Encoding def
  currentdict
  end
/Font3 exch definefont pop
%%IncludeResource: font Helvetica-BoldOblique
/Helvetica-BoldOblique findfont
dup length dict begin
  {1 index /FID ne {def} {pop pop} ifelse} forall
  /Encoding ISOLatin1Encoding def
  currentdict
  end
/Font4 exch definefont pop
%%IncludeResource: font Symbol
/Symbol findfont
dup length dict begin
  {1 index /FID ne {def} {pop pop} ifelse} forall
  currentdict
  end
/Font5 exch definefont pop
%%EndProlog
%%Page: 1 1
bp
24.94 18.00 816.94 577.28 cl
24.94 18.00 816.94 577.28 cl
/bg { 0.0314 0.1882 0.4196 srgb } def
380.48 394.38 7.50 9.17 r p2
/bg { 0.2314 0.5412 0.7608 srgb } def
380.48 385.21 7.50 9.17 r p2
/bg { 0.8039 0.8784 0.9451 srgb } def
380.48 376.04 7.50 9.17 r p2
/bg { 0.8000 0.8745 0.9451 srgb } def
380.48 366.87 7.50 9.17 r p2
/bg { 0.8196 0.8863 0.9529 srgb } def
380.48 357.69 7.50 9.17 r p2
/bg { 0.8706 0.9216 0.9686 srgb } def
380.48 348.52 7.50 9.17 r p2
380.48 339.35 7.50 9.17 r p2
380.48 330.18 7.50 9.17 r p2
380.48 321.01 7.50 9.17 r p2
380.48 311.84 7.50 9.17 r p2
380.48 302.67 7.50 9.17 r p2
380.48 293.50 7.50 9.17 r p2
380.48 284.33 7.50 9.17 r p2
380.48 275.16 7.50 9.17 r p2
380.48 265.99 7.50 9.17 r p2
380.48 256.81 7.50 9.17 r p2
380.48 247.64 7.50 9.17 r p2
387.99 394.38 7.50 9.17 r p2
/bg { 0.6706 0.8118 0.8980 srgb } def
387.99 385.21 7.50 9.17 r p2
/bg { 0.8235 0.8902 0.9529 srgb } def
387.99 376.04 7.50 9.17 r p2
/bg { 0.8706 0.9216 0.9686 srgb } def
387.99 366.87 7.50 9.17 r p2
/bg { 0.5882 0.7725 0.8745 srgb } def
387.99 357.69 7.50 9.17 r p2
/bg { 0.5137 0.7294 0.8588 srgb } def
387.99 348.52 7.50 9.17 r p2
/bg { 0.8706 0.9216 0.9686 srgb } def
387.99 339.35 7.50 9.17 r p2
387.99 330.18 7.50 9.17 r p2
387.99 321.01 7.50 9.17 r p2
387.99 311.84 7.50 9.17 r p2
387.99 302.67 7.50 9.17 r p2
387.99 293.50 7.50 9.17 r p2
387.99 284.33 7.50 9.17 r p2
387.99 275.16 7.50 9.17 r p2
387.99 265.99 7.50 9.17 r p2
387.99 256.81 7.50 9.17 r p2
387.99 247.64 7.50 9.17 r p2
395.49 394.38 7.50 9.17 r p2
/bg { 0.8078 0.8784 0.9490 srgb } def
395.49 385.21 7.50 9.17 r p2
/bg { 0.8706 0.9216 0.9686 srgb } def
395.49 376.04 7.50 9.17 r p2
/bg { 0.8314 0.8941 0.9569 srgb } def
395.49 366.87 7.50 9.17 r p2
/bg { 0.8314 0.8980 0.9569 srgb } def
395.49 357.69 7.50 9.17 r p2
/bg { 0.8353 0.8980 0.9569 srgb } def
395.49 348.52 7.50 9.17 r p2
/bg { 0.8706 0.9216 0.9686 srgb } def
395.49 339.35 7.50 9.17 r p2
395.49 330.18 7.50 9.17 r p2
/bg { 0.7765 0.8588 0.9373 srgb } def
395.49 321.01 7.50 9.17 r p2
/bg { 0.8706 0.9216 0.9686 srgb } def
395.49 311.84 7.50 9.17 r p2
/bg { 0.8353 0.8980 0.9569 srgb } def
395.49 302.67 7.50 9.17 r p2
/bg { 0.8706 0.9216 0.9686 srgb } def
395.49 293.50 7.50 9.17 r p2
/bg { 0.8392 0.8980 0.9569 srgb } def
395.49 284.33 7.50 9.17 r p2
/bg { 0.8471 0.9059 0.9608 srgb } def
395.49 275.16 7.50 9.17 r p2
/bg { 0.7647 0.8549 0.9333 srgb } def
395.49 265.99 7.50 9.17 r p2
/bg { 0.8471 0.9059 0.9608 srgb } def
395.49 256.81 7.50 9.17 r p2
/bg { 0.8431 0.9020 0.9608 srgb } def
395.49 247.64 7.50 9.17 r p2
/bg { 0.8706 0.9216 0.9686 srgb } def
402.99 394.38 7.50 9.17 r p2
/bg { 0.8353 0.8980 0.9569 srgb } def
402.99 385.21 7.50 9.17 r p2
/bg { 0.8706 0.9216 0.9686 srgb } def
402.99 376.04 7.50 9.17 r p2
/bg { 0.8431 0.9059 0.9608 srgb } def
402.99 366.87 7.50 9.17 r p2
/bg { 0.8471 0.9059 0.9608 srgb } def
402.99 357.69 7.50 9.17 r p2
/bg { 0.8706 0.9216 0.9686 srgb } def
402.99 348.52 7.50 9.17 r p2
402.99 339.35 7.50 9.17 r p2
402.99 330.18 7.50 9.17 r p2
402.99 321.01 7.50 9.17 r p2
/bg { 0.8510 0.9059 0.9608 srgb } def
402.99 311.84 7.50 9.17 r p2
/bg { 0.8353 0.8980 0.9569 srgb } def
402.99 302.67 7.50 9.17 r p2
/bg { 0.8706 0.9216 0.9686 srgb } def
402.99 293.50 7.50 9.17 r p2
/bg { 0.8235 0.8902 0.9529 srgb } def
402.99 284.33 7.50 9.17 r p2
402.99 275.16 7.50 9.17 r p2
402.99 265.99 7.50 9.17 r p2
/bg { 0.8706 0.9216 0.9686 srgb } def
402.99 256.81 7.50 9.17 r p2
/bg { 0.7137 0.8314 0.9137 srgb } def
402.99 247.64 7.50 9.17 r p2
/bg { 0.8706 0.9216 0.9686 srgb } def
410.50 394.38 7.50 9.17 r p2
410.50 385.21 7.50 9.17 r p2
/bg { 0.8275 0.8941 0.9529 srgb } def
410.50 376.04 7.50 9.17 r p2
/bg { 0.8000 0.8745 0.9451 srgb } def
410.50 366.87 7.50 9.17 r p2
/bg { 0.8706 0.9216 0.9686 srgb } def
410.50 357.69 7.50 9.17 r p2
410.50 348.52 7.50 9.17 r p2
/bg { 0.7529 0.8471 0.9294 srgb } def
410.50 339.35 7.50 9.17 r p2
/bg { 0.8706 0.9216 0.9686 srgb } def
410.50 330.18 7.50 9.17 r p2
410.50 321.01 7.50 9.17 r p2
410.50 311.84 7.50 9.17 r p2
410.50 302.67 7.50 9.17 r p2
410.50 293.50 7.50 9.17 r p2
410.50 284.33 7.50 9.17 r p2
410.50 275.16 7.50 9.17 r p2
410.50 265.99 7.50 9.17 r p2
/bg { 0.8431 0.9020 0.9569 srgb } def
410.50 256.81 7.50 9.17 r p2
/bg { 0.8706 0.9216 0.9686 srgb } def
410.50 247.64 7.50 9.17 r p2
418.00 394.38 7.50 9.17 r p2
418.00 385.21 7.50 9.17 r p2
/bg { 0.8431 0.9059 0.9608 srgb } def
418.00 376.04 7.50 9.17 r p2
418.00 366.87 7.50 9.17 r p2
/bg { 0.8706 0.9216 0.9686 srgb } def
418.00 357.69 7.50 9.17 r p2
418.00 348.52 7.50 9.17 r p2
/bg { 0.8157 0.8863 0.9490 srgb } def
418.00 339.35 7.50 9.17 r p2
/bg { 0.8706 0.9216 0.9686 srgb } def
418.00 330.18 7.50 9.17 r p2
418.00 321.01 7.50 9.17 r p2
/bg { 0.8431 0.9059 0.9608 srgb } def
418.00 311.84 7.50 9.17 r p2
/bg { 0.8706 0.9216 0.9686 srgb } def
418.00 302.67 7.50 9.17 r p2
418.00 293.50 7.50 9.17 r p2
418.00 284.33 7.50 9.17 r p2
/bg { 0.8510 0.9098 0.9608 srgb } def
418.00 275.16 7.50 9.17 r p2
/bg { 0.8706 0.9216 0.9686 srgb } def
418.00 265.99 7.50 9.17 r p2
418.00 256.81 7.50 9.17 r p2
418.00 247.64 7.50 9.17 r p2
425.50 394.38 7.50 9.17 r p2
425.50 385.21 7.50 9.17 r p2
425.50 376.04 7.50 9.17 r p2
425.50 366.87 7.50 9.17 r p2
/bg { 0.8431 0.9059 0.9608 srgb } def
425.50 357.69 7.50 9.17 r p2
/bg { 0.8706 0.9216 0.9686 srgb } def
425.50 348.52 7.50 9.17 r p2
425.50 339.35 7.50 9.17 r p2
425.50 330.18 7.50 9.17 r p2
425.50 321.01 7.50 9.17 r p2
425.50 311.84 7.50 9.17 r p2
425.50 302.67 7.50 9.17 r p2
425.50 293.50 7.50 9.17 r p2
425.50 284.33 7.50 9.17 r p2
425.50 275.16 7.50 9.17 r p2
425.50 265.99 7.50 9.17 r p2
425.50 256.81 7.50 9.17 r p2
425.50 247.64 7.50 9.17 r p2
433.01 394.38 7.50 9.17 r p2
433.01 385.21 7.50 9.17 r p2
433.01 376.04 7.50 9.17 r p2
/bg { 0.8431 0.9020 0.9608 srgb } def
433.01 366.87 7.50 9.17 r p2
/bg { 0.8706 0.9216 0.9686 srgb } def
433.01 357.69 7.50 9.17 r p2
433.01 348.52 7.50 9.17 r p2
433.01 339.35 7.50 9.17 r p2
433.01 330.18 7.50 9.17 r p2
433.01 321.01 7.50 9.17 r p2
433.01 311.84 7.50 9.17 r p2
433.01 302.67 7.50 9.17 r p2
433.01 293.50 7.50 9.17 r p2
433.01 284.33 7.50 9.17 r p2
433.01 275.16 7.50 9.17 r p2
433.01 265.99 7.50 9.17 r p2
433.01 256.81 7.50 9.17 r p2
433.01 247.64 7.50 9.17 r p2
440.51 394.38 7.50 9.17 r p2
440.51 385.21 7.50 9.17 r p2
440.51 376.04 7.50 9.17 r p2
440.51 366.87 7.50 9.17 r p2
440.51 357.69 7.50 9.17 r p2
440.51 348.52 7.50 9.17 r p2
440.51 339.35 7.50 9.17 r p2
/bg { 0.8510 0.9098 0.9608 srgb } def
440.51 330.18 7.50 9.17 r p2
/bg { 0.8706 0.9216 0.9686 srgb } def
440.51 321.01 7.50 9.17 r p2
440.51 311.84 7.50 9.17 r p2
440.51 302.67 7.50 9.17 r p2
440.51 293.50 7.50 9.17 r p2
440.51 284.33 7.50 9.17 r p2
440.51 275.16 7.50 9.17 r p2
440.51 265.99 7.50 9.17 r p2
440.51 256.81 7.50 9.17 r p2
440.51 247.64 7.50 9.17 r p2
448.01 394.38 7.50 9.17 r p2
448.01 385.21 7.50 9.17 r p2
448.01 376.04 7.50 9.17 r p2
448.01 366.87 7.50 9.17 r p2
448.01 357.69 7.50 9.17 r p2
448.01 348.52 7.50 9.17 r p2
448.01 339.35 7.50 9.17 r p2
448.01 330.18 7.50 9.17 r p2
448.01 321.01 7.50 9.17 r p2
448.01 311.84 7.50 9.17 r p2
448.01 302.67 7.50 9.17 r p2
448.01 293.50 7.50 9.17 r p2
448.01 284.33 7.50 9.17 r p2
/bg { 0.8510 0.9059 0.9608 srgb } def
448.01 275.16 7.50 9.17 r p2
/bg { 0.8706 0.9216 0.9686 srgb } def
448.01 265.99 7.50 9.17 r p2
448.01 256.81 7.50 9.17 r p2
448.01 247.64 7.50 9.17 r p2
455.52 394.38 7.50 9.17 r p2
455.52 385.21 7.50 9.17 r p2
455.52 376.04 7.50 9.17 r p2
455.52 366.87 7.50 9.17 r p2
455.52 357.69 7.50 9.17 r p2
455.52 348.52 7.50 9.17 r p2
455.52 339.35 7.50 9.17 r p2
455.52 330.18 7.50 9.17 r p2
455.52 321.01 7.50 9.17 r p2
455.52 311.84 7.50 9.17 r p2
455.52 302.67 7.50 9.17 r p2
455.52 293.50 7.50 9.17 r p2
455.52 284.33 7.50 9.17 r p2
/bg { 0.8471 0.9059 0.9608 srgb } def
455.52 275.16 7.50 9.17 r p2
/bg { 0.8706 0.9216 0.9686 srgb } def
455.52 265.99 7.50 9.17 r p2
455.52 256.81 7.50 9.17 r p2
455.52 247.64 7.50 9.17 r p2
463.02 394.38 7.50 9.17 r p2
463.02 385.21 7.50 9.17 r p2
463.02 376.04 7.50 9.17 r p2
463.02 366.87 7.50 9.17 r p2
463.02 357.69 7.50 9.17 r p2
463.02 348.52 7.50 9.17 r p2
463.02 339.35 7.50 9.17 r p2
463.02 330.18 7.50 9.17 r p2
463.02 321.01 7.50 9.17 r p2
463.02 311.84 7.50 9.17 r p2
463.02 302.67 7.50 9.17 r p2
463.02 293.50 7.50 9.17 r p2
463.02 284.33 7.50 9.17 r p2
463.02 275.16 7.50 9.17 r p2
463.02 265.99 7.50 9.17 r p2
463.02 256.81 7.50 9.17 r p2
/bg { 0.8510 0.9059 0.9608 srgb } def
463.02 247.64 7.50 9.17 r p2
/bg { 0.8706 0.9216 0.9686 srgb } def
470.53 394.38 7.50 9.17 r p2
470.53 385.21 7.50 9.17 r p2
470.53 376.04 7.50 9.17 r p2
470.53 366.87 7.50 9.17 r p2
470.53 357.69 7.50 9.17 r p2
470.53 348.52 7.50 9.17 r p2
470.53 339.35 7.50 9.17 r p2
/bg { 0.8118 0.8824 0.9490 srgb } def
470.53 330.18 7.50 9.17 r p2
/bg { 0.8706 0.9216 0.9686 srgb } def
470.53 321.01 7.50 9.17 r p2
470.53 311.84 7.50 9.17 r p2
470.53 302.67 7.50 9.17 r p2
470.53 293.50 7.50 9.17 r p2
470.53 284.33 7.50 9.17 r p2
470.53 275.16 7.50 9.17 r p2
470.53 265.99 7.50 9.17 r p2
470.53 256.81 7.50 9.17 r p2
470.53 247.64 7.50 9.17 r p2
478.03 394.38 7.50 9.17 r p2
478.03 385.21 7.50 9.17 r p2
478.03 376.04 7.50 9.17 r p2
478.03 366.87 7.50 9.17 r p2
478.03 357.69 7.50 9.17 r p2
478.03 348.52 7.50 9.17 r p2
478.03 339.35 7.50 9.17 r p2
478.03 330.18 7.50 9.17 r p2
/bg { 0.8392 0.9020 0.9569 srgb } def
478.03 321.01 7.50 9.17 r p2
/bg { 0.8706 0.9216 0.9686 srgb } def
478.03 311.84 7.50 9.17 r p2
/bg { 0.8392 0.9020 0.9569 srgb } def
478.03 302.67 7.50 9.17 r p2
/bg { 0.8706 0.9216 0.9686 srgb } def
478.03 293.50 7.50 9.17 r p2
478.03 284.33 7.50 9.17 r p2
478.03 275.16 7.50 9.17 r p2
478.03 265.99 7.50 9.17 r p2
478.03 256.81 7.50 9.17 r p2
/bg { 0.8471 0.9059 0.9608 srgb } def
478.03 247.64 7.50 9.17 r p2
/bg { 0.8706 0.9216 0.9686 srgb } def
485.53 394.38 7.50 9.17 r p2
485.53 385.21 7.50 9.17 r p2
485.53 376.04 7.50 9.17 r p2
485.53 366.87 7.50 9.17 r p2
485.53 357.69 7.50 9.17 r p2
485.53 348.52 7.50 9.17 r p2
485.53 339.35 7.50 9.17 r p2
485.53 330.18 7.50 9.17 r p2
485.53 321.01 7.50 9.17 r p2
/bg { 0.8392 0.8980 0.9569 srgb } def
485.53 311.84 7.50 9.17 r p2
/bg { 0.8471 0.9059 0.9608 srgb } def
485.53 302.67 7.50 9.17 r p2
/bg { 0.8706 0.9216 0.9686 srgb } def
485.53 293.50 7.50 9.17 r p2
/bg { 0.8118 0.8824 0.9490 srgb } def
485.53 284.33 7.50 9.17 r p2
/bg { 0.8706 0.9216 0.9686 srgb } def
485.53 275.16 7.50 9.17 r p2
485.53 265.99 7.50 9.17 r p2
485.53 256.81 7.50 9.17 r p2
/bg { 0.7804 0.8588 0.9373 srgb } def
485.53 247.64 7.50 9.17 r p2
/bg { 0.8706 0.9216 0.9686 srgb } def
493.04 394.38 7.50 9.17 r p2
493.04 385.21 7.50 9.17 r p2
493.04 376.04 7.50 9.17 r p2
493.04 366.87 7.50 9.17 r p2
493.04 357.69 7.50 9.17 r p2
493.04 348.52 7.50 9.17 r p2
493.04 339.35 7.50 9.17 r p2
/bg { 0.8392 0.9020 0.9569 srgb } def
493.04 330.18 7.50 9.17 r p2
493.04 321.01 7.50 9.17 r p2
/bg { 0.8353 0.8980 0.9569 srgb } def
493.04 311.84 7.50 9.17 r p2
/bg { 0.8431 0.9020 0.9608 srgb } def
493.04 302.67 7.50 9.17 r p2
/bg { 0.8471 0.9059 0.9608 srgb } def
493.04 293.50 7.50 9.17 r p2
/bg { 0.8431 0.9020 0.9608 srgb } def
493.04 284.33 7.50 9.17 r p2
/bg { 0.8353 0.8980 0.9569 srgb } def
493.04 275.16 7.50 9.17 r p2
493.04 265.99 7.50 9.17 r p2
/bg { 0.8000 0.8745 0.9451 srgb } def
493.04 256.81 7.50 9.17 r p2
/bg { 0.8353 0.8980 0.9569 srgb } def
493.04 247.64 7.50 9.17 r p2
/bg { 0.8706 0.9216 0.9686 srgb } def
500.54 394.38 7.50 9.17 r p2
500.54 385.21 7.50 9.17 r p2
500.54 376.04 7.50 9.17 r p2
500.54 366.87 7.50 9.17 r p2
500.54 357.69 7.50 9.17 r p2
500.54 348.52 7.50 9.17 r p2
500.54 339.35 7.50 9.17 r p2
/bg { 0.8431 0.9059 0.9608 srgb } def
500.54 330.18 7.50 9.17 r p2
/bg { 0.8706 0.9216 0.9686 srgb } def
500.54 321.01 7.50 9.17 r p2
500.54 311.84 7.50 9.17 r p2
500.54 302.67 7.50 9.17 r p2
/bg { 0.8039 0.8745 0.9451 srgb } def
500.54 293.50 7.50 9.17 r p2
/bg { 0.8706 0.9216 0.9686 srgb } def
500.54 284.33 7.50 9.17 r p2
/bg { 0.8392 0.9020 0.9569 srgb } def
500.54 275.16 7.50 9.17 r p2
/bg { 0.8431 0.9020 0.9608 srgb } def
500.54 265.99 7.50 9.17 r p2
/bg { 0.8392 0.9020 0.9569 srgb } def
500.54 256.81 7.50 9.17 r p2
/bg { 0.7843 0.8627 0.9412 srgb } def
500.54 247.64 7.50 9.17 r p2
24.94 18.00 816.94 577.28 cl
24.94 18.00 816.94 577.28 cl
/Font1 findfont 8 s
0 0 0 srgb
283.17 396.09 (F) 0 ta
-0.400 (atty acid biosynthesis ) tb gr
286.29 386.92 (F) 0 ta
-0.400 (atty acid metabolism ) tb gr
263.14 377.75 (F) 0 ta
-0.400 (at digestion and absor) tb
0.240 (ption ) tb gr
366.31 368.58 (Steroid biosynthesis ) 1 0 t
284.93 359.41 (F) 0 ta
-0.400 (atty acid degr) tb
-0.080 (adation ) tb gr
290.27 350.24 (F) 0 ta
-0.400 (atty acid elongation ) tb gr
291.17 341.07 (Caff) 0 ta
-0.240 (eine metabolism ) tb gr
366.31 331.90 (Protein processing in endoplasmic reticulum ) 1 0 t
262.04 322.72 (TGF-beta signaling pathw) 0 ta
-0.120 (a) tb
-0.240 (y ) tb gr
366.31 313.55 (Proteoglycans in cancer ) 1 0 t
278.72 304.38 (F) 0 ta
-0.240 (o) tb
-0.240 (xO signaling pathw) tb
-0.120 (a) tb
-0.240 (y ) tb gr
292.51 295.21 (Vir) 0 ta
-0.080 (al carcinogenesis ) tb gr
237.81 286.04 (Th) 0 ta
-0.240 (yroid hor) tb
0.200 (mone signaling pathw) tb
-0.120 (a) tb
-0.240 (y ) tb gr
366.31 276.87 (Hepatitis B ) 1 0 t
366.31 267.70 (Renal cell carcinoma ) 1 0 t
366.31 258.53 (Endocytosis ) 1 0 t
296.49 249.36 (L) 0 ta
-0.240 (ysine degr) tb
-0.080 (adation ) tb gr
24.94 18.00 816.94 577.28 cl
24.94 18.00 816.94 577.28 cl
24.94 18.00 816.94 577.28 cl
/Font1 findfont 8 s
0 0 0 srgb
387.11 244.81 (miR-484) 1 90 t
394.61 244.81 (miR-324-3p) 1 90 t
402.11 244.81 (miR-31-5p) 1 90 t
409.62 244.81 (let-7a-5p) 1 90 t
417.12 244.81 (miR-125a-5p) 1 90 t
424.62 244.81 (miR-223-3p) 1 90 t
432.13 244.81 (miR-690) 1 90 t
439.63 244.81 (miR-200b-3p) 1 90 t
447.14 244.81 (miR-148a-5p) 1 90 t
454.64 244.81 (miR-467b-5p) 1 90 t
462.14 244.81 (miR-467a-5p) 1 90 t
469.65 244.81 (miR-150-5p) 1 90 t
477.15 244.81 (miR-429-3p) 1 90 t
484.65 244.81 (miR-191-5p) 1 90 t
492.16 244.81 (let-7d-5p) 1 90 t
499.66 244.81 (miR-155-5p) 1 90 t
507.16 244.81 (miR-15b-5p) 1 90 t
24.94 18.00 816.94 577.28 cl
24.94 18.00 816.94 577.28 cl
24.94 18.00 816.94 577.28 cl
/bg { 0.5569 0.0431 0.7608 srgb } def
369.14 394.38 8.50 9.17 r p2
369.14 385.21 8.50 9.17 r p2
/bg { 0.5882 0.1490 0.7765 srgb } def
369.14 376.04 8.50 9.17 r p2
/bg { 0.7333 0.4471 0.8510 srgb } def
369.14 366.87 8.50 9.17 r p2
/bg { 0.8784 0.7294 0.9294 srgb } def
369.14 357.69 8.50 9.17 r p2
/bg { 0.8824 0.7373 0.9294 srgb } def
369.14 348.52 8.50 9.17 r p2
/bg { 0.8824 0.7373 0.9333 srgb } def
369.14 339.35 8.50 9.17 r p2
/bg { 0.9216 0.8235 0.9529 srgb } def
369.14 330.18 8.50 9.17 r p2
/bg { 0.9333 0.8471 0.9608 srgb } def
369.14 321.01 8.50 9.17 r p2
/bg { 0.9686 0.9294 0.9843 srgb } def
369.14 311.84 8.50 9.17 r p2
/bg { 0.9804 0.9529 0.9882 srgb } def
369.14 302.67 8.50 9.17 r p2
/bg { 0.9843 0.9608 0.9882 srgb } def
369.14 293.50 8.50 9.17 r p2
/bg { 0.9843 0.9647 0.9922 srgb } def
369.14 284.33 8.50 9.17 r p2
/bg { 0.9922 0.9804 0.9961 srgb } def
369.14 275.16 8.50 9.17 r p2
/bg { 0.9961 0.9882 0.9961 srgb } def
369.14 265.99 8.50 9.17 r p2
/bg { 1 0.9961 1 srgb } def
369.14 256.81 8.50 9.17 r p2
/bg { 1 1 1 srgb } def
369.14 247.64 8.50 9.17 r p2
24.94 18.00 816.94 577.28 cl
/Font1 findfont 10 s
0 0 0 srgb
373.40 244.81 (pathw) 0 ta
-0.000 (a) tb
-0.000 (y_p_v) tb
-0.000 (alue) tb gr
24.94 18.00 816.94 577.28 cl
24.94 18.00 816.94 577.28 cl
24.94 18.00 816.94 577.28 cl
24.94 18.00 816.94 577.28 cl
24.94 18.00 816.94 577.28 cl
24.94 18.00 816.94 577.28 cl
24.94 18.00 816.94 577.28 cl
24.94 18.00 816.94 577.28 cl
24.94 18.00 816.94 577.28 cl
24.94 18.00 816.94 577.28 cl
/Font5 findfont 10 s
0 0 0 srgb
513.71 373.08 (-) 0 0 t
/Font1 findfont 10 s
520.59 373.08 (l) 0 0 t
522.81 373.08 (o) 0 0 t
528.37 373.08 (g) 0 0 t
/Font1 findfont 7 s
533.93 371.25 (10) 0 0 t
/Font5 findfont 10 s
541.71 373.08 ( ) 0 0 t
/Font1 findfont 10 s
544.21 373.08 (adjusted) 0 0 t
/Font5 findfont 10 s
582.01 373.08 ( ) 0 0 t
/Font3 findfont 10 s
584.51 373.08 (P) 0 0 t
/Font5 findfont 10 s
591.18 373.08 ( ) 0 0 t
/Font1 findfont 10 s
593.68 373.08 (\(pathw) 0 ta
-0.150 (a) tb
-0.300 (y\)) tb gr
/Font1 findfont 8 s
527.89 329.74 (0) 0 0 t
527.89 345.33 (5) 0 0 t
527.89 360.92 (10) 0 0 t
/bg { 0.6902 0.3647 0.8275 srgb } def
0.6902 0.3647 0.8275 srgb
0.75 setlinewidth
[] 0 setdash
1 setlinecap
1 setlinejoin
10.00 setmiterlimit
513.71 364.69 11.34 0.34 r p3
/bg { 0.6941 0.3725 0.8275 srgb } def
0.6941 0.3725 0.8275 srgb
513.71 364.35 11.34 0.34 r p3
/bg { 0.6980 0.3804 0.8314 srgb } def
0.6980 0.3804 0.8314 srgb
513.71 364.00 11.34 0.34 r p3
/bg { 0.7020 0.3882 0.8314 srgb } def
0.7020 0.3882 0.8314 srgb
513.71 363.66 11.34 0.34 r p3
/bg { 0.7059 0.3961 0.8353 srgb } def
0.7059 0.3961 0.8353 srgb
513.71 363.32 11.34 0.34 r p3
/bg { 0.7098 0.4039 0.8392 srgb } def
0.7098 0.4039 0.8392 srgb
513.71 362.97 11.34 0.34 r p3
/bg { 0.7137 0.4118 0.8392 srgb } def
0.7137 0.4118 0.8392 srgb
513.71 362.63 11.34 0.34 r p3
/bg { 0.7176 0.4196 0.8431 srgb } def
0.7176 0.4196 0.8431 srgb
513.71 362.29 11.34 0.34 r p3
/bg { 0.7216 0.4275 0.8431 srgb } def
0.7216 0.4275 0.8431 srgb
513.71 361.94 11.34 0.34 r p3
/bg { 0.7294 0.4353 0.8471 srgb } def
0.7294 0.4353 0.8471 srgb
513.71 361.60 11.34 0.34 r p3
/bg { 0.7333 0.4431 0.8471 srgb } def
0.7333 0.4431 0.8471 srgb
513.71 361.26 11.34 0.34 r p3
/bg { 0.7373 0.4471 0.8510 srgb } def
0.7373 0.4471 0.8510 srgb
513.71 360.91 11.34 0.34 r p3
/bg { 0.7412 0.4549 0.8510 srgb } def
0.7412 0.4549 0.8510 srgb
513.71 360.57 11.34 0.34 r p3
/bg { 0.7451 0.4627 0.8549 srgb } def
0.7451 0.4627 0.8549 srgb
513.71 360.22 11.34 0.34 r p3
/bg { 0.7490 0.4706 0.8588 srgb } def
0.7490 0.4706 0.8588 srgb
513.71 359.88 11.34 0.34 r p3
/bg { 0.7529 0.4784 0.8588 srgb } def
0.7529 0.4784 0.8588 srgb
513.71 359.54 11.34 0.34 r p3
/bg { 0.7569 0.4863 0.8627 srgb } def
0.7569 0.4863 0.8627 srgb
513.71 359.19 11.34 0.34 r p3
/bg { 0.7608 0.4941 0.8627 srgb } def
0.7608 0.4941 0.8627 srgb
513.71 358.85 11.34 0.34 r p3
/bg { 0.7647 0.5020 0.8667 srgb } def
0.7647 0.5020 0.8667 srgb
513.71 358.51 11.34 0.34 r p3
/bg { 0.7686 0.5098 0.8667 srgb } def
0.7686 0.5098 0.8667 srgb
513.71 358.16 11.34 0.34 r p3
/bg { 0.7725 0.5176 0.8706 srgb } def
0.7725 0.5176 0.8706 srgb
513.71 357.82 11.34 0.34 r p3
/bg { 0.7765 0.5255 0.8706 srgb } def
0.7765 0.5255 0.8706 srgb
513.71 357.48 11.34 0.34 r p3
/bg { 0.7804 0.5333 0.8745 srgb } def
0.7804 0.5333 0.8745 srgb
513.71 357.13 11.34 0.34 r p3
/bg { 0.7843 0.5412 0.8745 srgb } def
0.7843 0.5412 0.8745 srgb
513.71 356.79 11.34 0.34 r p3
/bg { 0.7882 0.5451 0.8784 srgb } def
0.7882 0.5451 0.8784 srgb
513.71 356.44 11.34 0.34 r p3
/bg { 0.7922 0.5529 0.8824 srgb } def
0.7922 0.5529 0.8824 srgb
513.71 356.10 11.34 0.34 r p3
/bg { 0.7961 0.5608 0.8824 srgb } def
0.7961 0.5608 0.8824 srgb
513.71 355.76 11.34 0.34 r p3
/bg { 0.8000 0.5686 0.8863 srgb } def
0.8000 0.5686 0.8863 srgb
513.71 355.41 11.34 0.34 r p3
/bg { 0.8039 0.5765 0.8863 srgb } def
0.8039 0.5765 0.8863 srgb
513.71 355.07 11.34 0.34 r p3
/bg { 0.8078 0.5843 0.8902 srgb } def
0.8078 0.5843 0.8902 srgb
513.71 354.73 11.34 0.34 r p3
/bg { 0.8118 0.5922 0.8902 srgb } def
0.8118 0.5922 0.8902 srgb
513.71 354.38 11.34 0.34 r p3
/bg { 0.8157 0.6000 0.8941 srgb } def
0.8157 0.6000 0.8941 srgb
513.71 354.04 11.34 0.34 r p3
/bg { 0.8196 0.6078 0.8941 srgb } def
0.8196 0.6078 0.8941 srgb
513.71 353.70 11.34 0.34 r p3
/bg { 0.8235 0.6157 0.8980 srgb } def
0.8235 0.6157 0.8980 srgb
513.71 353.35 11.34 0.34 r p3
/bg { 0.8275 0.6196 0.8980 srgb } def
0.8275 0.6196 0.8980 srgb
513.71 353.01 11.34 0.34 r p3
/bg { 0.8275 0.6275 0.9020 srgb } def
0.8275 0.6275 0.9020 srgb
513.71 352.67 11.34 0.34 r p3
/bg { 0.8314 0.6353 0.9020 srgb } def
0.8314 0.6353 0.9020 srgb
513.71 352.32 11.34 0.34 r p3
/bg { 0.8353 0.6431 0.9059 srgb } def
0.8353 0.6431 0.9059 srgb
513.71 351.98 11.34 0.34 r p3
/bg { 0.8392 0.6510 0.9059 srgb } def
0.8392 0.6510 0.9059 srgb
513.71 351.63 11.34 0.34 r p3
/bg { 0.8431 0.6588 0.9098 srgb } def
0.8431 0.6588 0.9098 srgb
513.71 351.29 11.34 0.34 r p3
/bg { 0.8471 0.6667 0.9098 srgb } def
0.8471 0.6667 0.9098 srgb
513.71 350.95 11.34 0.34 r p3
/bg { 0.8510 0.6745 0.9137 srgb } def
0.8510 0.6745 0.9137 srgb
513.71 350.60 11.34 0.34 r p3
/bg { 0.8549 0.6824 0.9176 srgb } def
0.8549 0.6824 0.9176 srgb
513.71 350.26 11.34 0.34 r p3
/bg { 0.8588 0.6863 0.9176 srgb } def
0.8588 0.6863 0.9176 srgb
513.71 349.92 11.34 0.34 r p3
/bg { 0.8627 0.6941 0.9216 srgb } def
0.8627 0.6941 0.9216 srgb
513.71 349.57 11.34 0.34 r p3
/bg { 0.8667 0.7020 0.9216 srgb } def
0.8667 0.7020 0.9216 srgb
513.71 349.23 11.34 0.34 r p3
/bg { 0.8706 0.7098 0.9255 srgb } def
0.8706 0.7098 0.9255 srgb
513.71 348.89 11.34 0.34 r p3
/bg { 0.8745 0.7176 0.9255 srgb } def
0.8745 0.7176 0.9255 srgb
513.71 348.54 11.34 0.34 r p3
/bg { 0.8784 0.7255 0.9294 srgb } def
0.8784 0.7255 0.9294 srgb
513.71 348.20 11.34 0.34 r p3
/bg { 0.8784 0.7333 0.9294 srgb } def
0.8784 0.7333 0.9294 srgb
513.71 347.86 11.34 0.34 r p3
/bg { 0.8824 0.7412 0.9333 srgb } def
0.8824 0.7412 0.9333 srgb
513.71 347.51 11.34 0.34 r p3
/bg { 0.8863 0.7490 0.9333 srgb } def
0.8863 0.7490 0.9333 srgb
513.71 347.17 11.34 0.34 r p3
/bg { 0.8902 0.7529 0.9373 srgb } def
0.8902 0.7529 0.9373 srgb
513.71 346.82 11.34 0.34 r p3
/bg { 0.8941 0.7608 0.9373 srgb } def
0.8941 0.7608 0.9373 srgb
513.71 346.48 11.34 0.34 r p3
/bg { 0.8980 0.7686 0.9412 srgb } def
0.8980 0.7686 0.9412 srgb
513.71 346.14 11.34 0.34 r p3
/bg { 0.9020 0.7765 0.9412 srgb } def
0.9020 0.7765 0.9412 srgb
513.71 345.79 11.34 0.34 r p3
/bg { 0.9059 0.7843 0.9451 srgb } def
0.9059 0.7843 0.9451 srgb
513.71 345.45 11.34 0.34 r p3
/bg { 0.9098 0.7922 0.9451 srgb } def
0.9098 0.7922 0.9451 srgb
513.71 345.11 11.34 0.34 r p3
/bg { 0.9098 0.8000 0.9490 srgb } def
0.9098 0.8000 0.9490 srgb
513.71 344.76 11.34 0.34 r p3
/bg { 0.9137 0.8078 0.9490 srgb } def
0.9137 0.8078 0.9490 srgb
513.71 344.42 11.34 0.34 r p3
/bg { 0.9176 0.8157 0.9529 srgb } def
0.9176 0.8157 0.9529 srgb
513.71 344.08 11.34 0.34 r p3
/bg { 0.9216 0.8196 0.9529 srgb } def
0.9216 0.8196 0.9529 srgb
513.71 343.73 11.34 0.34 r p3
/bg { 0.9255 0.8275 0.9569 srgb } def
0.9255 0.8275 0.9569 srgb
513.71 343.39 11.34 0.34 r p3
/bg { 0.9294 0.8353 0.9569 srgb } def
0.9294 0.8353 0.9569 srgb
513.71 343.04 11.34 0.34 r p3
/bg { 0.9333 0.8431 0.9608 srgb } def
0.9333 0.8431 0.9608 srgb
513.71 342.70 11.34 0.34 r p3
/bg { 0.9373 0.8510 0.9608 srgb } def
0.9373 0.8510 0.9608 srgb
513.71 342.36 11.34 0.34 r p3
/bg { 0.9373 0.8588 0.9647 srgb } def
0.9373 0.8588 0.9647 srgb
513.71 342.01 11.34 0.34 r p3
/bg { 0.9412 0.8667 0.9647 srgb } def
0.9412 0.8667 0.9647 srgb
513.71 341.67 11.34 0.34 r p3
/bg { 0.9451 0.8745 0.9686 srgb } def
0.9451 0.8745 0.9686 srgb
513.71 341.33 11.34 0.34 r p3
/bg { 0.9490 0.8824 0.9686 srgb } def
0.9490 0.8824 0.9686 srgb
513.71 340.98 11.34 0.34 r p3
/bg { 0.9529 0.8902 0.9725 srgb } def
0.9529 0.8902 0.9725 srgb
513.71 340.64 11.34 0.34 r p3
/bg { 0.9569 0.8980 0.9725 srgb } def
0.9569 0.8980 0.9725 srgb
513.71 340.30 11.34 0.34 r p3
/bg { 0.9608 0.9020 0.9765 srgb } def
0.9608 0.9020 0.9765 srgb
513.71 339.95 11.34 0.34 r p3
/bg { 0.9608 0.9098 0.9765 srgb } def
0.9608 0.9098 0.9765 srgb
513.71 339.61 11.34 0.34 r p3
/bg { 0.9647 0.9176 0.9804 srgb } def
0.9647 0.9176 0.9804 srgb
513.71 339.27 11.34 0.34 r p3
/bg { 0.9686 0.9255 0.9804 srgb } def
0.9686 0.9255 0.9804 srgb
513.71 338.92 11.34 0.34 r p3
/bg { 0.9725 0.9333 0.9843 srgb } def
0.9725 0.9333 0.9843 srgb
513.71 338.58 11.34 0.34 r p3
/bg { 0.9765 0.9412 0.9843 srgb } def
0.9765 0.9412 0.9843 srgb
513.71 338.23 11.34 0.34 r p3
/bg { 0.9765 0.9490 0.9882 srgb } def
0.9765 0.9490 0.9882 srgb
513.71 337.89 11.34 0.34 r p3
/bg { 0.9804 0.9569 0.9882 srgb } def
0.9804 0.9569 0.9882 srgb
513.71 337.55 11.34 0.34 r p3
/bg { 0.9843 0.9647 0.9922 srgb } def
0.9843 0.9647 0.9922 srgb
513.71 337.20 11.34 0.34 r p3
/bg { 0.9882 0.9725 0.9922 srgb } def
0.9882 0.9725 0.9922 srgb
513.71 336.86 11.34 0.34 r p3
/bg { 0.9922 0.9804 0.9961 srgb } def
0.9922 0.9804 0.9961 srgb
513.71 336.52 11.34 0.34 r p3
/bg { 0.9961 0.9882 0.9961 srgb } def
0.9961 0.9882 0.9961 srgb
513.71 336.17 11.34 0.34 r p3
/bg { 0.9961 0.9922 1 srgb } def
0.9961 0.9922 1 srgb
513.71 335.83 11.34 0.34 r p3
/bg { 1 1 1 srgb } def
1 1 1 srgb
513.71 335.49 11.34 0.34 r p3
513.71 335.14 11.34 0.34 r p3
513.71 334.80 11.34 0.34 r p3
513.71 334.45 11.34 0.34 r p3
513.71 334.11 11.34 0.34 r p3
513.71 333.77 11.34 0.34 r p3
513.71 333.42 11.34 0.34 r p3
513.71 333.08 11.34 0.34 r p3
513.71 332.74 11.34 0.34 r p3
513.71 332.39 11.34 0.34 r p3
513.71 332.05 11.34 0.34 r p3
513.71 331.71 11.34 0.34 r p3
513.71 331.36 11.34 0.34 r p3
513.71 331.02 11.34 0.34 r p3
np
513.71 332.61 m
2.27 0 l
o
np
513.71 348.20 m
2.27 0 l
o
np
513.71 363.79 m
2.27 0 l
o
np
525.05 332.61 m
-2.27 0 l
o
np
525.05 348.20 m
-2.27 0 l
o
np
525.05 363.79 m
-2.27 0 l
o
24.94 18.00 816.94 577.28 cl
24.94 18.00 816.94 577.28 cl
/Font5 findfont 10 s
0 0 0 srgb
513.71 312.67 (-) 0 0 t
/Font1 findfont 10 s
520.59 312.67 (l) 0 0 t
522.81 312.67 (o) 0 0 t
528.37 312.67 (g) 0 0 t
/Font1 findfont 7 s
533.93 310.84 (10) 0 0 t
/Font5 findfont 10 s
541.71 312.67 ( ) 0 0 t
/Font1 findfont 10 s
544.21 312.67 (adjusted) 0 0 t
/Font5 findfont 10 s
582.01 312.67 ( ) 0 0 t
/Font3 findfont 10 s
584.51 312.67 (P) 0 0 t
/Font1 findfont 8 s
527.89 269.33 (0) 0 0 t
527.89 284.92 (15) 0 0 t
527.89 300.51 (30) 0 0 t
/bg { 0.1804 0.4863 0.7333 srgb } def
0.1804 0.4863 0.7333 srgb
0.75 setlinewidth
[] 0 setdash
1 setlinecap
1 setlinejoin
10.00 setmiterlimit
513.71 304.29 11.34 0.34 r p3
/bg { 0.1843 0.4902 0.7333 srgb } def
0.1843 0.4902 0.7333 srgb
513.71 303.94 11.34 0.34 r p3
/bg { 0.1922 0.4980 0.7373 srgb } def
0.1922 0.4980 0.7373 srgb
513.71 303.60 11.34 0.34 r p3
/bg { 0.1961 0.5020 0.7412 srgb } def
0.1961 0.5020 0.7412 srgb
513.71 303.26 11.34 0.34 r p3
/bg { 0.2039 0.5098 0.7451 srgb } def
0.2039 0.5098 0.7451 srgb
513.71 302.91 11.34 0.34 r p3
/bg { 0.2078 0.5137 0.7490 srgb } def
0.2078 0.5137 0.7490 srgb
513.71 302.57 11.34 0.34 r p3
/bg { 0.2157 0.5216 0.7490 srgb } def
0.2157 0.5216 0.7490 srgb
513.71 302.23 11.34 0.34 r p3
/bg { 0.2196 0.5294 0.7529 srgb } def
0.2196 0.5294 0.7529 srgb
513.71 301.88 11.34 0.34 r p3
/bg { 0.2275 0.5333 0.7569 srgb } def
0.2275 0.5333 0.7569 srgb
513.71 301.54 11.34 0.34 r p3
/bg { 0.2314 0.5412 0.7608 srgb } def
0.2314 0.5412 0.7608 srgb
513.71 301.20 11.34 0.34 r p3
/bg { 0.2392 0.5451 0.7647 srgb } def
0.2392 0.5451 0.7647 srgb
513.71 300.85 11.34 0.34 r p3
/bg { 0.2431 0.5529 0.7647 srgb } def
0.2431 0.5529 0.7647 srgb
513.71 300.51 11.34 0.34 r p3
/bg { 0.2471 0.5608 0.7686 srgb } def
0.2471 0.5608 0.7686 srgb
513.71 300.16 11.34 0.34 r p3
/bg { 0.2549 0.5647 0.7725 srgb } def
0.2549 0.5647 0.7725 srgb
513.71 299.82 11.34 0.34 r p3
/bg { 0.2588 0.5725 0.7765 srgb } def
0.2588 0.5725 0.7765 srgb
513.71 299.48 11.34 0.34 r p3
/bg { 0.2667 0.5765 0.7804 srgb } def
0.2667 0.5765 0.7804 srgb
513.71 299.13 11.34 0.34 r p3
/bg { 0.2745 0.5804 0.7804 srgb } def
0.2745 0.5804 0.7804 srgb
513.71 298.79 11.34 0.34 r p3
/bg { 0.2824 0.5882 0.7843 srgb } def
0.2824 0.5882 0.7843 srgb
513.71 298.45 11.34 0.34 r p3
/bg { 0.2902 0.5922 0.7882 srgb } def
0.2902 0.5922 0.7882 srgb
513.71 298.10 11.34 0.34 r p3
/bg { 0.3020 0.5961 0.7922 srgb } def
0.3020 0.5961 0.7922 srgb
513.71 297.76 11.34 0.34 r p3
/bg { 0.3098 0.6039 0.7922 srgb } def
0.3098 0.6039 0.7922 srgb
513.71 297.42 11.34 0.34 r p3
/bg { 0.3176 0.6078 0.7961 srgb } def
0.3176 0.6078 0.7961 srgb
513.71 297.07 11.34 0.34 r p3
/bg { 0.3255 0.6118 0.8000 srgb } def
0.3255 0.6118 0.8000 srgb
513.71 296.73 11.34 0.34 r p3
/bg { 0.3333 0.6196 0.8039 srgb } def
0.3333 0.6196 0.8039 srgb
513.71 296.38 11.34 0.34 r p3
/bg { 0.3412 0.6235 0.8078 srgb } def
0.3412 0.6235 0.8078 srgb
513.71 296.04 11.34 0.34 r p3
/bg { 0.3490 0.6275 0.8078 srgb } def
0.3490 0.6275 0.8078 srgb
513.71 295.70 11.34 0.34 r p3
/bg { 0.3529 0.6353 0.8118 srgb } def
0.3529 0.6353 0.8118 srgb
513.71 295.35 11.34 0.34 r p3
/bg { 0.3608 0.6392 0.8157 srgb } def
0.3608 0.6392 0.8157 srgb
513.71 295.01 11.34 0.34 r p3
/bg { 0.3686 0.6431 0.8196 srgb } def
0.3686 0.6431 0.8196 srgb
513.71 294.67 11.34 0.34 r p3
/bg { 0.3765 0.6510 0.8196 srgb } def
0.3765 0.6510 0.8196 srgb
513.71 294.32 11.34 0.34 r p3
/bg { 0.3843 0.6549 0.8235 srgb } def
0.3843 0.6549 0.8235 srgb
513.71 293.98 11.34 0.34 r p3
/bg { 0.3922 0.6588 0.8275 srgb } def
0.3922 0.6588 0.8275 srgb
513.71 293.64 11.34 0.34 r p3
/bg { 0.3961 0.6667 0.8314 srgb } def
0.3961 0.6667 0.8314 srgb
513.71 293.29 11.34 0.34 r p3
/bg { 0.4039 0.6706 0.8314 srgb } def
0.4039 0.6706 0.8314 srgb
513.71 292.95 11.34 0.34 r p3
/bg { 0.4118 0.6784 0.8353 srgb } def
0.4118 0.6784 0.8353 srgb
513.71 292.61 11.34 0.34 r p3
/bg { 0.4196 0.6824 0.8392 srgb } def
0.4196 0.6824 0.8392 srgb
513.71 292.26 11.34 0.34 r p3
/bg { 0.4275 0.6863 0.8392 srgb } def
0.4275 0.6863 0.8392 srgb
513.71 291.92 11.34 0.34 r p3
/bg { 0.4392 0.6941 0.8431 srgb } def
0.4392 0.6941 0.8431 srgb
513.71 291.57 11.34 0.34 r p3
/bg { 0.4510 0.6980 0.8471 srgb } def
0.4510 0.6980 0.8471 srgb
513.71 291.23 11.34 0.34 r p3
/bg { 0.4588 0.7020 0.8471 srgb } def
0.4588 0.7020 0.8471 srgb
513.71 290.89 11.34 0.34 r p3
/bg { 0.4706 0.7059 0.8510 srgb } def
0.4706 0.7059 0.8510 srgb
513.71 290.54 11.34 0.34 r p3
/bg { 0.4784 0.7137 0.8510 srgb } def
0.4784 0.7137 0.8510 srgb
513.71 290.20 11.34 0.34 r p3
/bg { 0.4902 0.7176 0.8549 srgb } def
0.4902 0.7176 0.8549 srgb
513.71 289.86 11.34 0.34 r p3
/bg { 0.4980 0.7216 0.8549 srgb } def
0.4980 0.7216 0.8549 srgb
513.71 289.51 11.34 0.34 r p3
/bg { 0.5098 0.7294 0.8588 srgb } def
0.5098 0.7294 0.8588 srgb
513.71 289.17 11.34 0.34 r p3
/bg { 0.5176 0.7333 0.8588 srgb } def
0.5176 0.7333 0.8588 srgb
513.71 288.83 11.34 0.34 r p3
/bg { 0.5294 0.7373 0.8627 srgb } def
0.5294 0.7373 0.8627 srgb
513.71 288.48 11.34 0.34 r p3
/bg { 0.5373 0.7451 0.8627 srgb } def
0.5373 0.7451 0.8627 srgb
513.71 288.14 11.34 0.34 r p3
/bg { 0.5451 0.7490 0.8667 srgb } def
0.5451 0.7490 0.8667 srgb
513.71 287.79 11.34 0.34 r p3
/bg { 0.5569 0.7529 0.8667 srgb } def
0.5569 0.7529 0.8667 srgb
513.71 287.45 11.34 0.34 r p3
/bg { 0.5647 0.7608 0.8706 srgb } def
0.5647 0.7608 0.8706 srgb
513.71 287.11 11.34 0.34 r p3
/bg { 0.5725 0.7647 0.8706 srgb } def
0.5725 0.7647 0.8706 srgb
513.71 286.76 11.34 0.34 r p3
/bg { 0.5843 0.7725 0.8745 srgb } def
0.5843 0.7725 0.8745 srgb
513.71 286.42 11.34 0.34 r p3
/bg { 0.5922 0.7765 0.8745 srgb } def
0.5922 0.7765 0.8745 srgb
513.71 286.08 11.34 0.34 r p3
/bg { 0.6000 0.7804 0.8784 srgb } def
0.6000 0.7804 0.8784 srgb
513.71 285.73 11.34 0.34 r p3
/bg { 0.6118 0.7882 0.8784 srgb } def
0.6118 0.7882 0.8784 srgb
513.71 285.39 11.34 0.34 r p3
/bg { 0.6196 0.7922 0.8824 srgb } def
0.6196 0.7922 0.8824 srgb
513.71 285.05 11.34 0.34 r p3
/bg { 0.6275 0.7961 0.8863 srgb } def
0.6275 0.7961 0.8863 srgb
513.71 284.70 11.34 0.34 r p3
/bg { 0.6353 0.8000 0.8863 srgb } def
0.6353 0.8000 0.8863 srgb
513.71 284.36 11.34 0.34 r p3
/bg { 0.6431 0.8000 0.8902 srgb } def
0.6431 0.8000 0.8902 srgb
513.71 284.02 11.34 0.34 r p3
/bg { 0.6510 0.8039 0.8941 srgb } def
0.6510 0.8039 0.8941 srgb
513.71 283.67 11.34 0.34 r p3
/bg { 0.6588 0.8078 0.8941 srgb } def
0.6588 0.8078 0.8941 srgb
513.71 283.33 11.34 0.34 r p3
/bg { 0.6667 0.8118 0.8980 srgb } def
0.6667 0.8118 0.8980 srgb
513.71 282.98 11.34 0.34 r p3
/bg { 0.6706 0.8157 0.9020 srgb } def
0.6706 0.8157 0.9020 srgb
513.71 282.64 11.34 0.34 r p3
/bg { 0.6784 0.8157 0.9020 srgb } def
0.6784 0.8157 0.9020 srgb
513.71 282.30 11.34 0.34 r p3
/bg { 0.6863 0.8196 0.9059 srgb } def
0.6863 0.8196 0.9059 srgb
513.71 281.95 11.34 0.34 r p3
/bg { 0.6941 0.8235 0.9098 srgb } def
0.6941 0.8235 0.9098 srgb
513.71 281.61 11.34 0.34 r p3
/bg { 0.7020 0.8275 0.9098 srgb } def
0.7020 0.8275 0.9098 srgb
513.71 281.27 11.34 0.34 r p3
/bg { 0.7098 0.8314 0.9137 srgb } def
0.7098 0.8314 0.9137 srgb
513.71 280.92 11.34 0.34 r p3
/bg { 0.7176 0.8314 0.9176 srgb } def
0.7176 0.8314 0.9176 srgb
513.71 280.58 11.34 0.34 r p3
/bg { 0.7255 0.8353 0.9176 srgb } def
0.7255 0.8353 0.9176 srgb
513.71 280.24 11.34 0.34 r p3
/bg { 0.7333 0.8392 0.9216 srgb } def
0.7333 0.8392 0.9216 srgb
513.71 279.89 11.34 0.34 r p3
/bg { 0.7412 0.8431 0.9255 srgb } def
0.7412 0.8431 0.9255 srgb
513.71 279.55 11.34 0.34 r p3
/bg { 0.7451 0.8471 0.9255 srgb } def
0.7451 0.8471 0.9255 srgb
513.71 279.21 11.34 0.34 r p3
/bg { 0.7529 0.8510 0.9294 srgb } def
0.7529 0.8510 0.9294 srgb
513.71 278.86 11.34 0.34 r p3
/bg { 0.7608 0.8510 0.9333 srgb } def
0.7608 0.8510 0.9333 srgb
513.71 278.52 11.34 0.34 r p3
/bg { 0.7686 0.8549 0.9333 srgb } def
0.7686 0.8549 0.9333 srgb
513.71 278.17 11.34 0.34 r p3
/bg { 0.7765 0.8588 0.9373 srgb } def
0.7765 0.8588 0.9373 srgb
513.71 277.83 11.34 0.34 r p3
/bg { 0.7804 0.8627 0.9373 srgb } def
0.7804 0.8627 0.9373 srgb
513.71 277.49 11.34 0.34 r p3
/bg { 0.7843 0.8627 0.9412 srgb } def
0.7843 0.8627 0.9412 srgb
513.71 277.14 11.34 0.34 r p3
/bg { 0.7882 0.8667 0.9412 srgb } def
0.7882 0.8667 0.9412 srgb
513.71 276.80 11.34 0.34 r p3
/bg { 0.7961 0.8706 0.9451 srgb } def
0.7961 0.8706 0.9451 srgb
513.71 276.46 11.34 0.34 r p3
/bg { 0.8000 0.8745 0.9451 srgb } def
0.8000 0.8745 0.9451 srgb
513.71 276.11 11.34 0.34 r p3
/bg { 0.8039 0.8784 0.9451 srgb } def
0.8039 0.8784 0.9451 srgb
513.71 275.77 11.34 0.34 r p3
/bg { 0.8078 0.8784 0.9490 srgb } def
0.8078 0.8784 0.9490 srgb
513.71 275.43 11.34 0.34 r p3
/bg { 0.8118 0.8824 0.9490 srgb } def
0.8118 0.8824 0.9490 srgb
513.71 275.08 11.34 0.34 r p3
/bg { 0.8157 0.8863 0.9490 srgb } def
0.8157 0.8863 0.9490 srgb
513.71 274.74 11.34 0.34 r p3
/bg { 0.8196 0.8902 0.9529 srgb } def
0.8196 0.8902 0.9529 srgb
513.71 274.39 11.34 0.34 r p3
/bg { 0.8275 0.8902 0.9529 srgb } def
0.8275 0.8902 0.9529 srgb
513.71 274.05 11.34 0.34 r p3
/bg { 0.8314 0.8941 0.9569 srgb } def
0.8314 0.8941 0.9569 srgb
513.71 273.71 11.34 0.34 r p3
/bg { 0.8353 0.8980 0.9569 srgb } def
0.8353 0.8980 0.9569 srgb
513.71 273.36 11.34 0.34 r p3
/bg { 0.8392 0.9020 0.9569 srgb } def
0.8392 0.9020 0.9569 srgb
513.71 273.02 11.34 0.34 r p3
/bg { 0.8431 0.9020 0.9608 srgb } def
0.8431 0.9020 0.9608 srgb
513.71 272.68 11.34 0.34 r p3
/bg { 0.8471 0.9059 0.9608 srgb } def
0.8471 0.9059 0.9608 srgb
513.71 272.33 11.34 0.34 r p3
/bg { 0.8510 0.9098 0.9608 srgb } def
0.8510 0.9098 0.9608 srgb
513.71 271.99 11.34 0.34 r p3
/bg { 0.8588 0.9137 0.9647 srgb } def
0.8588 0.9137 0.9647 srgb
513.71 271.65 11.34 0.34 r p3
/bg { 0.8627 0.9137 0.9647 srgb } def
0.8627 0.9137 0.9647 srgb
513.71 271.30 11.34 0.34 r p3
/bg { 0.8667 0.9176 0.9686 srgb } def
0.8667 0.9176 0.9686 srgb
513.71 270.96 11.34 0.34 r p3
/bg { 0.8706 0.9216 0.9686 srgb } def
0.8706 0.9216 0.9686 srgb
513.71 270.62 11.34 0.34 r p3
1 1 1 srgb
np
513.71 272.20 m
2.27 0 l
o
np
513.71 287.79 m
2.27 0 l
o
np
513.71 303.39 m
2.27 0 l
o
np
525.05 272.20 m
-2.27 0 l
o
np
525.05 287.79 m
-2.27 0 l
o
np
525.05 303.39 m
-2.27 0 l
o
24.94 18.00 816.94 577.28 cl
24.94 18.00 816.94 577.28 cl
24.94 18.00 816.94 577.28 cl
24.94 18.00 816.94 577.28 cl
24.94 18.00 816.94 577.28 cl
24.94 18.00 816.94 577.28 cl
24.94 18.00 816.94 577.28 cl
ep
%%Trailer
%%Pages: 1
%%EOF
