%!PS-Adobe-3.0
%%DocumentNeededResources: font Helvetica
%%+ font Helvetica-Bold
%%+ font Helvetica-Oblique
%%+ font Helvetica-BoldOblique
%%+ font Symbol
%%DocumentMedia: a4 595 841 0 () ()
%%Title: R Graphics Output
%%Creator: R Software
%%Pages: (atend)
%%Orientation: Landscape
%%BoundingBox: 18 25 577 817
%%EndComments
%%BeginProlog
/bp  { gs sRGB 595.00 0 translate 90 rotate gs } def
% begin .ps.prolog
/gs  { gsave } bind def
/gr  { grestore } bind def
/ep  { showpage gr gr } bind def
/m   { moveto } bind def
/l  { rlineto } bind def
/np  { newpath } bind def
/cp  { closepath } bind def
/f   { fill } bind def
/o   { stroke } bind def
/c   { newpath 0 360 arc } bind def
/r   { 4 2 roll moveto 1 copy 3 -1 roll exch 0 exch rlineto 0 rlineto -1 mul 0 exch rlineto closepath } bind def
/p1  { stroke } bind def
/p2  { gsave bg fill grestore newpath } bind def
/p3  { gsave bg fill grestore stroke } bind def
/p6  { gsave bg eofill grestore newpath } bind def
/p7  { gsave bg eofill grestore stroke } bind def
/t   { 5 -2 roll moveto gsave rotate
       1 index stringwidth pop
       mul neg 0 rmoveto show grestore } bind def
/ta  { 4 -2 roll moveto gsave rotate show } bind def
/tb  { 2 -1 roll 0 rmoveto show } bind def
/cl  { grestore gsave newpath 3 index 3 index moveto 1 index
       4 -1 roll lineto  exch 1 index lineto lineto
       closepath clip newpath } bind def
/rgb { setrgbcolor } bind def
/s   { scalefont setfont } bind def
% end   .ps.prolog
/sRGB { [ /CIEBasedABC
          << /DecodeLMN
               [ { dup 0.03928 le
                        {12.92321 div}
                        {0.055 add 1.055 div 2.4 exp }
                     ifelse
                 } bind dup dup
               ]
             /MatrixLMN [0.412457 0.212673 0.019334
                         0.357576 0.715152 0.119192
                         0.180437 0.072175 0.950301]
             /WhitePoint [0.9505 1.0 1.0890]
           >>
         ] setcolorspace } bind def
/srgb { setcolor } bind def
%%IncludeResource: font Helvetica
/Helvetica findfont
dup length dict begin
  {1 index /FID ne {def} {pop pop} ifelse} forall
  /Encoding ISOLatin1Encoding def
  currentdict
  end
/Font1 exch definefont pop
%%IncludeResource: font Helvetica-Bold
/Helvetica-Bold findfont
dup length dict begin
  {1 index /FID ne {def} {pop pop} ifelse} forall
  /Encoding ISOLatin1Encoding def
  currentdict
  end
/Font2 exch definefont pop
%%IncludeResource: font Helvetica-Oblique
/Helvetica-Oblique findfont
dup length dict begin
  {1 index /FID ne {def} {pop pop} ifelse} forall
  /Encoding ISOLatin1Encoding def
  currentdict
  end
/Font3 exch definefont pop
%%IncludeResource: font Helvetica-BoldOblique
/Helvetica-BoldOblique findfont
dup length dict begin
  {1 index /FID ne {def} {pop pop} ifelse} forall
  /Encoding ISOLatin1Encoding def
  currentdict
  end
/Font4 exch definefont pop
%%IncludeResource: font Symbol
/Symbol findfont
dup length dict begin
  {1 index /FID ne {def} {pop pop} ifelse} forall
  currentdict
  end
/Font5 exch definefont pop
%%EndProlog
%%Page: 1 1
bp
24.94 18.00 816.94 577.28 cl
24.94 18.00 816.94 577.28 cl
/bg { 0.4039 0 0.0510 srgb } def
414.51 392.66 8.86 8.66 r p2
/bg { 0.9882 0.5569 0.4275 srgb } def
414.51 384.00 8.86 8.66 r p2
/bg { 0.9922 0.6549 0.5412 srgb } def
414.51 375.34 8.86 8.66 r p2
/bg { 0.9961 0.8157 0.7373 srgb } def
414.51 366.68 8.86 8.66 r p2
/bg { 0.9961 0.8784 0.8235 srgb } def
414.51 358.02 8.86 8.66 r p2
414.51 349.36 8.86 8.66 r p2
414.51 340.70 8.86 8.66 r p2
414.51 332.03 8.86 8.66 r p2
414.51 323.37 8.86 8.66 r p2
414.51 314.71 8.86 8.66 r p2
414.51 306.05 8.86 8.66 r p2
414.51 297.39 8.86 8.66 r p2
414.51 288.73 8.86 8.66 r p2
414.51 280.07 8.86 8.66 r p2
414.51 271.40 8.86 8.66 r p2
414.51 262.74 8.86 8.66 r p2
414.51 254.08 8.86 8.66 r p2
414.51 245.42 8.86 8.66 r p2
423.37 392.66 8.86 8.66 r p2
423.37 384.00 8.86 8.66 r p2
/bg { 0.9882 0.5647 0.4392 srgb } def
423.37 375.34 8.86 8.66 r p2
/bg { 0.9961 0.8784 0.8235 srgb } def
423.37 366.68 8.86 8.66 r p2
423.37 358.02 8.86 8.66 r p2
423.37 349.36 8.86 8.66 r p2
423.37 340.70 8.86 8.66 r p2
423.37 332.03 8.86 8.66 r p2
423.37 323.37 8.86 8.66 r p2
423.37 314.71 8.86 8.66 r p2
423.37 306.05 8.86 8.66 r p2
423.37 297.39 8.86 8.66 r p2
423.37 288.73 8.86 8.66 r p2
423.37 280.07 8.86 8.66 r p2
423.37 271.40 8.86 8.66 r p2
423.37 262.74 8.86 8.66 r p2
423.37 254.08 8.86 8.66 r p2
423.37 245.42 8.86 8.66 r p2
432.23 392.66 8.86 8.66 r p2
432.23 384.00 8.86 8.66 r p2
432.23 375.34 8.86 8.66 r p2
432.23 366.68 8.86 8.66 r p2
432.23 358.02 8.86 8.66 r p2
432.23 349.36 8.86 8.66 r p2
432.23 340.70 8.86 8.66 r p2
/bg { 0.9961 0.8353 0.7647 srgb } def
432.23 332.03 8.86 8.66 r p2
/bg { 0.9961 0.8784 0.8235 srgb } def
432.23 323.37 8.86 8.66 r p2
432.23 314.71 8.86 8.66 r p2
432.23 306.05 8.86 8.66 r p2
432.23 297.39 8.86 8.66 r p2
432.23 288.73 8.86 8.66 r p2
432.23 280.07 8.86 8.66 r p2
432.23 271.40 8.86 8.66 r p2
432.23 262.74 8.86 8.66 r p2
432.23 254.08 8.86 8.66 r p2
432.23 245.42 8.86 8.66 r p2
441.08 392.66 8.86 8.66 r p2
441.08 384.00 8.86 8.66 r p2
441.08 375.34 8.86 8.66 r p2
441.08 366.68 8.86 8.66 r p2
441.08 358.02 8.86 8.66 r p2
441.08 349.36 8.86 8.66 r p2
441.08 340.70 8.86 8.66 r p2
441.08 332.03 8.86 8.66 r p2
441.08 323.37 8.86 8.66 r p2
441.08 314.71 8.86 8.66 r p2
441.08 306.05 8.86 8.66 r p2
441.08 297.39 8.86 8.66 r p2
/bg { 0.9922 0.6078 0.4863 srgb } def
441.08 288.73 8.86 8.66 r p2
/bg { 0.9961 0.8784 0.8235 srgb } def
441.08 280.07 8.86 8.66 r p2
441.08 271.40 8.86 8.66 r p2
441.08 262.74 8.86 8.66 r p2
441.08 254.08 8.86 8.66 r p2
441.08 245.42 8.86 8.66 r p2
449.94 392.66 8.86 8.66 r p2
/bg { 0.9961 0.8275 0.7569 srgb } def
449.94 384.00 8.86 8.66 r p2
/bg { 0.9961 0.8784 0.8235 srgb } def
449.94 375.34 8.86 8.66 r p2
/bg { 0.9961 0.8118 0.7333 srgb } def
449.94 366.68 8.86 8.66 r p2
/bg { 0.9922 0.6275 0.5059 srgb } def
449.94 358.02 8.86 8.66 r p2
/bg { 0.9961 0.8784 0.8235 srgb } def
449.94 349.36 8.86 8.66 r p2
449.94 340.70 8.86 8.66 r p2
/bg { 0.9922 0.7804 0.6941 srgb } def
449.94 332.03 8.86 8.66 r p2
/bg { 0.9961 0.8784 0.8235 srgb } def
449.94 323.37 8.86 8.66 r p2
449.94 314.71 8.86 8.66 r p2
449.94 306.05 8.86 8.66 r p2
/bg { 0.9922 0.7882 0.7059 srgb } def
449.94 297.39 8.86 8.66 r p2
/bg { 0.9961 0.8784 0.8235 srgb } def
449.94 288.73 8.86 8.66 r p2
/bg { 0.9922 0.7804 0.6902 srgb } def
449.94 280.07 8.86 8.66 r p2
/bg { 0.9961 0.8784 0.8235 srgb } def
449.94 271.40 8.86 8.66 r p2
449.94 262.74 8.86 8.66 r p2
/bg { 0.9922 0.6510 0.5333 srgb } def
449.94 254.08 8.86 8.66 r p2
/bg { 0.9961 0.8784 0.8235 srgb } def
449.94 245.42 8.86 8.66 r p2
458.80 392.66 8.86 8.66 r p2
458.80 384.00 8.86 8.66 r p2
458.80 375.34 8.86 8.66 r p2
/bg { 0.9922 0.6863 0.5765 srgb } def
458.80 366.68 8.86 8.66 r p2
/bg { 0.9961 0.8784 0.8235 srgb } def
458.80 358.02 8.86 8.66 r p2
/bg { 0.9882 0.7412 0.6431 srgb } def
458.80 349.36 8.86 8.66 r p2
/bg { 0.9961 0.8078 0.7294 srgb } def
458.80 340.70 8.86 8.66 r p2
/bg { 0.9961 0.8039 0.7255 srgb } def
458.80 332.03 8.86 8.66 r p2
/bg { 0.9961 0.8784 0.8235 srgb } def
458.80 323.37 8.86 8.66 r p2
/bg { 0.9961 0.8314 0.7608 srgb } def
458.80 314.71 8.86 8.66 r p2
/bg { 0.9961 0.8784 0.8235 srgb } def
458.80 306.05 8.86 8.66 r p2
/bg { 0.9961 0.8078 0.7294 srgb } def
458.80 297.39 8.86 8.66 r p2
/bg { 0.9961 0.8118 0.7333 srgb } def
458.80 288.73 8.86 8.66 r p2
/bg { 0.9961 0.8235 0.7490 srgb } def
458.80 280.07 8.86 8.66 r p2
/bg { 0.9961 0.8196 0.7451 srgb } def
458.80 271.40 8.86 8.66 r p2
/bg { 0.9922 0.6863 0.5765 srgb } def
458.80 262.74 8.86 8.66 r p2
/bg { 0.9961 0.8784 0.8235 srgb } def
458.80 254.08 8.86 8.66 r p2
458.80 245.42 8.86 8.66 r p2
467.66 392.66 8.86 8.66 r p2
467.66 384.00 8.86 8.66 r p2
/bg { 0.9961 0.8000 0.7176 srgb } def
467.66 375.34 8.86 8.66 r p2
/bg { 0.9961 0.8235 0.7490 srgb } def
467.66 366.68 8.86 8.66 r p2
/bg { 0.9961 0.8784 0.8235 srgb } def
467.66 358.02 8.86 8.66 r p2
/bg { 0.9961 0.8196 0.7451 srgb } def
467.66 349.36 8.86 8.66 r p2
/bg { 0.9922 0.7765 0.6902 srgb } def
467.66 340.70 8.86 8.66 r p2
/bg { 0.9961 0.7961 0.7137 srgb } def
467.66 332.03 8.86 8.66 r p2
/bg { 0.9922 0.6784 0.5647 srgb } def
467.66 323.37 8.86 8.66 r p2
/bg { 0.9882 0.7059 0.6000 srgb } def
467.66 314.71 8.86 8.66 r p2
/bg { 0.9922 0.6627 0.5490 srgb } def
467.66 306.05 8.86 8.66 r p2
/bg { 0.9882 0.7490 0.6510 srgb } def
467.66 297.39 8.86 8.66 r p2
/bg { 0.9882 0.7216 0.6157 srgb } def
467.66 288.73 8.86 8.66 r p2
/bg { 0.9961 0.8784 0.8235 srgb } def
467.66 280.07 8.86 8.66 r p2
/bg { 0.9882 0.5922 0.4706 srgb } def
467.66 271.40 8.86 8.66 r p2
/bg { 0.9922 0.6627 0.5490 srgb } def
467.66 262.74 8.86 8.66 r p2
/bg { 0.9961 0.8784 0.8235 srgb } def
467.66 254.08 8.86 8.66 r p2
467.66 245.42 8.86 8.66 r p2
476.52 392.66 8.86 8.66 r p2
476.52 384.00 8.86 8.66 r p2
/bg { 0.9961 0.8275 0.7529 srgb } def
476.52 375.34 8.86 8.66 r p2
/bg { 0.9961 0.8157 0.7373 srgb } def
476.52 366.68 8.86 8.66 r p2
/bg { 0.9961 0.8784 0.8235 srgb } def
476.52 358.02 8.86 8.66 r p2
476.52 349.36 8.86 8.66 r p2
476.52 340.70 8.86 8.66 r p2
476.52 332.03 8.86 8.66 r p2
476.52 323.37 8.86 8.66 r p2
476.52 314.71 8.86 8.66 r p2
476.52 306.05 8.86 8.66 r p2
476.52 297.39 8.86 8.66 r p2
476.52 288.73 8.86 8.66 r p2
/bg { 0.9961 0.8157 0.7412 srgb } def
476.52 280.07 8.86 8.66 r p2
/bg { 0.9961 0.8784 0.8235 srgb } def
476.52 271.40 8.86 8.66 r p2
/bg { 0.9961 0.8275 0.7569 srgb } def
476.52 262.74 8.86 8.66 r p2
/bg { 0.9882 0.7216 0.6196 srgb } def
476.52 254.08 8.86 8.66 r p2
/bg { 0.5294 0.0235 0.0706 srgb } def
476.52 245.42 8.86 8.66 r p2
24.94 18.00 816.94 577.28 cl
24.94 18.00 816.94 577.28 cl
/Font1 findfont 8 s
0 0 0 srgb
317.19 394.12 (F) 0 ta
-0.400 (atty acid biosynthesis ) tb gr
320.31 385.46 (F) 0 ta
-0.400 (atty acid metabolism ) tb gr
400.34 376.80 (Steroid biosynthesis ) 1 0 t
271.84 368.14 (Th) 0 ta
-0.240 (yroid hor) tb
0.200 (mone signaling pathw) tb
-0.120 (a) tb
-0.240 (y ) tb gr
400.34 359.48 (Adherens junction ) 1 0 t
311.41 350.82 (Hippo signaling pathw) 0 ta
-0.120 (a) tb
-0.240 (y ) tb gr
300.29 342.15 (Estrogen signaling pathw) 0 ta
-0.120 (a) tb
-0.240 (y ) tb gr
318.08 333.49 (Wnt signaling pathw) 0 ta
-0.120 (a) tb
-0.240 (y ) tb gr
312.74 324.83 (F) 0 ta
-0.240 (o) tb
-0.240 (xO signaling pathw) tb
-0.120 (a) tb
-0.240 (y ) tb gr
328.75 316.17 (P) 0 ta
-0.320 (athw) tb
-0.120 (a) tb
-0.240 (ys in cancer ) tb gr
261.18 307.51 (T) 0 ta
-0.960 (r) tb
-0.080 (anscr) tb
0.120 (iptional misregulation in cancer ) tb gr
400.34 298.85 (Proteoglycans in cancer ) 1 0 t
199.81 290.19 (Signaling pathw) 0 ta
-0.120 (a) tb
-0.240 (ys regulating plur) tb
0.120 (ipotency of stem cells ) tb gr
400.34 281.52 (Axon guidance ) 1 0 t
296.06 272.86 (TGF-beta signaling pathw) 0 ta
-0.120 (a) tb
-0.240 (y ) tb gr
330.52 264.20 (L) 0 ta
-0.240 (ysine degr) tb
-0.080 (adation ) tb gr
324.30 255.54 (F) 0 ta
-0.400 (atty acid elongation ) tb gr
345.65 246.88 (Pr) 0 ta
0.120 (ion diseases ) tb gr
24.94 18.00 816.94 577.28 cl
24.94 18.00 816.94 577.28 cl
24.94 18.00 816.94 577.28 cl
/Font1 findfont 8 s
0 0 0 srgb
421.81 242.59 (miR-34c-5p) 1 90 t
430.67 242.59 (miR-143-3p) 1 90 t
439.53 242.59 (miR-154-3p) 1 90 t
448.39 242.59 (miR-34b-5p) 1 90 t
457.24 242.59 (miR-124-3p) 1 90 t
466.10 242.59 (miR-218-5p) 1 90 t
474.96 242.59 (miR-381-3p) 1 90 t
483.82 242.59 (miR-9-5p) 1 90 t
24.94 18.00 816.94 577.28 cl
24.94 18.00 816.94 577.28 cl
24.94 18.00 816.94 577.28 cl
/bg { 0.5569 0.0431 0.7608 srgb } def
403.17 392.66 8.50 8.66 r p2
403.17 384.00 8.50 8.66 r p2
/bg { 0.6039 0.1922 0.7843 srgb } def
403.17 375.34 8.50 8.66 r p2
/bg { 0.6902 0.3647 0.8275 srgb } def
403.17 366.68 8.50 8.66 r p2
/bg { 0.8078 0.5843 0.8902 srgb } def
403.17 358.02 8.50 8.66 r p2
/bg { 0.8392 0.6510 0.9059 srgb } def
403.17 349.36 8.50 8.66 r p2
/bg { 0.9020 0.7765 0.9412 srgb } def
403.17 340.70 8.50 8.66 r p2
/bg { 0.9137 0.8078 0.9490 srgb } def
403.17 332.03 8.50 8.66 r p2
/bg { 0.9176 0.8118 0.9529 srgb } def
403.17 323.37 8.50 8.66 r p2
/bg { 0.9216 0.8157 0.9529 srgb } def
403.17 314.71 8.50 8.66 r p2
/bg { 0.9333 0.8471 0.9608 srgb } def
403.17 306.05 8.50 8.66 r p2
/bg { 0.9451 0.8745 0.9686 srgb } def
403.17 297.39 8.50 8.66 r p2
/bg { 0.9569 0.9020 0.9765 srgb } def
403.17 288.73 8.50 8.66 r p2
/bg { 0.9686 0.9216 0.9804 srgb } def
403.17 280.07 8.50 8.66 r p2
/bg { 0.9765 0.9451 0.9843 srgb } def
403.17 271.40 8.50 8.66 r p2
/bg { 0.9961 0.9882 0.9961 srgb } def
403.17 262.74 8.50 8.66 r p2
/bg { 0.9961 0.9922 1 srgb } def
403.17 254.08 8.50 8.66 r p2
/bg { 1 1 1 srgb } def
403.17 245.42 8.50 8.66 r p2
24.94 18.00 816.94 577.28 cl
/Font1 findfont 10 s
0 0 0 srgb
407.42 242.59 (pathw) 0 ta
-0.000 (a) tb
-0.000 (y_p_v) tb
-0.000 (alue) tb gr
24.94 18.00 816.94 577.28 cl
24.94 18.00 816.94 577.28 cl
24.94 18.00 816.94 577.28 cl
24.94 18.00 816.94 577.28 cl
24.94 18.00 816.94 577.28 cl
24.94 18.00 816.94 577.28 cl
24.94 18.00 816.94 577.28 cl
24.94 18.00 816.94 577.28 cl
24.94 18.00 816.94 577.28 cl
24.94 18.00 816.94 577.28 cl
/Font5 findfont 10 s
0 0 0 srgb
491.04 370.85 (-) 0 0 t
/Font1 findfont 10 s
497.92 370.85 (l) 0 0 t
500.14 370.85 (o) 0 0 t
505.70 370.85 (g) 0 0 t
/Font1 findfont 7 s
511.26 369.02 (10) 0 0 t
/Font5 findfont 10 s
519.05 370.85 ( ) 0 0 t
/Font1 findfont 10 s
521.55 370.85 (adjusted) 0 0 t
/Font5 findfont 10 s
559.35 370.85 ( ) 0 0 t
/Font3 findfont 10 s
561.85 370.85 (P) 0 0 t
/Font5 findfont 10 s
568.52 370.85 ( ) 0 0 t
/Font1 findfont 10 s
571.02 370.85 (\(pathw) 0 ta
-0.150 (a) tb
-0.300 (y\)) tb gr
/Font1 findfont 8 s
505.22 327.51 (0) 0 0 t
505.22 343.10 (5) 0 0 t
505.22 358.69 (10) 0 0 t
/bg { 0.5569 0.0431 0.7608 srgb } def
0.5569 0.0431 0.7608 srgb
0.75 setlinewidth
[] 0 setdash
1 setlinecap
1 setlinejoin
10.00 setmiterlimit
491.04 362.47 11.34 0.34 r p3
/bg { 0.5647 0.0745 0.7647 srgb } def
0.5647 0.0745 0.7647 srgb
491.04 362.12 11.34 0.34 r p3
/bg { 0.5686 0.0980 0.7686 srgb } def
0.5686 0.0980 0.7686 srgb
491.04 361.78 11.34 0.34 r p3
/bg { 0.5765 0.1216 0.7686 srgb } def
0.5765 0.1216 0.7686 srgb
491.04 361.44 11.34 0.34 r p3
/bg { 0.5843 0.1373 0.7725 srgb } def
0.5843 0.1373 0.7725 srgb
491.04 361.09 11.34 0.34 r p3
/bg { 0.5882 0.1569 0.7765 srgb } def
0.5882 0.1569 0.7765 srgb
491.04 360.75 11.34 0.34 r p3
/bg { 0.5961 0.1725 0.7804 srgb } def
0.5961 0.1725 0.7804 srgb
491.04 360.41 11.34 0.34 r p3
/bg { 0.6000 0.1882 0.7843 srgb } def
0.6000 0.1882 0.7843 srgb
491.04 360.06 11.34 0.34 r p3
/bg { 0.6078 0.2000 0.7843 srgb } def
0.6078 0.2000 0.7843 srgb
491.04 359.72 11.34 0.34 r p3
/bg { 0.6157 0.2157 0.7882 srgb } def
0.6157 0.2157 0.7882 srgb
491.04 359.37 11.34 0.34 r p3
/bg { 0.6196 0.2275 0.7922 srgb } def
0.6196 0.2275 0.7922 srgb
491.04 359.03 11.34 0.34 r p3
/bg { 0.6275 0.2392 0.7961 srgb } def
0.6275 0.2392 0.7961 srgb
491.04 358.69 11.34 0.34 r p3
/bg { 0.6314 0.2510 0.7961 srgb } def
0.6314 0.2510 0.7961 srgb
491.04 358.34 11.34 0.34 r p3
/bg { 0.6392 0.2667 0.8000 srgb } def
0.6392 0.2667 0.8000 srgb
491.04 358.00 11.34 0.34 r p3
/bg { 0.6431 0.2784 0.8039 srgb } def
0.6431 0.2784 0.8039 srgb
491.04 357.66 11.34 0.34 r p3
/bg { 0.6510 0.2902 0.8078 srgb } def
0.6510 0.2902 0.8078 srgb
491.04 357.31 11.34 0.34 r p3
/bg { 0.6588 0.3020 0.8078 srgb } def
0.6588 0.3020 0.8078 srgb
491.04 356.97 11.34 0.34 r p3
/bg { 0.6627 0.3137 0.8118 srgb } def
0.6627 0.3137 0.8118 srgb
491.04 356.63 11.34 0.34 r p3
/bg { 0.6706 0.3216 0.8157 srgb } def
0.6706 0.3216 0.8157 srgb
491.04 356.28 11.34 0.34 r p3
/bg { 0.6745 0.3333 0.8196 srgb } def
0.6745 0.3333 0.8196 srgb
491.04 355.94 11.34 0.34 r p3
/bg { 0.6824 0.3451 0.8235 srgb } def
0.6824 0.3451 0.8235 srgb
491.04 355.60 11.34 0.34 r p3
/bg { 0.6863 0.3569 0.8235 srgb } def
0.6863 0.3569 0.8235 srgb
491.04 355.25 11.34 0.34 r p3
/bg { 0.6902 0.3686 0.8275 srgb } def
0.6902 0.3686 0.8275 srgb
491.04 354.91 11.34 0.34 r p3
/bg { 0.6980 0.3765 0.8314 srgb } def
0.6980 0.3765 0.8314 srgb
491.04 354.56 11.34 0.34 r p3
/bg { 0.7020 0.3882 0.8353 srgb } def
0.7020 0.3882 0.8353 srgb
491.04 354.22 11.34 0.34 r p3
/bg { 0.7098 0.4000 0.8353 srgb } def
0.7098 0.4000 0.8353 srgb
491.04 353.88 11.34 0.34 r p3
/bg { 0.7137 0.4078 0.8392 srgb } def
0.7137 0.4078 0.8392 srgb
491.04 353.53 11.34 0.34 r p3
/bg { 0.7216 0.4196 0.8431 srgb } def
0.7216 0.4196 0.8431 srgb
491.04 353.19 11.34 0.34 r p3
/bg { 0.7255 0.4314 0.8471 srgb } def
0.7255 0.4314 0.8471 srgb
491.04 352.85 11.34 0.34 r p3
/bg { 0.7333 0.4392 0.8471 srgb } def
0.7333 0.4392 0.8471 srgb
491.04 352.50 11.34 0.34 r p3
/bg { 0.7373 0.4510 0.8510 srgb } def
0.7373 0.4510 0.8510 srgb
491.04 352.16 11.34 0.34 r p3
/bg { 0.7412 0.4627 0.8549 srgb } def
0.7412 0.4627 0.8549 srgb
491.04 351.82 11.34 0.34 r p3
/bg { 0.7490 0.4706 0.8588 srgb } def
0.7490 0.4706 0.8588 srgb
491.04 351.47 11.34 0.34 r p3
/bg { 0.7529 0.4824 0.8588 srgb } def
0.7529 0.4824 0.8588 srgb
491.04 351.13 11.34 0.34 r p3
/bg { 0.7608 0.4941 0.8627 srgb } def
0.7608 0.4941 0.8627 srgb
491.04 350.78 11.34 0.34 r p3
/bg { 0.7647 0.5020 0.8667 srgb } def
0.7647 0.5020 0.8667 srgb
491.04 350.44 11.34 0.34 r p3
/bg { 0.7686 0.5137 0.8706 srgb } def
0.7686 0.5137 0.8706 srgb
491.04 350.10 11.34 0.34 r p3
/bg { 0.7765 0.5216 0.8706 srgb } def
0.7765 0.5216 0.8706 srgb
491.04 349.75 11.34 0.34 r p3
/bg { 0.7804 0.5333 0.8745 srgb } def
0.7804 0.5333 0.8745 srgb
491.04 349.41 11.34 0.34 r p3
/bg { 0.7843 0.5451 0.8784 srgb } def
0.7843 0.5451 0.8784 srgb
491.04 349.07 11.34 0.34 r p3
/bg { 0.7922 0.5529 0.8784 srgb } def
0.7922 0.5529 0.8784 srgb
491.04 348.72 11.34 0.34 r p3
/bg { 0.7961 0.5647 0.8824 srgb } def
0.7961 0.5647 0.8824 srgb
491.04 348.38 11.34 0.34 r p3
/bg { 0.8000 0.5725 0.8863 srgb } def
0.8000 0.5725 0.8863 srgb
491.04 348.04 11.34 0.34 r p3
/bg { 0.8078 0.5843 0.8902 srgb } def
0.8078 0.5843 0.8902 srgb
491.04 347.69 11.34 0.34 r p3
/bg { 0.8118 0.5961 0.8902 srgb } def
0.8118 0.5961 0.8902 srgb
491.04 347.35 11.34 0.34 r p3
/bg { 0.8157 0.6039 0.8941 srgb } def
0.8157 0.6039 0.8941 srgb
491.04 347.01 11.34 0.34 r p3
/bg { 0.8235 0.6157 0.8980 srgb } def
0.8235 0.6157 0.8980 srgb
491.04 346.66 11.34 0.34 r p3
/bg { 0.8275 0.6235 0.9020 srgb } def
0.8275 0.6235 0.9020 srgb
491.04 346.32 11.34 0.34 r p3
/bg { 0.8314 0.6353 0.9020 srgb } def
0.8314 0.6353 0.9020 srgb
491.04 345.97 11.34 0.34 r p3
/bg { 0.8353 0.6431 0.9059 srgb } def
0.8353 0.6431 0.9059 srgb
491.04 345.63 11.34 0.34 r p3
/bg { 0.8431 0.6549 0.9098 srgb } def
0.8431 0.6549 0.9098 srgb
491.04 345.29 11.34 0.34 r p3
/bg { 0.8471 0.6627 0.9098 srgb } def
0.8471 0.6627 0.9098 srgb
491.04 344.94 11.34 0.34 r p3
/bg { 0.8510 0.6745 0.9137 srgb } def
0.8510 0.6745 0.9137 srgb
491.04 344.60 11.34 0.34 r p3
/bg { 0.8588 0.6863 0.9176 srgb } def
0.8588 0.6863 0.9176 srgb
491.04 344.26 11.34 0.34 r p3
/bg { 0.8627 0.6941 0.9216 srgb } def
0.8627 0.6941 0.9216 srgb
491.04 343.91 11.34 0.34 r p3
/bg { 0.8667 0.7059 0.9216 srgb } def
0.8667 0.7059 0.9216 srgb
491.04 343.57 11.34 0.34 r p3
/bg { 0.8706 0.7137 0.9255 srgb } def
0.8706 0.7137 0.9255 srgb
491.04 343.23 11.34 0.34 r p3
/bg { 0.8784 0.7255 0.9294 srgb } def
0.8784 0.7255 0.9294 srgb
491.04 342.88 11.34 0.34 r p3
/bg { 0.8824 0.7333 0.9294 srgb } def
0.8824 0.7333 0.9294 srgb
491.04 342.54 11.34 0.34 r p3
/bg { 0.8863 0.7451 0.9333 srgb } def
0.8863 0.7451 0.9333 srgb
491.04 342.20 11.34 0.34 r p3
/bg { 0.8902 0.7569 0.9373 srgb } def
0.8902 0.7569 0.9373 srgb
491.04 341.85 11.34 0.34 r p3
/bg { 0.8941 0.7647 0.9373 srgb } def
0.8941 0.7647 0.9373 srgb
491.04 341.51 11.34 0.34 r p3
/bg { 0.9020 0.7765 0.9412 srgb } def
0.9020 0.7765 0.9412 srgb
491.04 341.16 11.34 0.34 r p3
/bg { 0.9059 0.7843 0.9451 srgb } def
0.9059 0.7843 0.9451 srgb
491.04 340.82 11.34 0.34 r p3
/bg { 0.9098 0.7961 0.9490 srgb } def
0.9098 0.7961 0.9490 srgb
491.04 340.48 11.34 0.34 r p3
/bg { 0.9137 0.8039 0.9490 srgb } def
0.9137 0.8039 0.9490 srgb
491.04 340.13 11.34 0.34 r p3
/bg { 0.9176 0.8157 0.9529 srgb } def
0.9176 0.8157 0.9529 srgb
491.04 339.79 11.34 0.34 r p3
/bg { 0.9255 0.8275 0.9569 srgb } def
0.9255 0.8275 0.9569 srgb
491.04 339.45 11.34 0.34 r p3
/bg { 0.9294 0.8353 0.9569 srgb } def
0.9294 0.8353 0.9569 srgb
491.04 339.10 11.34 0.34 r p3
/bg { 0.9333 0.8471 0.9608 srgb } def
0.9333 0.8471 0.9608 srgb
491.04 338.76 11.34 0.34 r p3
/bg { 0.9373 0.8549 0.9647 srgb } def
0.9373 0.8549 0.9647 srgb
491.04 338.42 11.34 0.34 r p3
/bg { 0.9412 0.8667 0.9647 srgb } def
0.9412 0.8667 0.9647 srgb
491.04 338.07 11.34 0.34 r p3
/bg { 0.9451 0.8784 0.9686 srgb } def
0.9451 0.8784 0.9686 srgb
491.04 337.73 11.34 0.34 r p3
/bg { 0.9529 0.8863 0.9725 srgb } def
0.9529 0.8863 0.9725 srgb
491.04 337.38 11.34 0.34 r p3
/bg { 0.9569 0.8980 0.9725 srgb } def
0.9569 0.8980 0.9725 srgb
491.04 337.04 11.34 0.34 r p3
/bg { 0.9608 0.9059 0.9765 srgb } def
0.9608 0.9059 0.9765 srgb
491.04 336.70 11.34 0.34 r p3
/bg { 0.9647 0.9176 0.9804 srgb } def
0.9647 0.9176 0.9804 srgb
491.04 336.35 11.34 0.34 r p3
/bg { 0.9686 0.9294 0.9804 srgb } def
0.9686 0.9294 0.9804 srgb
491.04 336.01 11.34 0.34 r p3
/bg { 0.9725 0.9373 0.9843 srgb } def
0.9725 0.9373 0.9843 srgb
491.04 335.67 11.34 0.34 r p3
/bg { 0.9765 0.9490 0.9882 srgb } def
0.9765 0.9490 0.9882 srgb
491.04 335.32 11.34 0.34 r p3
/bg { 0.9843 0.9569 0.9882 srgb } def
0.9843 0.9569 0.9882 srgb
491.04 334.98 11.34 0.34 r p3
/bg { 0.9882 0.9686 0.9922 srgb } def
0.9882 0.9686 0.9922 srgb
491.04 334.64 11.34 0.34 r p3
/bg { 0.9922 0.9804 0.9961 srgb } def
0.9922 0.9804 0.9961 srgb
491.04 334.29 11.34 0.34 r p3
/bg { 0.9961 0.9882 0.9961 srgb } def
0.9961 0.9882 0.9961 srgb
491.04 333.95 11.34 0.34 r p3
/bg { 1 1 1 srgb } def
1 1 1 srgb
491.04 333.61 11.34 0.34 r p3
491.04 333.26 11.34 0.34 r p3
491.04 332.92 11.34 0.34 r p3
491.04 332.57 11.34 0.34 r p3
491.04 332.23 11.34 0.34 r p3
491.04 331.89 11.34 0.34 r p3
491.04 331.54 11.34 0.34 r p3
491.04 331.20 11.34 0.34 r p3
491.04 330.86 11.34 0.34 r p3
491.04 330.51 11.34 0.34 r p3
491.04 330.17 11.34 0.34 r p3
491.04 329.83 11.34 0.34 r p3
491.04 329.48 11.34 0.34 r p3
491.04 329.14 11.34 0.34 r p3
491.04 328.79 11.34 0.34 r p3
np
491.04 330.38 m
2.27 0 l
o
np
491.04 345.97 m
2.27 0 l
o
np
491.04 361.57 m
2.27 0 l
o
np
502.38 330.38 m
-2.26 0 l
o
np
502.38 345.97 m
-2.26 0 l
o
np
502.38 361.57 m
-2.26 0 l
o
24.94 18.00 816.94 577.28 cl
24.94 18.00 816.94 577.28 cl
/Font5 findfont 10 s
0 0 0 srgb
491.04 310.45 (-) 0 0 t
/Font1 findfont 10 s
497.92 310.45 (l) 0 0 t
500.14 310.45 (o) 0 0 t
505.70 310.45 (g) 0 0 t
/Font1 findfont 7 s
511.26 308.62 (10) 0 0 t
/Font5 findfont 10 s
519.05 310.45 ( ) 0 0 t
/Font1 findfont 10 s
521.55 310.45 (adjusted) 0 0 t
/Font5 findfont 10 s
559.35 310.45 ( ) 0 0 t
/Font3 findfont 10 s
561.85 310.45 (P) 0 0 t
/Font1 findfont 8 s
505.22 267.11 (0) 0 0 t
505.22 282.70 (15) 0 0 t
505.22 298.29 (30) 0 0 t
/bg { 0.4784 0.0118 0.0627 srgb } def
0.4784 0.0118 0.0627 srgb
0.75 setlinewidth
[] 0 setdash
1 setlinecap
1 setlinejoin
10.00 setmiterlimit
491.04 302.06 11.34 0.34 r p3
/bg { 0.4941 0.0157 0.0667 srgb } def
0.4941 0.0157 0.0667 srgb
491.04 301.72 11.34 0.34 r p3
/bg { 0.5098 0.0196 0.0667 srgb } def
0.5098 0.0196 0.0667 srgb
491.04 301.38 11.34 0.34 r p3
/bg { 0.5294 0.0235 0.0706 srgb } def
0.5294 0.0235 0.0706 srgb
491.04 301.03 11.34 0.34 r p3
/bg { 0.5451 0.0275 0.0706 srgb } def
0.5451 0.0275 0.0706 srgb
491.04 300.69 11.34 0.34 r p3
/bg { 0.5608 0.0314 0.0745 srgb } def
0.5608 0.0314 0.0745 srgb
491.04 300.35 11.34 0.34 r p3
/bg { 0.5765 0.0392 0.0745 srgb } def
0.5765 0.0392 0.0745 srgb
491.04 300.00 11.34 0.34 r p3
/bg { 0.5961 0.0431 0.0784 srgb } def
0.5961 0.0431 0.0784 srgb
491.04 299.66 11.34 0.34 r p3
/bg { 0.6118 0.0471 0.0784 srgb } def
0.6118 0.0471 0.0784 srgb
491.04 299.31 11.34 0.34 r p3
/bg { 0.6275 0.0549 0.0824 srgb } def
0.6275 0.0549 0.0824 srgb
491.04 298.97 11.34 0.34 r p3
/bg { 0.6471 0.0588 0.0824 srgb } def
0.6471 0.0588 0.0824 srgb
491.04 298.63 11.34 0.34 r p3
/bg { 0.6549 0.0627 0.0863 srgb } def
0.6549 0.0627 0.0863 srgb
491.04 298.28 11.34 0.34 r p3
/bg { 0.6667 0.0627 0.0863 srgb } def
0.6667 0.0627 0.0863 srgb
491.04 297.94 11.34 0.34 r p3
/bg { 0.6784 0.0667 0.0902 srgb } def
0.6784 0.0667 0.0902 srgb
491.04 297.60 11.34 0.34 r p3
/bg { 0.6863 0.0667 0.0902 srgb } def
0.6863 0.0667 0.0902 srgb
491.04 297.25 11.34 0.34 r p3
/bg { 0.6980 0.0706 0.0941 srgb } def
0.6980 0.0706 0.0941 srgb
491.04 296.91 11.34 0.34 r p3
/bg { 0.7059 0.0745 0.0941 srgb } def
0.7059 0.0745 0.0941 srgb
491.04 296.57 11.34 0.34 r p3
/bg { 0.7176 0.0745 0.0980 srgb } def
0.7176 0.0745 0.0980 srgb
491.04 296.22 11.34 0.34 r p3
/bg { 0.7255 0.0784 0.0980 srgb } def
0.7255 0.0784 0.0980 srgb
491.04 295.88 11.34 0.34 r p3
/bg { 0.7373 0.0784 0.1020 srgb } def
0.7373 0.0784 0.1020 srgb
491.04 295.54 11.34 0.34 r p3
/bg { 0.7490 0.0824 0.1020 srgb } def
0.7490 0.0824 0.1020 srgb
491.04 295.19 11.34 0.34 r p3
/bg { 0.7569 0.0863 0.1059 srgb } def
0.7569 0.0863 0.1059 srgb
491.04 294.85 11.34 0.34 r p3
/bg { 0.7686 0.0863 0.1059 srgb } def
0.7686 0.0863 0.1059 srgb
491.04 294.50 11.34 0.34 r p3
/bg { 0.7804 0.0902 0.1098 srgb } def
0.7804 0.0902 0.1098 srgb
491.04 294.16 11.34 0.34 r p3
/bg { 0.7882 0.0941 0.1137 srgb } def
0.7882 0.0941 0.1137 srgb
491.04 293.82 11.34 0.34 r p3
/bg { 0.8000 0.0980 0.1137 srgb } def
0.8000 0.0980 0.1137 srgb
491.04 293.47 11.34 0.34 r p3
/bg { 0.8078 0.1098 0.1176 srgb } def
0.8078 0.1098 0.1176 srgb
491.04 293.13 11.34 0.34 r p3
/bg { 0.8196 0.1216 0.1216 srgb } def
0.8196 0.1216 0.1216 srgb
491.04 292.79 11.34 0.34 r p3
/bg { 0.8275 0.1294 0.1255 srgb } def
0.8275 0.1294 0.1255 srgb
491.04 292.44 11.34 0.34 r p3
/bg { 0.8353 0.1412 0.1294 srgb } def
0.8353 0.1412 0.1294 srgb
491.04 292.10 11.34 0.34 r p3
/bg { 0.8471 0.1490 0.1333 srgb } def
0.8471 0.1490 0.1333 srgb
491.04 291.76 11.34 0.34 r p3
/bg { 0.8549 0.1608 0.1373 srgb } def
0.8549 0.1608 0.1373 srgb
491.04 291.41 11.34 0.34 r p3
/bg { 0.8667 0.1686 0.1412 srgb } def
0.8667 0.1686 0.1412 srgb
491.04 291.07 11.34 0.34 r p3
/bg { 0.8745 0.1765 0.1451 srgb } def
0.8745 0.1765 0.1451 srgb
491.04 290.72 11.34 0.34 r p3
/bg { 0.8863 0.1882 0.1490 srgb } def
0.8863 0.1882 0.1490 srgb
491.04 290.38 11.34 0.34 r p3
/bg { 0.8941 0.1961 0.1529 srgb } def
0.8941 0.1961 0.1529 srgb
491.04 290.04 11.34 0.34 r p3
/bg { 0.9059 0.2039 0.1569 srgb } def
0.9059 0.2039 0.1569 srgb
491.04 289.69 11.34 0.34 r p3
/bg { 0.9137 0.2118 0.1647 srgb } def
0.9137 0.2118 0.1647 srgb
491.04 289.35 11.34 0.34 r p3
/bg { 0.9255 0.2196 0.1686 srgb } def
0.9255 0.2196 0.1686 srgb
491.04 289.01 11.34 0.34 r p3
/bg { 0.9333 0.2275 0.1725 srgb } def
0.9333 0.2275 0.1725 srgb
491.04 288.66 11.34 0.34 r p3
/bg { 0.9412 0.2392 0.1765 srgb } def
0.9412 0.2392 0.1765 srgb
491.04 288.32 11.34 0.34 r p3
/bg { 0.9412 0.2549 0.1843 srgb } def
0.9412 0.2549 0.1843 srgb
491.04 287.98 11.34 0.34 r p3
/bg { 0.9451 0.2706 0.1922 srgb } def
0.9451 0.2706 0.1922 srgb
491.04 287.63 11.34 0.34 r p3
/bg { 0.9490 0.2824 0.2000 srgb } def
0.9490 0.2824 0.2000 srgb
491.04 287.29 11.34 0.34 r p3
/bg { 0.9529 0.2980 0.2078 srgb } def
0.9529 0.2980 0.2078 srgb
491.04 286.95 11.34 0.34 r p3
/bg { 0.9569 0.3098 0.2157 srgb } def
0.9569 0.3098 0.2157 srgb
491.04 286.60 11.34 0.34 r p3
/bg { 0.9608 0.3216 0.2235 srgb } def
0.9608 0.3216 0.2235 srgb
491.04 286.26 11.34 0.34 r p3
/bg { 0.9647 0.3333 0.2353 srgb } def
0.9647 0.3333 0.2353 srgb
491.04 285.91 11.34 0.34 r p3
/bg { 0.9647 0.3451 0.2431 srgb } def
0.9647 0.3451 0.2431 srgb
491.04 285.57 11.34 0.34 r p3
/bg { 0.9686 0.3608 0.2510 srgb } def
0.9686 0.3608 0.2510 srgb
491.04 285.23 11.34 0.34 r p3
/bg { 0.9725 0.3686 0.2588 srgb } def
0.9725 0.3686 0.2588 srgb
491.04 284.88 11.34 0.34 r p3
/bg { 0.9765 0.3804 0.2667 srgb } def
0.9765 0.3804 0.2667 srgb
491.04 284.54 11.34 0.34 r p3
/bg { 0.9765 0.3922 0.2745 srgb } def
0.9765 0.3922 0.2745 srgb
491.04 284.20 11.34 0.34 r p3
/bg { 0.9804 0.4039 0.2824 srgb } def
0.9804 0.4039 0.2824 srgb
491.04 283.85 11.34 0.34 r p3
/bg { 0.9843 0.4157 0.2902 srgb } def
0.9843 0.4157 0.2902 srgb
491.04 283.51 11.34 0.34 r p3
/bg { 0.9843 0.4275 0.3020 srgb } def
0.9843 0.4275 0.3020 srgb
491.04 283.17 11.34 0.34 r p3
/bg { 0.9843 0.4392 0.3098 srgb } def
0.9843 0.4392 0.3098 srgb
491.04 282.82 11.34 0.34 r p3
/bg { 0.9882 0.4510 0.3216 srgb } def
0.9882 0.4510 0.3216 srgb
491.04 282.48 11.34 0.34 r p3
/bg { 0.9882 0.4588 0.3333 srgb } def
0.9882 0.4588 0.3333 srgb
491.04 282.14 11.34 0.34 r p3
/bg { 0.9882 0.4706 0.3412 srgb } def
0.9882 0.4706 0.3412 srgb
491.04 281.79 11.34 0.34 r p3
/bg { 0.9882 0.4824 0.3529 srgb } def
0.9882 0.4824 0.3529 srgb
491.04 281.45 11.34 0.34 r p3
/bg { 0.9882 0.4941 0.3647 srgb } def
0.9882 0.4941 0.3647 srgb
491.04 281.10 11.34 0.34 r p3
/bg { 0.9882 0.5020 0.3765 srgb } def
0.9882 0.5020 0.3765 srgb
491.04 280.76 11.34 0.34 r p3
/bg { 0.9882 0.5137 0.3843 srgb } def
0.9882 0.5137 0.3843 srgb
491.04 280.42 11.34 0.34 r p3
/bg { 0.9882 0.5255 0.3961 srgb } def
0.9882 0.5255 0.3961 srgb
491.04 280.07 11.34 0.34 r p3
/bg { 0.9882 0.5333 0.4078 srgb } def
0.9882 0.5333 0.4078 srgb
491.04 279.73 11.34 0.34 r p3
/bg { 0.9882 0.5451 0.4196 srgb } def
0.9882 0.5451 0.4196 srgb
491.04 279.39 11.34 0.34 r p3
/bg { 0.9882 0.5569 0.4275 srgb } def
0.9882 0.5569 0.4275 srgb
491.04 279.04 11.34 0.34 r p3
/bg { 0.9882 0.5647 0.4392 srgb } def
0.9882 0.5647 0.4392 srgb
491.04 278.70 11.34 0.34 r p3
/bg { 0.9882 0.5765 0.4510 srgb } def
0.9882 0.5765 0.4510 srgb
491.04 278.36 11.34 0.34 r p3
/bg { 0.9882 0.5882 0.4627 srgb } def
0.9882 0.5882 0.4627 srgb
491.04 278.01 11.34 0.34 r p3
/bg { 0.9882 0.6000 0.4745 srgb } def
0.9882 0.6000 0.4745 srgb
491.04 277.67 11.34 0.34 r p3
/bg { 0.9922 0.6078 0.4863 srgb } def
0.9922 0.6078 0.4863 srgb
491.04 277.32 11.34 0.34 r p3
/bg { 0.9922 0.6196 0.5020 srgb } def
0.9922 0.6196 0.5020 srgb
491.04 276.98 11.34 0.34 r p3
/bg { 0.9922 0.6314 0.5137 srgb } def
0.9922 0.6314 0.5137 srgb
491.04 276.64 11.34 0.34 r p3
/bg { 0.9922 0.6431 0.5255 srgb } def
0.9922 0.6431 0.5255 srgb
491.04 276.29 11.34 0.34 r p3
/bg { 0.9922 0.6549 0.5373 srgb } def
0.9922 0.6549 0.5373 srgb
491.04 275.95 11.34 0.34 r p3
/bg { 0.9922 0.6627 0.5490 srgb } def
0.9922 0.6627 0.5490 srgb
491.04 275.61 11.34 0.34 r p3
/bg { 0.9922 0.6745 0.5647 srgb } def
0.9922 0.6745 0.5647 srgb
491.04 275.26 11.34 0.34 r p3
/bg { 0.9922 0.6863 0.5765 srgb } def
0.9922 0.6863 0.5765 srgb
491.04 274.92 11.34 0.34 r p3
/bg { 0.9922 0.6980 0.5882 srgb } def
0.9922 0.6980 0.5882 srgb
491.04 274.58 11.34 0.34 r p3
/bg { 0.9882 0.7098 0.6000 srgb } def
0.9882 0.7098 0.6000 srgb
491.04 274.23 11.34 0.34 r p3
/bg { 0.9882 0.7176 0.6157 srgb } def
0.9882 0.7176 0.6157 srgb
491.04 273.89 11.34 0.34 r p3
/bg { 0.9882 0.7294 0.6275 srgb } def
0.9882 0.7294 0.6275 srgb
491.04 273.55 11.34 0.34 r p3
/bg { 0.9882 0.7412 0.6392 srgb } def
0.9882 0.7412 0.6392 srgb
491.04 273.20 11.34 0.34 r p3
/bg { 0.9922 0.7490 0.6510 srgb } def
0.9922 0.7490 0.6510 srgb
491.04 272.86 11.34 0.34 r p3
/bg { 0.9922 0.7608 0.6667 srgb } def
0.9922 0.7608 0.6667 srgb
491.04 272.51 11.34 0.34 r p3
/bg { 0.9922 0.7686 0.6784 srgb } def
0.9922 0.7686 0.6784 srgb
491.04 272.17 11.34 0.34 r p3
/bg { 0.9922 0.7804 0.6902 srgb } def
0.9922 0.7804 0.6902 srgb
491.04 271.83 11.34 0.34 r p3
/bg { 0.9922 0.7882 0.7059 srgb } def
0.9922 0.7882 0.7059 srgb
491.04 271.48 11.34 0.34 r p3
/bg { 0.9961 0.8000 0.7176 srgb } def
0.9961 0.8000 0.7176 srgb
491.04 271.14 11.34 0.34 r p3
/bg { 0.9961 0.8078 0.7294 srgb } def
0.9961 0.8078 0.7294 srgb
491.04 270.80 11.34 0.34 r p3
/bg { 0.9961 0.8196 0.7451 srgb } def
0.9961 0.8196 0.7451 srgb
491.04 270.45 11.34 0.34 r p3
/bg { 0.9961 0.8275 0.7569 srgb } def
0.9961 0.8275 0.7569 srgb
491.04 270.11 11.34 0.34 r p3
/bg { 0.9961 0.8392 0.7686 srgb } def
0.9961 0.8392 0.7686 srgb
491.04 269.77 11.34 0.34 r p3
/bg { 0.9961 0.8471 0.7843 srgb } def
0.9961 0.8471 0.7843 srgb
491.04 269.42 11.34 0.34 r p3
/bg { 0.9961 0.8588 0.7961 srgb } def
0.9961 0.8588 0.7961 srgb
491.04 269.08 11.34 0.34 r p3
/bg { 0.9961 0.8667 0.8118 srgb } def
0.9961 0.8667 0.8118 srgb
491.04 268.73 11.34 0.34 r p3
/bg { 0.9961 0.8784 0.8235 srgb } def
0.9961 0.8784 0.8235 srgb
491.04 268.39 11.34 0.34 r p3
1 1 1 srgb
np
491.04 269.98 m
2.27 0 l
o
np
491.04 285.57 m
2.27 0 l
o
np
491.04 301.16 m
2.27 0 l
o
np
502.38 269.98 m
-2.26 0 l
o
np
502.38 285.57 m
-2.26 0 l
o
np
502.38 301.16 m
-2.26 0 l
o
24.94 18.00 816.94 577.28 cl
24.94 18.00 816.94 577.28 cl
24.94 18.00 816.94 577.28 cl
24.94 18.00 816.94 577.28 cl
24.94 18.00 816.94 577.28 cl
24.94 18.00 816.94 577.28 cl
24.94 18.00 816.94 577.28 cl
ep
%%Trailer
%%Pages: 1
%%EOF
