%!PS-Adobe-3.0
%%DocumentNeededResources: font Helvetica
%%+ font Helvetica-Bold
%%+ font Helvetica-Oblique
%%+ font Helvetica-BoldOblique
%%+ font Symbol
%%DocumentMedia: a4 595 841 0 () ()
%%Title: R Graphics Output
%%Creator: R Software
%%Pages: (atend)
%%Orientation: Landscape
%%BoundingBox: 18 25 577 817
%%EndComments
%%BeginProlog
/bp  { gs sRGB 595.00 0 translate 90 rotate gs } def
% begin .ps.prolog
/gs  { gsave } bind def
/gr  { grestore } bind def
/ep  { showpage gr gr } bind def
/m   { moveto } bind def
/l  { rlineto } bind def
/np  { newpath } bind def
/cp  { closepath } bind def
/f   { fill } bind def
/o   { stroke } bind def
/c   { newpath 0 360 arc } bind def
/r   { 4 2 roll moveto 1 copy 3 -1 roll exch 0 exch rlineto 0 rlineto -1 mul 0 exch rlineto closepath } bind def
/p1  { stroke } bind def
/p2  { gsave bg fill grestore newpath } bind def
/p3  { gsave bg fill grestore stroke } bind def
/p6  { gsave bg eofill grestore newpath } bind def
/p7  { gsave bg eofill grestore stroke } bind def
/t   { 5 -2 roll moveto gsave rotate
       1 index stringwidth pop
       mul neg 0 rmoveto show grestore } bind def
/ta  { 4 -2 roll moveto gsave rotate show } bind def
/tb  { 2 -1 roll 0 rmoveto show } bind def
/cl  { grestore gsave newpath 3 index 3 index moveto 1 index
       4 -1 roll lineto  exch 1 index lineto lineto
       closepath clip newpath } bind def
/rgb { setrgbcolor } bind def
/s   { scalefont setfont } bind def
% end   .ps.prolog
/sRGB { [ /CIEBasedABC
          << /DecodeLMN
               [ { dup 0.03928 le
                        {12.92321 div}
                        {0.055 add 1.055 div 2.4 exp }
                     ifelse
                 } bind dup dup
               ]
             /MatrixLMN [0.412457 0.212673 0.019334
                         0.357576 0.715152 0.119192
                         0.180437 0.072175 0.950301]
             /WhitePoint [0.9505 1.0 1.0890]
           >>
         ] setcolorspace } bind def
/srgb { setcolor } bind def
%%IncludeResource: font Helvetica
/Helvetica findfont
dup length dict begin
  {1 index /FID ne {def} {pop pop} ifelse} forall
  /Encoding ISOLatin1Encoding def
  currentdict
  end
/Font1 exch definefont pop
%%IncludeResource: font Helvetica-Bold
/Helvetica-Bold findfont
dup length dict begin
  {1 index /FID ne {def} {pop pop} ifelse} forall
  /Encoding ISOLatin1Encoding def
  currentdict
  end
/Font2 exch definefont pop
%%IncludeResource: font Helvetica-Oblique
/Helvetica-Oblique findfont
dup length dict begin
  {1 index /FID ne {def} {pop pop} ifelse} forall
  /Encoding ISOLatin1Encoding def
  currentdict
  end
/Font3 exch definefont pop
%%IncludeResource: font Helvetica-BoldOblique
/Helvetica-BoldOblique findfont
dup length dict begin
  {1 index /FID ne {def} {pop pop} ifelse} forall
  /Encoding ISOLatin1Encoding def
  currentdict
  end
/Font4 exch definefont pop
%%IncludeResource: font Symbol
/Symbol findfont
dup length dict begin
  {1 index /FID ne {def} {pop pop} ifelse} forall
  currentdict
  end
/Font5 exch definefont pop
%%EndProlog
%%Page: 1 1
bp
24.94 18.00 816.94 577.28 cl
24.94 18.00 816.94 577.28 cl
/bg { 0.0510 0.3451 0.3725 srgb } def
350.50 424.83 56.69 9.86 r p2
/bg { 0.5686 0.7686 0.7294 srgb } def
350.50 414.97 56.69 9.86 r p2
/bg { 0.6588 0.8235 0.7765 srgb } def
350.50 405.11 56.69 9.86 r p2
/bg { 0.7843 0.8902 0.8353 srgb } def
350.50 395.25 56.69 9.86 r p2
/bg { 0.8235 0.9098 0.8510 srgb } def
350.50 385.39 56.69 9.86 r p2
350.50 375.53 56.69 9.86 r p2
350.50 365.67 56.69 9.86 r p2
/bg { 0.8431 0.9216 0.8588 srgb } def
350.50 355.81 56.69 9.86 r p2
/bg { 0.8941 0.9451 0.8824 srgb } def
350.50 345.95 56.69 9.86 r p2
350.50 336.09 56.69 9.86 r p2
350.50 326.23 56.69 9.86 r p2
350.50 316.37 56.69 9.86 r p2
350.50 306.51 56.69 9.86 r p2
350.50 296.65 56.69 9.86 r p2
350.50 286.79 56.69 9.86 r p2
350.50 276.93 56.69 9.86 r p2
350.50 267.07 56.69 9.86 r p2
350.50 257.21 56.69 9.86 r p2
350.50 247.35 56.69 9.86 r p2
350.50 237.50 56.69 9.86 r p2
350.50 227.64 56.69 9.86 r p2
350.50 217.78 56.69 9.86 r p2
350.50 207.92 56.69 9.86 r p2
407.19 424.83 56.69 9.86 r p2
407.19 414.97 56.69 9.86 r p2
407.19 405.11 56.69 9.86 r p2
407.19 395.25 56.69 9.86 r p2
/bg { 0.8314 0.9137 0.8549 srgb } def
407.19 385.39 56.69 9.86 r p2
/bg { 0.8235 0.9098 0.8510 srgb } def
407.19 375.53 56.69 9.86 r p2
/bg { 0.8078 0.9020 0.8431 srgb } def
407.19 365.67 56.69 9.86 r p2
/bg { 0.8941 0.9451 0.8824 srgb } def
407.19 355.81 56.69 9.86 r p2
/bg { 0.8314 0.9137 0.8549 srgb } def
407.19 345.95 56.69 9.86 r p2
407.19 336.09 56.69 9.86 r p2
/bg { 0.8196 0.9098 0.8510 srgb } def
407.19 326.23 56.69 9.86 r p2
/bg { 0.8039 0.9020 0.8431 srgb } def
407.19 316.37 56.69 9.86 r p2
/bg { 0.8078 0.9020 0.8431 srgb } def
407.19 306.51 56.69 9.86 r p2
407.19 296.65 56.69 9.86 r p2
407.19 286.79 56.69 9.86 r p2
/bg { 0.8039 0.9020 0.8431 srgb } def
407.19 276.93 56.69 9.86 r p2
/bg { 0.8157 0.9059 0.8471 srgb } def
407.19 267.07 56.69 9.86 r p2
/bg { 0.7843 0.8902 0.8314 srgb } def
407.19 257.21 56.69 9.86 r p2
/bg { 0.7647 0.8784 0.8235 srgb } def
407.19 247.35 56.69 9.86 r p2
/bg { 0.7333 0.8627 0.8118 srgb } def
407.19 237.50 56.69 9.86 r p2
/bg { 0.7255 0.8588 0.8078 srgb } def
407.19 227.64 56.69 9.86 r p2
407.19 217.78 56.69 9.86 r p2
/bg { 0.7137 0.8510 0.8000 srgb } def
407.19 207.92 56.69 9.86 r p2
/bg { 0.8941 0.9451 0.8824 srgb } def
463.88 424.83 56.69 9.86 r p2
/bg { 0.7412 0.8667 0.8118 srgb } def
463.88 414.97 56.69 9.86 r p2
/bg { 0.7961 0.8980 0.8392 srgb } def
463.88 405.11 56.69 9.86 r p2
/bg { 0.8941 0.9451 0.8824 srgb } def
463.88 395.25 56.69 9.86 r p2
463.88 385.39 56.69 9.86 r p2
/bg { 0.8118 0.9059 0.8471 srgb } def
463.88 375.53 56.69 9.86 r p2
/bg { 0.6510 0.8157 0.7725 srgb } def
463.88 365.67 56.69 9.86 r p2
/bg { 0.8471 0.9216 0.8588 srgb } def
463.88 355.81 56.69 9.86 r p2
/bg { 0.8941 0.9451 0.8824 srgb } def
463.88 345.95 56.69 9.86 r p2
/bg { 0.8078 0.9020 0.8431 srgb } def
463.88 336.09 56.69 9.86 r p2
/bg { 0.8000 0.8980 0.8392 srgb } def
463.88 326.23 56.69 9.86 r p2
/bg { 0.8941 0.9451 0.8824 srgb } def
463.88 316.37 56.69 9.86 r p2
/bg { 0.8471 0.9216 0.8627 srgb } def
463.88 306.51 56.69 9.86 r p2
/bg { 0.8235 0.9098 0.8510 srgb } def
463.88 296.65 56.69 9.86 r p2
463.88 286.79 56.69 9.86 r p2
/bg { 0.8314 0.9137 0.8549 srgb } def
463.88 276.93 56.69 9.86 r p2
/bg { 0.6667 0.8275 0.7804 srgb } def
463.88 267.07 56.69 9.86 r p2
/bg { 0.8941 0.9451 0.8824 srgb } def
463.88 257.21 56.69 9.86 r p2
463.88 247.35 56.69 9.86 r p2
463.88 237.50 56.69 9.86 r p2
463.88 227.64 56.69 9.86 r p2
/bg { 0.8353 0.9137 0.8549 srgb } def
463.88 217.78 56.69 9.86 r p2
/bg { 0.8941 0.9451 0.8824 srgb } def
463.88 207.92 56.69 9.86 r p2
24.94 18.00 816.94 577.28 cl
24.94 18.00 816.94 577.28 cl
0 0 0 srgb
0.75 setlinewidth
[] 0 setdash
1 setlinecap
1 setlinejoin
10.00 setmiterlimit
np
378.85 436.11 m
0 14.17 l
o
np
378.85 450.28 m
42.51 0 l
o
np
463.88 440.96 m
0 9.32 l
o
np
463.88 450.28 m
-42.52 0 l
o
np
435.54 436.11 m
0 4.85 l
o
np
435.54 440.96 m
28.34 0 l
o
np
492.23 436.11 m
0 4.85 l
o
np
492.23 440.96 m
-28.35 0 l
o
24.94 18.00 816.94 577.28 cl
24.94 18.00 816.94 577.28 cl
24.94 18.00 816.94 577.28 cl
24.94 18.00 816.94 577.28 cl
/Font1 findfont 10 s
0 0 0 srgb
232.40 426.17 (F) 0 ta
-0.500 (atty acid biosynthesis ) tb gr
236.30 416.31 (F) 0 ta
-0.500 (atty acid metabolism ) tb gr
336.33 406.45 (Steroid biosynthesis ) 1 0 t
170.72 396.59 (Centr) 0 ta
-0.100 (al carbon metabolism in cancer ) tb gr
244.08 386.73 (Vir) 0 ta
-0.100 (al carcinogenesis ) tb gr
175.71 376.87 (Th) 0 ta
-0.300 (yroid hor) tb
0.250 (mone signaling pathw) tb
-0.150 (a) tb
-0.300 (y ) tb gr
336.33 367.01 (Renal cell carcinoma ) 1 0 t
179.05 357.15 (Bacter) 0 ta
0.150 (ial in) tb
-0.200 (v) tb
-0.250 (asion of epithelial cells ) tb gr
336.33 347.29 (Prostate cancer ) 1 0 t
226.84 337.43 (F) 0 ta
-0.300 (o) tb
-0.300 (xO signaling pathw) tb
-0.150 (a) tb
-0.300 (y ) tb gr
193.49 327.57 (Neurotrophin signaling pathw) 0 ta
-0.150 (a) tb
-0.300 (y ) tb gr
336.33 317.71 (Proteoglycans in cancer ) 1 0 t
336.33 307.85 (Glioma ) 1 0 t
223.51 297.99 (GnRH signaling pathw) 0 ta
-0.150 (a) tb
-0.300 (y ) tb gr
249.06 288.13 (L) 0 ta
-0.300 (ysine degr) tb
-0.100 (adation ) tb gr
336.33 278.27 (Hepatitis B ) 1 0 t
205.99 268.41 (TGF-beta signaling pathw) 0 ta
-0.150 (a) tb
-0.300 (y ) tb gr
229.06 258.55 (ErbB signaling pathw) 0 ta
-0.150 (a) tb
-0.300 (y ) tb gr
336.33 248.69 (Adherens junction ) 1 0 t
246.85 238.84 (P) 0 ta
-0.400 (athw) tb
-0.150 (a) tb
-0.300 (ys in cancer ) tb gr
225.17 228.98 (Hippo signaling pathw) 0 ta
-0.150 (a) tb
-0.300 (y ) tb gr
336.33 219.12 (Endocytosis ) 1 0 t
336.33 209.26 (Colorectal cancer ) 1 0 t
24.94 18.00 816.94 577.28 cl
24.94 18.00 816.94 577.28 cl
24.94 18.00 816.94 577.28 cl
/Font1 findfont 10 s
0 0 0 srgb
382.44 205.08 (miR-34c-5p) 1 90 t
439.13 205.08 (miR-155-5p) 1 90 t
495.82 205.08 (miR-31-5p) 1 90 t
24.94 18.00 816.94 577.28 cl
24.94 18.00 816.94 577.28 cl
24.94 18.00 816.94 577.28 cl
/bg { 0.5569 0.0431 0.7608 srgb } def
339.16 424.83 8.50 9.86 r p2
/bg { 0.7255 0.4314 0.8471 srgb } def
339.16 414.97 8.50 9.86 r p2
/bg { 0.7922 0.5569 0.8824 srgb } def
339.16 405.11 8.50 9.86 r p2
/bg { 0.8588 0.6902 0.9176 srgb } def
339.16 395.25 8.50 9.86 r p2
/bg { 0.8902 0.7490 0.9333 srgb } def
339.16 385.39 8.50 9.86 r p2
/bg { 0.9255 0.8275 0.9569 srgb } def
339.16 375.53 8.50 9.86 r p2
/bg { 0.9412 0.8627 0.9647 srgb } def
339.16 365.67 8.50 9.86 r p2
/bg { 0.9451 0.8706 0.9647 srgb } def
339.16 355.81 8.50 9.86 r p2
/bg { 0.9608 0.9059 0.9765 srgb } def
339.16 345.95 8.50 9.86 r p2
/bg { 0.9608 0.9098 0.9765 srgb } def
339.16 336.09 8.50 9.86 r p2
/bg { 0.9725 0.9373 0.9843 srgb } def
339.16 326.23 8.50 9.86 r p2
/bg { 0.9765 0.9412 0.9843 srgb } def
339.16 316.37 8.50 9.86 r p2
/bg { 0.9765 0.9451 0.9843 srgb } def
339.16 306.51 8.50 9.86 r p2
339.16 296.65 8.50 9.86 r p2
/bg { 0.9765 0.9490 0.9882 srgb } def
339.16 286.79 8.50 9.86 r p2
/bg { 0.9804 0.9569 0.9882 srgb } def
339.16 276.93 8.50 9.86 r p2
/bg { 0.9843 0.9647 0.9922 srgb } def
339.16 267.07 8.50 9.86 r p2
/bg { 0.9882 0.9725 0.9922 srgb } def
339.16 257.21 8.50 9.86 r p2
/bg { 0.9922 0.9804 0.9961 srgb } def
339.16 247.35 8.50 9.86 r p2
/bg { 0.9961 0.9882 0.9961 srgb } def
339.16 237.50 8.50 9.86 r p2
/bg { 0.9961 0.9922 0.9961 srgb } def
339.16 227.64 8.50 9.86 r p2
/bg { 1 0.9961 1 srgb } def
339.16 217.78 8.50 9.86 r p2
/bg { 1 1 1 srgb } def
339.16 207.92 8.50 9.86 r p2
24.94 18.00 816.94 577.28 cl
/Font1 findfont 10 s
0 0 0 srgb
343.41 205.08 (pathw) 0 ta
-0.000 (a) tb
-0.000 (y_p_v) tb
-0.000 (alue) tb gr
24.94 18.00 816.94 577.28 cl
24.94 18.00 816.94 577.28 cl
24.94 18.00 816.94 577.28 cl
24.94 18.00 816.94 577.28 cl
24.94 18.00 816.94 577.28 cl
24.94 18.00 816.94 577.28 cl
24.94 18.00 816.94 577.28 cl
24.94 18.00 816.94 577.28 cl
24.94 18.00 816.94 577.28 cl
24.94 18.00 816.94 577.28 cl
/Font5 findfont 12 s
0 0 0 srgb
526.25 369.21 (-) 0 0 t
/Font1 findfont 12 s
534.50 369.21 (l) 0 0 t
537.16 369.21 (o) 0 0 t
543.84 369.21 (g) 0 0 t
/Font1 findfont 8 s
550.51 367.01 (10) 0 0 t
/Font5 findfont 12 s
559.40 369.21 ( ) 0 0 t
/Font1 findfont 12 s
562.40 369.21 (adjusted) 0 0 t
/Font5 findfont 12 s
607.76 369.21 ( ) 0 0 t
/Font3 findfont 12 s
610.76 369.21 (P) 0 0 t
/Font5 findfont 12 s
618.77 369.21 ( ) 0 0 t
/Font1 findfont 12 s
621.77 369.21 (\(pathw) 0 ta
-0.180 (a) tb
-0.360 (y\)) tb gr
/Font1 findfont 10 s
540.42 324.71 (0) 0 0 t
540.42 341.34 (8) 0 0 t
540.42 355.89 (15) 0 0 t
/bg { 0.5569 0.0431 0.7608 srgb } def
0.5569 0.0431 0.7608 srgb
0.75 setlinewidth
[] 0 setdash
1 setlinecap
1 setlinejoin
10.00 setmiterlimit
526.25 360.38 11.34 0.34 r p3
526.25 360.04 11.34 0.34 r p3
526.25 359.69 11.34 0.34 r p3
526.25 359.35 11.34 0.34 r p3
526.25 359.01 11.34 0.34 r p3
526.25 358.66 11.34 0.34 r p3
526.25 358.32 11.34 0.34 r p3
526.25 357.98 11.34 0.34 r p3
526.25 357.63 11.34 0.34 r p3
526.25 357.29 11.34 0.34 r p3
526.25 356.95 11.34 0.34 r p3
526.25 356.60 11.34 0.34 r p3
526.25 356.26 11.34 0.34 r p3
526.25 355.92 11.34 0.34 r p3
/bg { 0.5647 0.0745 0.7647 srgb } def
0.5647 0.0745 0.7647 srgb
526.25 355.57 11.34 0.34 r p3
/bg { 0.5686 0.1020 0.7686 srgb } def
0.5686 0.1020 0.7686 srgb
526.25 355.23 11.34 0.34 r p3
/bg { 0.5765 0.1216 0.7686 srgb } def
0.5765 0.1216 0.7686 srgb
526.25 354.88 11.34 0.34 r p3
/bg { 0.5843 0.1412 0.7725 srgb } def
0.5843 0.1412 0.7725 srgb
526.25 354.54 11.34 0.34 r p3
/bg { 0.5922 0.1608 0.7765 srgb } def
0.5922 0.1608 0.7765 srgb
526.25 354.20 11.34 0.34 r p3
/bg { 0.6000 0.1765 0.7804 srgb } def
0.6000 0.1765 0.7804 srgb
526.25 353.85 11.34 0.34 r p3
/bg { 0.6039 0.1922 0.7843 srgb } def
0.6039 0.1922 0.7843 srgb
526.25 353.51 11.34 0.34 r p3
/bg { 0.6118 0.2078 0.7882 srgb } def
0.6118 0.2078 0.7882 srgb
526.25 353.17 11.34 0.34 r p3
/bg { 0.6196 0.2235 0.7922 srgb } def
0.6196 0.2235 0.7922 srgb
526.25 352.82 11.34 0.34 r p3
/bg { 0.6235 0.2392 0.7922 srgb } def
0.6235 0.2392 0.7922 srgb
526.25 352.48 11.34 0.34 r p3
/bg { 0.6314 0.2510 0.7961 srgb } def
0.6314 0.2510 0.7961 srgb
526.25 352.14 11.34 0.34 r p3
/bg { 0.6392 0.2667 0.8000 srgb } def
0.6392 0.2667 0.8000 srgb
526.25 351.79 11.34 0.34 r p3
/bg { 0.6471 0.2784 0.8039 srgb } def
0.6471 0.2784 0.8039 srgb
526.25 351.45 11.34 0.34 r p3
/bg { 0.6510 0.2902 0.8078 srgb } def
0.6510 0.2902 0.8078 srgb
526.25 351.10 11.34 0.34 r p3
/bg { 0.6588 0.3020 0.8118 srgb } def
0.6588 0.3020 0.8118 srgb
526.25 350.76 11.34 0.34 r p3
/bg { 0.6667 0.3176 0.8157 srgb } def
0.6667 0.3176 0.8157 srgb
526.25 350.42 11.34 0.34 r p3
/bg { 0.6706 0.3294 0.8157 srgb } def
0.6706 0.3294 0.8157 srgb
526.25 350.07 11.34 0.34 r p3
/bg { 0.6784 0.3412 0.8196 srgb } def
0.6784 0.3412 0.8196 srgb
526.25 349.73 11.34 0.34 r p3
/bg { 0.6824 0.3529 0.8235 srgb } def
0.6824 0.3529 0.8235 srgb
526.25 349.39 11.34 0.34 r p3
/bg { 0.6902 0.3647 0.8275 srgb } def
0.6902 0.3647 0.8275 srgb
526.25 349.04 11.34 0.34 r p3
/bg { 0.6980 0.3765 0.8314 srgb } def
0.6980 0.3765 0.8314 srgb
526.25 348.70 11.34 0.34 r p3
/bg { 0.7020 0.3882 0.8353 srgb } def
0.7020 0.3882 0.8353 srgb
526.25 348.36 11.34 0.34 r p3
/bg { 0.7098 0.4000 0.8353 srgb } def
0.7098 0.4000 0.8353 srgb
526.25 348.01 11.34 0.34 r p3
/bg { 0.7137 0.4118 0.8392 srgb } def
0.7137 0.4118 0.8392 srgb
526.25 347.67 11.34 0.34 r p3
/bg { 0.7216 0.4235 0.8431 srgb } def
0.7216 0.4235 0.8431 srgb
526.25 347.33 11.34 0.34 r p3
/bg { 0.7294 0.4353 0.8471 srgb } def
0.7294 0.4353 0.8471 srgb
526.25 346.98 11.34 0.34 r p3
/bg { 0.7333 0.4471 0.8510 srgb } def
0.7333 0.4471 0.8510 srgb
526.25 346.64 11.34 0.34 r p3
/bg { 0.7412 0.4549 0.8510 srgb } def
0.7412 0.4549 0.8510 srgb
526.25 346.29 11.34 0.34 r p3
/bg { 0.7451 0.4667 0.8549 srgb } def
0.7451 0.4667 0.8549 srgb
526.25 345.95 11.34 0.34 r p3
/bg { 0.7529 0.4784 0.8588 srgb } def
0.7529 0.4784 0.8588 srgb
526.25 345.61 11.34 0.34 r p3
/bg { 0.7569 0.4902 0.8627 srgb } def
0.7569 0.4902 0.8627 srgb
526.25 345.26 11.34 0.34 r p3
/bg { 0.7647 0.5020 0.8667 srgb } def
0.7647 0.5020 0.8667 srgb
526.25 344.92 11.34 0.34 r p3
/bg { 0.7686 0.5137 0.8667 srgb } def
0.7686 0.5137 0.8667 srgb
526.25 344.58 11.34 0.34 r p3
/bg { 0.7765 0.5255 0.8706 srgb } def
0.7765 0.5255 0.8706 srgb
526.25 344.23 11.34 0.34 r p3
/bg { 0.7804 0.5333 0.8745 srgb } def
0.7804 0.5333 0.8745 srgb
526.25 343.89 11.34 0.34 r p3
/bg { 0.7882 0.5451 0.8784 srgb } def
0.7882 0.5451 0.8784 srgb
526.25 343.55 11.34 0.34 r p3
/bg { 0.7922 0.5569 0.8824 srgb } def
0.7922 0.5569 0.8824 srgb
526.25 343.20 11.34 0.34 r p3
/bg { 0.8000 0.5686 0.8863 srgb } def
0.8000 0.5686 0.8863 srgb
526.25 342.86 11.34 0.34 r p3
/bg { 0.8039 0.5804 0.8863 srgb } def
0.8039 0.5804 0.8863 srgb
526.25 342.51 11.34 0.34 r p3
/bg { 0.8118 0.5922 0.8902 srgb } def
0.8118 0.5922 0.8902 srgb
526.25 342.17 11.34 0.34 r p3
/bg { 0.8157 0.6039 0.8941 srgb } def
0.8157 0.6039 0.8941 srgb
526.25 341.83 11.34 0.34 r p3
/bg { 0.8235 0.6118 0.8980 srgb } def
0.8235 0.6118 0.8980 srgb
526.25 341.48 11.34 0.34 r p3
/bg { 0.8275 0.6235 0.9020 srgb } def
0.8275 0.6235 0.9020 srgb
526.25 341.14 11.34 0.34 r p3
/bg { 0.8314 0.6353 0.9020 srgb } def
0.8314 0.6353 0.9020 srgb
526.25 340.80 11.34 0.34 r p3
/bg { 0.8392 0.6471 0.9059 srgb } def
0.8392 0.6471 0.9059 srgb
526.25 340.45 11.34 0.34 r p3
/bg { 0.8431 0.6588 0.9098 srgb } def
0.8431 0.6588 0.9098 srgb
526.25 340.11 11.34 0.34 r p3
/bg { 0.8510 0.6706 0.9137 srgb } def
0.8510 0.6706 0.9137 srgb
526.25 339.77 11.34 0.34 r p3
/bg { 0.8549 0.6784 0.9137 srgb } def
0.8549 0.6784 0.9137 srgb
526.25 339.42 11.34 0.34 r p3
/bg { 0.8588 0.6902 0.9176 srgb } def
0.8588 0.6902 0.9176 srgb
526.25 339.08 11.34 0.34 r p3
/bg { 0.8667 0.7020 0.9216 srgb } def
0.8667 0.7020 0.9216 srgb
526.25 338.74 11.34 0.34 r p3
/bg { 0.8706 0.7137 0.9255 srgb } def
0.8706 0.7137 0.9255 srgb
526.25 338.39 11.34 0.34 r p3
/bg { 0.8784 0.7255 0.9294 srgb } def
0.8784 0.7255 0.9294 srgb
526.25 338.05 11.34 0.34 r p3
/bg { 0.8824 0.7373 0.9294 srgb } def
0.8824 0.7373 0.9294 srgb
526.25 337.70 11.34 0.34 r p3
/bg { 0.8863 0.7490 0.9333 srgb } def
0.8863 0.7490 0.9333 srgb
526.25 337.36 11.34 0.34 r p3
/bg { 0.8941 0.7569 0.9373 srgb } def
0.8941 0.7569 0.9373 srgb
526.25 337.02 11.34 0.34 r p3
/bg { 0.8980 0.7686 0.9412 srgb } def
0.8980 0.7686 0.9412 srgb
526.25 336.67 11.34 0.34 r p3
/bg { 0.9020 0.7804 0.9412 srgb } def
0.9020 0.7804 0.9412 srgb
526.25 336.33 11.34 0.34 r p3
/bg { 0.9098 0.7922 0.9451 srgb } def
0.9098 0.7922 0.9451 srgb
526.25 335.99 11.34 0.34 r p3
/bg { 0.9137 0.8039 0.9490 srgb } def
0.9137 0.8039 0.9490 srgb
526.25 335.64 11.34 0.34 r p3
/bg { 0.9176 0.8157 0.9529 srgb } def
0.9176 0.8157 0.9529 srgb
526.25 335.30 11.34 0.34 r p3
/bg { 0.9255 0.8235 0.9569 srgb } def
0.9255 0.8235 0.9569 srgb
526.25 334.96 11.34 0.34 r p3
/bg { 0.9294 0.8353 0.9569 srgb } def
0.9294 0.8353 0.9569 srgb
526.25 334.61 11.34 0.34 r p3
/bg { 0.9333 0.8471 0.9608 srgb } def
0.9333 0.8471 0.9608 srgb
526.25 334.27 11.34 0.34 r p3
/bg { 0.9373 0.8588 0.9647 srgb } def
0.9373 0.8588 0.9647 srgb
526.25 333.93 11.34 0.34 r p3
/bg { 0.9451 0.8706 0.9686 srgb } def
0.9451 0.8706 0.9686 srgb
526.25 333.58 11.34 0.34 r p3
/bg { 0.9490 0.8824 0.9686 srgb } def
0.9490 0.8824 0.9686 srgb
526.25 333.24 11.34 0.34 r p3
/bg { 0.9529 0.8941 0.9725 srgb } def
0.9529 0.8941 0.9725 srgb
526.25 332.89 11.34 0.34 r p3
/bg { 0.9608 0.9020 0.9765 srgb } def
0.9608 0.9020 0.9765 srgb
526.25 332.55 11.34 0.34 r p3
/bg { 0.9647 0.9137 0.9804 srgb } def
0.9647 0.9137 0.9804 srgb
526.25 332.21 11.34 0.34 r p3
/bg { 0.9686 0.9255 0.9804 srgb } def
0.9686 0.9255 0.9804 srgb
526.25 331.86 11.34 0.34 r p3
/bg { 0.9725 0.9373 0.9843 srgb } def
0.9725 0.9373 0.9843 srgb
526.25 331.52 11.34 0.34 r p3
/bg { 0.9804 0.9490 0.9882 srgb } def
0.9804 0.9490 0.9882 srgb
526.25 331.18 11.34 0.34 r p3
/bg { 0.9843 0.9608 0.9882 srgb } def
0.9843 0.9608 0.9882 srgb
526.25 330.83 11.34 0.34 r p3
/bg { 0.9882 0.9725 0.9922 srgb } def
0.9882 0.9725 0.9922 srgb
526.25 330.49 11.34 0.34 r p3
/bg { 0.9922 0.9843 0.9961 srgb } def
0.9922 0.9843 0.9961 srgb
526.25 330.15 11.34 0.34 r p3
/bg { 0.9961 0.9961 1 srgb } def
0.9961 0.9961 1 srgb
526.25 329.80 11.34 0.34 r p3
/bg { 1 1 1 srgb } def
1 1 1 srgb
526.25 329.46 11.34 0.34 r p3
526.25 329.11 11.34 0.34 r p3
526.25 328.77 11.34 0.34 r p3
526.25 328.43 11.34 0.34 r p3
526.25 328.08 11.34 0.34 r p3
526.25 327.74 11.34 0.34 r p3
526.25 327.40 11.34 0.34 r p3
526.25 327.05 11.34 0.34 r p3
526.25 326.71 11.34 0.34 r p3
np
526.25 328.30 m
2.26 0 l
o
np
526.25 344.93 m
2.26 0 l
o
np
526.25 359.48 m
2.26 0 l
o
np
537.59 328.30 m
-2.27 0 l
o
np
537.59 344.93 m
-2.27 0 l
o
np
537.59 359.48 m
-2.27 0 l
o
24.94 18.00 816.94 577.28 cl
24.94 18.00 816.94 577.28 cl
/Font5 findfont 12 s
0 0 0 srgb
526.25 306.93 (-) 0 0 t
/Font1 findfont 12 s
534.50 306.93 (l) 0 0 t
537.16 306.93 (o) 0 0 t
543.84 306.93 (g) 0 0 t
/Font1 findfont 8 s
550.51 304.73 (10) 0 0 t
/Font5 findfont 12 s
559.40 306.93 ( ) 0 0 t
/Font1 findfont 12 s
562.40 306.93 (adjusted) 0 0 t
/Font5 findfont 12 s
607.76 306.93 ( ) 0 0 t
/Font3 findfont 12 s
610.76 306.93 (P) 0 0 t
/Font1 findfont 10 s
540.42 262.43 (0) 0 0 t
540.42 278.02 (15) 0 0 t
540.42 293.61 (30) 0 0 t
/bg { 0.0824 0.3725 0.3922 srgb } def
0.0824 0.3725 0.3922 srgb
0.75 setlinewidth
[] 0 setdash
1 setlinecap
1 setlinejoin
10.00 setmiterlimit
526.25 298.10 11.34 0.34 r p3
/bg { 0.0902 0.3765 0.4000 srgb } def
0.0902 0.3765 0.4000 srgb
526.25 297.76 11.34 0.34 r p3
/bg { 0.0941 0.3843 0.4039 srgb } def
0.0941 0.3843 0.4039 srgb
526.25 297.42 11.34 0.34 r p3
/bg { 0.1020 0.3882 0.4078 srgb } def
0.1020 0.3882 0.4078 srgb
526.25 297.07 11.34 0.34 r p3
/bg { 0.1059 0.3961 0.4118 srgb } def
0.1059 0.3961 0.4118 srgb
526.25 296.73 11.34 0.34 r p3
/bg { 0.1137 0.4000 0.4157 srgb } def
0.1137 0.4000 0.4157 srgb
526.25 296.38 11.34 0.34 r p3
/bg { 0.1176 0.4078 0.4196 srgb } def
0.1176 0.4078 0.4196 srgb
526.25 296.04 11.34 0.34 r p3
/bg { 0.1216 0.4118 0.4275 srgb } def
0.1216 0.4118 0.4275 srgb
526.25 295.70 11.34 0.34 r p3
/bg { 0.1294 0.4196 0.4314 srgb } def
0.1294 0.4196 0.4314 srgb
526.25 295.35 11.34 0.34 r p3
/bg { 0.1333 0.4235 0.4353 srgb } def
0.1333 0.4235 0.4353 srgb
526.25 295.01 11.34 0.34 r p3
/bg { 0.1412 0.4314 0.4392 srgb } def
0.1412 0.4314 0.4392 srgb
526.25 294.67 11.34 0.34 r p3
/bg { 0.1490 0.4353 0.4431 srgb } def
0.1490 0.4353 0.4431 srgb
526.25 294.32 11.34 0.34 r p3
/bg { 0.1529 0.4431 0.4510 srgb } def
0.1529 0.4431 0.4510 srgb
526.25 293.98 11.34 0.34 r p3
/bg { 0.1608 0.4471 0.4549 srgb } def
0.1608 0.4471 0.4549 srgb
526.25 293.64 11.34 0.34 r p3
/bg { 0.1647 0.4549 0.4588 srgb } def
0.1647 0.4549 0.4588 srgb
526.25 293.29 11.34 0.34 r p3
/bg { 0.1725 0.4627 0.4627 srgb } def
0.1725 0.4627 0.4627 srgb
526.25 292.95 11.34 0.34 r p3
/bg { 0.1765 0.4667 0.4706 srgb } def
0.1765 0.4667 0.4706 srgb
526.25 292.60 11.34 0.34 r p3
/bg { 0.1843 0.4745 0.4745 srgb } def
0.1843 0.4745 0.4745 srgb
526.25 292.26 11.34 0.34 r p3
/bg { 0.1882 0.4784 0.4784 srgb } def
0.1882 0.4784 0.4784 srgb
526.25 291.92 11.34 0.34 r p3
/bg { 0.1961 0.4863 0.4824 srgb } def
0.1961 0.4863 0.4824 srgb
526.25 291.57 11.34 0.34 r p3
/bg { 0.2000 0.4902 0.4902 srgb } def
0.2000 0.4902 0.4902 srgb
526.25 291.23 11.34 0.34 r p3
/bg { 0.2078 0.4980 0.4941 srgb } def
0.2078 0.4980 0.4941 srgb
526.25 290.89 11.34 0.34 r p3
/bg { 0.2157 0.5020 0.4980 srgb } def
0.2157 0.5020 0.4980 srgb
526.25 290.54 11.34 0.34 r p3
/bg { 0.2196 0.5098 0.5059 srgb } def
0.2196 0.5098 0.5059 srgb
526.25 290.20 11.34 0.34 r p3
/bg { 0.2275 0.5137 0.5098 srgb } def
0.2275 0.5137 0.5098 srgb
526.25 289.86 11.34 0.34 r p3
/bg { 0.2353 0.5216 0.5137 srgb } def
0.2353 0.5216 0.5137 srgb
526.25 289.51 11.34 0.34 r p3
/bg { 0.2431 0.5255 0.5216 srgb } def
0.2431 0.5255 0.5216 srgb
526.25 289.17 11.34 0.34 r p3
/bg { 0.2471 0.5333 0.5255 srgb } def
0.2471 0.5333 0.5255 srgb
526.25 288.83 11.34 0.34 r p3
/bg { 0.2549 0.5373 0.5294 srgb } def
0.2549 0.5373 0.5294 srgb
526.25 288.48 11.34 0.34 r p3
/bg { 0.2627 0.5451 0.5373 srgb } def
0.2627 0.5451 0.5373 srgb
526.25 288.14 11.34 0.34 r p3
/bg { 0.2706 0.5490 0.5412 srgb } def
0.2706 0.5490 0.5412 srgb
526.25 287.79 11.34 0.34 r p3
/bg { 0.2745 0.5569 0.5451 srgb } def
0.2745 0.5569 0.5451 srgb
526.25 287.45 11.34 0.34 r p3
/bg { 0.2824 0.5608 0.5490 srgb } def
0.2824 0.5608 0.5490 srgb
526.25 287.11 11.34 0.34 r p3
/bg { 0.2902 0.5686 0.5569 srgb } def
0.2902 0.5686 0.5569 srgb
526.25 286.76 11.34 0.34 r p3
/bg { 0.2941 0.5725 0.5608 srgb } def
0.2941 0.5725 0.5608 srgb
526.25 286.42 11.34 0.34 r p3
/bg { 0.3020 0.5804 0.5647 srgb } def
0.3020 0.5804 0.5647 srgb
526.25 286.08 11.34 0.34 r p3
/bg { 0.3098 0.5843 0.5725 srgb } def
0.3098 0.5843 0.5725 srgb
526.25 285.73 11.34 0.34 r p3
/bg { 0.3176 0.5922 0.5765 srgb } def
0.3176 0.5922 0.5765 srgb
526.25 285.39 11.34 0.34 r p3
/bg { 0.3255 0.5961 0.5804 srgb } def
0.3255 0.5961 0.5804 srgb
526.25 285.05 11.34 0.34 r p3
/bg { 0.3333 0.6039 0.5882 srgb } def
0.3333 0.6039 0.5882 srgb
526.25 284.70 11.34 0.34 r p3
/bg { 0.3412 0.6118 0.5922 srgb } def
0.3412 0.6118 0.5922 srgb
526.25 284.36 11.34 0.34 r p3
/bg { 0.3451 0.6157 0.5961 srgb } def
0.3451 0.6157 0.5961 srgb
526.25 284.01 11.34 0.34 r p3
/bg { 0.3529 0.6235 0.6039 srgb } def
0.3529 0.6235 0.6039 srgb
526.25 283.67 11.34 0.34 r p3
/bg { 0.3608 0.6275 0.6078 srgb } def
0.3608 0.6275 0.6078 srgb
526.25 283.33 11.34 0.34 r p3
/bg { 0.3686 0.6353 0.6118 srgb } def
0.3686 0.6353 0.6118 srgb
526.25 282.98 11.34 0.34 r p3
/bg { 0.3765 0.6392 0.6196 srgb } def
0.3765 0.6392 0.6196 srgb
526.25 282.64 11.34 0.34 r p3
/bg { 0.3843 0.6471 0.6235 srgb } def
0.3843 0.6471 0.6235 srgb
526.25 282.30 11.34 0.34 r p3
/bg { 0.3922 0.6510 0.6275 srgb } def
0.3922 0.6510 0.6275 srgb
526.25 281.95 11.34 0.34 r p3
/bg { 0.4000 0.6588 0.6353 srgb } def
0.4000 0.6588 0.6353 srgb
526.25 281.61 11.34 0.34 r p3
/bg { 0.4078 0.6627 0.6392 srgb } def
0.4078 0.6627 0.6392 srgb
526.25 281.27 11.34 0.34 r p3
/bg { 0.4157 0.6706 0.6431 srgb } def
0.4157 0.6706 0.6431 srgb
526.25 280.92 11.34 0.34 r p3
/bg { 0.4275 0.6745 0.6471 srgb } def
0.4275 0.6745 0.6471 srgb
526.25 280.58 11.34 0.34 r p3
/bg { 0.4353 0.6824 0.6549 srgb } def
0.4353 0.6824 0.6549 srgb
526.25 280.24 11.34 0.34 r p3
/bg { 0.4431 0.6863 0.6588 srgb } def
0.4431 0.6863 0.6588 srgb
526.25 279.89 11.34 0.34 r p3
/bg { 0.4510 0.6941 0.6627 srgb } def
0.4510 0.6941 0.6627 srgb
526.25 279.55 11.34 0.34 r p3
/bg { 0.4588 0.6980 0.6667 srgb } def
0.4588 0.6980 0.6667 srgb
526.25 279.20 11.34 0.34 r p3
/bg { 0.4667 0.7059 0.6745 srgb } def
0.4667 0.7059 0.6745 srgb
526.25 278.86 11.34 0.34 r p3
/bg { 0.4784 0.7098 0.6784 srgb } def
0.4784 0.7098 0.6784 srgb
526.25 278.52 11.34 0.34 r p3
/bg { 0.4863 0.7176 0.6824 srgb } def
0.4863 0.7176 0.6824 srgb
526.25 278.17 11.34 0.34 r p3
/bg { 0.4941 0.7216 0.6863 srgb } def
0.4941 0.7216 0.6863 srgb
526.25 277.83 11.34 0.34 r p3
/bg { 0.5020 0.7294 0.6941 srgb } def
0.5020 0.7294 0.6941 srgb
526.25 277.49 11.34 0.34 r p3
/bg { 0.5137 0.7333 0.6980 srgb } def
0.5137 0.7333 0.6980 srgb
526.25 277.14 11.34 0.34 r p3
/bg { 0.5216 0.7412 0.7020 srgb } def
0.5216 0.7412 0.7020 srgb
526.25 276.80 11.34 0.34 r p3
/bg { 0.5294 0.7451 0.7098 srgb } def
0.5294 0.7451 0.7098 srgb
526.25 276.46 11.34 0.34 r p3
/bg { 0.5412 0.7529 0.7137 srgb } def
0.5412 0.7529 0.7137 srgb
526.25 276.11 11.34 0.34 r p3
/bg { 0.5490 0.7569 0.7176 srgb } def
0.5490 0.7569 0.7176 srgb
526.25 275.77 11.34 0.34 r p3
/bg { 0.5608 0.7647 0.7255 srgb } def
0.5608 0.7647 0.7255 srgb
526.25 275.43 11.34 0.34 r p3
/bg { 0.5686 0.7686 0.7294 srgb } def
0.5686 0.7686 0.7294 srgb
526.25 275.08 11.34 0.34 r p3
/bg { 0.5804 0.7765 0.7333 srgb } def
0.5804 0.7765 0.7333 srgb
526.25 274.74 11.34 0.34 r p3
/bg { 0.5882 0.7804 0.7412 srgb } def
0.5882 0.7804 0.7412 srgb
526.25 274.39 11.34 0.34 r p3
/bg { 0.5961 0.7882 0.7451 srgb } def
0.5961 0.7882 0.7451 srgb
526.25 274.05 11.34 0.34 r p3
/bg { 0.6078 0.7922 0.7490 srgb } def
0.6078 0.7922 0.7490 srgb
526.25 273.71 11.34 0.34 r p3
/bg { 0.6157 0.7961 0.7569 srgb } def
0.6157 0.7961 0.7569 srgb
526.25 273.36 11.34 0.34 r p3
/bg { 0.6275 0.8039 0.7608 srgb } def
0.6275 0.8039 0.7608 srgb
526.25 273.02 11.34 0.34 r p3
/bg { 0.6353 0.8078 0.7647 srgb } def
0.6353 0.8078 0.7647 srgb
526.25 272.68 11.34 0.34 r p3
/bg { 0.6471 0.8157 0.7686 srgb } def
0.6471 0.8157 0.7686 srgb
526.25 272.33 11.34 0.34 r p3
/bg { 0.6588 0.8196 0.7765 srgb } def
0.6588 0.8196 0.7765 srgb
526.25 271.99 11.34 0.34 r p3
/bg { 0.6667 0.8275 0.7804 srgb } def
0.6667 0.8275 0.7804 srgb
526.25 271.65 11.34 0.34 r p3
/bg { 0.6784 0.8314 0.7843 srgb } def
0.6784 0.8314 0.7843 srgb
526.25 271.30 11.34 0.34 r p3
/bg { 0.6902 0.8392 0.7882 srgb } def
0.6902 0.8392 0.7882 srgb
526.25 270.96 11.34 0.34 r p3
/bg { 0.6980 0.8431 0.7961 srgb } def
0.6980 0.8431 0.7961 srgb
526.25 270.61 11.34 0.34 r p3
/bg { 0.7098 0.8510 0.8000 srgb } def
0.7098 0.8510 0.8000 srgb
526.25 270.27 11.34 0.34 r p3
/bg { 0.7216 0.8549 0.8039 srgb } def
0.7216 0.8549 0.8039 srgb
526.25 269.93 11.34 0.34 r p3
/bg { 0.7294 0.8627 0.8078 srgb } def
0.7294 0.8627 0.8078 srgb
526.25 269.58 11.34 0.34 r p3
/bg { 0.7412 0.8667 0.8157 srgb } def
0.7412 0.8667 0.8157 srgb
526.25 269.24 11.34 0.34 r p3
/bg { 0.7529 0.8745 0.8196 srgb } def
0.7529 0.8745 0.8196 srgb
526.25 268.90 11.34 0.34 r p3
/bg { 0.7608 0.8784 0.8235 srgb } def
0.7608 0.8784 0.8235 srgb
526.25 268.55 11.34 0.34 r p3
/bg { 0.7725 0.8863 0.8275 srgb } def
0.7725 0.8863 0.8275 srgb
526.25 268.21 11.34 0.34 r p3
/bg { 0.7843 0.8902 0.8353 srgb } def
0.7843 0.8902 0.8353 srgb
526.25 267.87 11.34 0.34 r p3
/bg { 0.7961 0.8941 0.8392 srgb } def
0.7961 0.8941 0.8392 srgb
526.25 267.52 11.34 0.34 r p3
/bg { 0.8078 0.9020 0.8431 srgb } def
0.8078 0.9020 0.8431 srgb
526.25 267.18 11.34 0.34 r p3
/bg { 0.8157 0.9059 0.8471 srgb } def
0.8157 0.9059 0.8471 srgb
526.25 266.84 11.34 0.34 r p3
/bg { 0.8275 0.9137 0.8510 srgb } def
0.8275 0.9137 0.8510 srgb
526.25 266.49 11.34 0.34 r p3
/bg { 0.8392 0.9176 0.8588 srgb } def
0.8392 0.9176 0.8588 srgb
526.25 266.15 11.34 0.34 r p3
/bg { 0.8510 0.9216 0.8627 srgb } def
0.8510 0.9216 0.8627 srgb
526.25 265.80 11.34 0.34 r p3
/bg { 0.8627 0.9294 0.8667 srgb } def
0.8627 0.9294 0.8667 srgb
526.25 265.46 11.34 0.34 r p3
/bg { 0.8706 0.9333 0.8706 srgb } def
0.8706 0.9333 0.8706 srgb
526.25 265.12 11.34 0.34 r p3
/bg { 0.8824 0.9412 0.8784 srgb } def
0.8824 0.9412 0.8784 srgb
526.25 264.77 11.34 0.34 r p3
/bg { 0.8941 0.9451 0.8824 srgb } def
0.8941 0.9451 0.8824 srgb
526.25 264.43 11.34 0.34 r p3
1 1 1 srgb
np
526.25 266.02 m
2.26 0 l
o
np
526.25 281.61 m
2.26 0 l
o
np
526.25 297.20 m
2.26 0 l
o
np
537.59 266.02 m
-2.27 0 l
o
np
537.59 281.61 m
-2.27 0 l
o
np
537.59 297.20 m
-2.27 0 l
o
24.94 18.00 816.94 577.28 cl
24.94 18.00 816.94 577.28 cl
24.94 18.00 816.94 577.28 cl
24.94 18.00 816.94 577.28 cl
24.94 18.00 816.94 577.28 cl
24.94 18.00 816.94 577.28 cl
24.94 18.00 816.94 577.28 cl
ep
%%Trailer
%%Pages: 1
%%EOF
