%!PS-Adobe-3.0
%%DocumentNeededResources: font Helvetica
%%+ font Helvetica-Bold
%%+ font Helvetica-Oblique
%%+ font Helvetica-BoldOblique
%%+ font Symbol
%%DocumentMedia: a4 595 841 0 () ()
%%Title: R Graphics Output
%%Creator: R Software
%%Pages: (atend)
%%Orientation: Landscape
%%BoundingBox: 18 25 577 817
%%EndComments
%%BeginProlog
/bp  { gs sRGB 595.00 0 translate 90 rotate gs } def
% begin .ps.prolog
/gs  { gsave } bind def
/gr  { grestore } bind def
/ep  { showpage gr gr } bind def
/m   { moveto } bind def
/l  { rlineto } bind def
/np  { newpath } bind def
/cp  { closepath } bind def
/f   { fill } bind def
/o   { stroke } bind def
/c   { newpath 0 360 arc } bind def
/r   { 4 2 roll moveto 1 copy 3 -1 roll exch 0 exch rlineto 0 rlineto -1 mul 0 exch rlineto closepath } bind def
/p1  { stroke } bind def
/p2  { gsave bg fill grestore newpath } bind def
/p3  { gsave bg fill grestore stroke } bind def
/p6  { gsave bg eofill grestore newpath } bind def
/p7  { gsave bg eofill grestore stroke } bind def
/t   { 5 -2 roll moveto gsave rotate
       1 index stringwidth pop
       mul neg 0 rmoveto show grestore } bind def
/ta  { 4 -2 roll moveto gsave rotate show } bind def
/tb  { 2 -1 roll 0 rmoveto show } bind def
/cl  { grestore gsave newpath 3 index 3 index moveto 1 index
       4 -1 roll lineto  exch 1 index lineto lineto
       closepath clip newpath } bind def
/rgb { setrgbcolor } bind def
/s   { scalefont setfont } bind def
% end   .ps.prolog
/sRGB { [ /CIEBasedABC
          << /DecodeLMN
               [ { dup 0.03928 le
                        {12.92321 div}
                        {0.055 add 1.055 div 2.4 exp }
                     ifelse
                 } bind dup dup
               ]
             /MatrixLMN [0.412457 0.212673 0.019334
                         0.357576 0.715152 0.119192
                         0.180437 0.072175 0.950301]
             /WhitePoint [0.9505 1.0 1.0890]
           >>
         ] setcolorspace } bind def
/srgb { setcolor } bind def
%%IncludeResource: font Helvetica
/Helvetica findfont
dup length dict begin
  {1 index /FID ne {def} {pop pop} ifelse} forall
  /Encoding ISOLatin1Encoding def
  currentdict
  end
/Font1 exch definefont pop
%%IncludeResource: font Helvetica-Bold
/Helvetica-Bold findfont
dup length dict begin
  {1 index /FID ne {def} {pop pop} ifelse} forall
  /Encoding ISOLatin1Encoding def
  currentdict
  end
/Font2 exch definefont pop
%%IncludeResource: font Helvetica-Oblique
/Helvetica-Oblique findfont
dup length dict begin
  {1 index /FID ne {def} {pop pop} ifelse} forall
  /Encoding ISOLatin1Encoding def
  currentdict
  end
/Font3 exch definefont pop
%%IncludeResource: font Helvetica-BoldOblique
/Helvetica-BoldOblique findfont
dup length dict begin
  {1 index /FID ne {def} {pop pop} ifelse} forall
  /Encoding ISOLatin1Encoding def
  currentdict
  end
/Font4 exch definefont pop
%%IncludeResource: font Symbol
/Symbol findfont
dup length dict begin
  {1 index /FID ne {def} {pop pop} ifelse} forall
  currentdict
  end
/Font5 exch definefont pop
%%EndProlog
%%Page: 1 1
bp
24.94 18.00 816.94 577.28 cl
24.94 18.00 816.94 577.28 cl
/bg { 0.8941 0.9451 0.8824 srgb } def
397.54 340.38 10.63 11.34 r p2
397.54 329.04 10.63 11.34 r p2
397.54 317.70 10.63 11.34 r p2
/bg { 0.5922 0.7843 0.7412 srgb } def
397.54 306.36 10.63 11.34 r p2
/bg { 0.3922 0.6510 0.6275 srgb } def
397.54 295.03 10.63 11.34 r p2
/bg { 0.8941 0.9451 0.8824 srgb } def
408.17 340.38 10.63 11.34 r p2
408.17 329.04 10.63 11.34 r p2
/bg { 0.5843 0.7765 0.7373 srgb } def
408.17 317.70 10.63 11.34 r p2
/bg { 0.8941 0.9451 0.8824 srgb } def
408.17 306.36 10.63 11.34 r p2
/bg { 0.5725 0.7725 0.7294 srgb } def
408.17 295.03 10.63 11.34 r p2
/bg { 0.8941 0.9451 0.8824 srgb } def
418.80 340.38 10.63 11.34 r p2
418.80 329.04 10.63 11.34 r p2
/bg { 0.6039 0.7922 0.7490 srgb } def
418.80 317.70 10.63 11.34 r p2
418.80 306.36 10.63 11.34 r p2
/bg { 0.8941 0.9451 0.8824 srgb } def
418.80 295.03 10.63 11.34 r p2
/bg { 0.0510 0.3451 0.3725 srgb } def
429.43 340.38 10.63 11.34 r p2
/bg { 0.1765 0.4627 0.4667 srgb } def
429.43 329.04 10.63 11.34 r p2
/bg { 0.8941 0.9451 0.8824 srgb } def
429.43 317.70 10.63 11.34 r p2
429.43 306.36 10.63 11.34 r p2
429.43 295.03 10.63 11.34 r p2
24.94 18.00 816.94 577.28 cl
24.94 18.00 816.94 577.28 cl
/Font1 findfont 8 s
0 0 0 srgb
383.37 343.18 (Steroid biosynthesis ) 1 0 t
275.77 331.84 (Steroid hor) 0 ta
0.200 (mone biosynthesis ) tb gr
290.23 320.50 (ECM-receptor inter) 0 ta
-0.080 (action ) tb gr
383.37 309.16 (Cell adhesion molecules ) 1 0 t
383.37 297.82 (GABAergic synapse ) 1 0 t
24.94 18.00 816.94 577.28 cl
24.94 18.00 816.94 577.28 cl
24.94 18.00 816.94 577.28 cl
/Font1 findfont 8 s
0 0 0 srgb
405.73 292.19 (miR-878-5p) 1 90 t
416.36 292.19 (miR-871-3p) 1 90 t
426.99 292.19 (miR-34c-5p) 1 90 t
437.62 292.19 (miR-31-5p) 1 90 t
24.94 18.00 816.94 577.28 cl
24.94 18.00 816.94 577.28 cl
24.94 18.00 816.94 577.28 cl
/bg { 0.5569 0.0431 0.7608 srgb } def
386.20 340.38 8.50 11.34 r p2
/bg { 0.7412 0.4549 0.8510 srgb } def
386.20 329.04 8.50 11.34 r p2
/bg { 0.7843 0.5412 0.8784 srgb } def
386.20 317.70 8.50 11.34 r p2
/bg { 0.9529 0.8902 0.9725 srgb } def
386.20 306.36 8.50 11.34 r p2
/bg { 1 1 1 srgb } def
386.20 295.03 8.50 11.34 r p2
24.94 18.00 816.94 577.28 cl
/Font1 findfont 10 s
0 0 0 srgb
390.46 292.19 (pathw) 0 ta
-0.000 (a) tb
-0.000 (y_p_v) tb
-0.000 (alue) tb gr
24.94 18.00 816.94 577.28 cl
24.94 18.00 816.94 577.28 cl
24.94 18.00 816.94 577.28 cl
24.94 18.00 816.94 577.28 cl
24.94 18.00 816.94 577.28 cl
24.94 18.00 816.94 577.28 cl
24.94 18.00 816.94 577.28 cl
24.94 18.00 816.94 577.28 cl
24.94 18.00 816.94 577.28 cl
24.94 18.00 816.94 577.28 cl
/Font5 findfont 10 s
0 0 0 srgb
445.73 345.12 (-) 0 0 t
/Font1 findfont 10 s
452.61 345.12 (l) 0 0 t
454.83 345.12 (o) 0 0 t
460.39 345.12 (g) 0 0 t
/Font1 findfont 7 s
465.95 343.29 (10) 0 0 t
/Font5 findfont 10 s
473.73 345.12 ( ) 0 0 t
/Font1 findfont 10 s
476.23 345.12 (adjusted) 0 0 t
/Font5 findfont 10 s
514.03 345.12 ( ) 0 0 t
/Font3 findfont 10 s
516.53 345.12 (P) 0 0 t
/Font5 findfont 10 s
523.20 345.12 ( ) 0 0 t
/Font1 findfont 10 s
525.70 345.12 (\(pathw) 0 ta
-0.150 (a) tb
-0.300 (y\)) tb gr
/Font1 findfont 8 s
459.91 301.78 (1) 0 0 t
459.91 317.37 (3) 0 0 t
459.91 332.96 (5) 0 0 t
/bg { 0.5569 0.0431 0.7608 srgb } def
0.5569 0.0431 0.7608 srgb
0.75 setlinewidth
[] 0 setdash
1 setlinecap
1 setlinejoin
10.00 setmiterlimit
445.73 336.73 11.34 0.34 r p3
445.73 336.39 11.34 0.34 r p3
445.73 336.05 11.34 0.34 r p3
445.73 335.70 11.34 0.34 r p3
445.73 335.36 11.34 0.34 r p3
445.73 335.01 11.34 0.34 r p3
445.73 334.67 11.34 0.34 r p3
445.73 334.33 11.34 0.34 r p3
445.73 333.98 11.34 0.34 r p3
445.73 333.64 11.34 0.34 r p3
445.73 333.30 11.34 0.34 r p3
445.73 332.95 11.34 0.34 r p3
445.73 332.61 11.34 0.34 r p3
445.73 332.27 11.34 0.34 r p3
445.73 331.92 11.34 0.34 r p3
445.73 331.58 11.34 0.34 r p3
445.73 331.23 11.34 0.34 r p3
445.73 330.89 11.34 0.34 r p3
445.73 330.55 11.34 0.34 r p3
445.73 330.20 11.34 0.34 r p3
445.73 329.86 11.34 0.34 r p3
/bg { 0.5569 0.0510 0.7608 srgb } def
0.5569 0.0510 0.7608 srgb
445.73 329.52 11.34 0.34 r p3
/bg { 0.5686 0.0902 0.7647 srgb } def
0.5686 0.0902 0.7647 srgb
445.73 329.17 11.34 0.34 r p3
/bg { 0.5765 0.1176 0.7686 srgb } def
0.5765 0.1176 0.7686 srgb
445.73 328.83 11.34 0.34 r p3
/bg { 0.5843 0.1412 0.7725 srgb } def
0.5843 0.1412 0.7725 srgb
445.73 328.49 11.34 0.34 r p3
/bg { 0.5922 0.1647 0.7765 srgb } def
0.5922 0.1647 0.7765 srgb
445.73 328.14 11.34 0.34 r p3
/bg { 0.6000 0.1843 0.7804 srgb } def
0.6000 0.1843 0.7804 srgb
445.73 327.80 11.34 0.34 r p3
/bg { 0.6078 0.2039 0.7843 srgb } def
0.6078 0.2039 0.7843 srgb
445.73 327.46 11.34 0.34 r p3
/bg { 0.6157 0.2196 0.7882 srgb } def
0.6157 0.2196 0.7882 srgb
445.73 327.11 11.34 0.34 r p3
/bg { 0.6275 0.2392 0.7922 srgb } def
0.6275 0.2392 0.7922 srgb
445.73 326.77 11.34 0.34 r p3
/bg { 0.6353 0.2549 0.8000 srgb } def
0.6353 0.2549 0.8000 srgb
445.73 326.42 11.34 0.34 r p3
/bg { 0.6431 0.2706 0.8039 srgb } def
0.6431 0.2706 0.8039 srgb
445.73 326.08 11.34 0.34 r p3
/bg { 0.6510 0.2863 0.8078 srgb } def
0.6510 0.2863 0.8078 srgb
445.73 325.74 11.34 0.34 r p3
/bg { 0.6588 0.3020 0.8118 srgb } def
0.6588 0.3020 0.8118 srgb
445.73 325.39 11.34 0.34 r p3
/bg { 0.6667 0.3176 0.8157 srgb } def
0.6667 0.3176 0.8157 srgb
445.73 325.05 11.34 0.34 r p3
/bg { 0.6745 0.3333 0.8196 srgb } def
0.6745 0.3333 0.8196 srgb
445.73 324.71 11.34 0.34 r p3
/bg { 0.6824 0.3451 0.8235 srgb } def
0.6824 0.3451 0.8235 srgb
445.73 324.36 11.34 0.34 r p3
/bg { 0.6902 0.3608 0.8275 srgb } def
0.6902 0.3608 0.8275 srgb
445.73 324.02 11.34 0.34 r p3
/bg { 0.6980 0.3765 0.8314 srgb } def
0.6980 0.3765 0.8314 srgb
445.73 323.68 11.34 0.34 r p3
/bg { 0.7020 0.3882 0.8353 srgb } def
0.7020 0.3882 0.8353 srgb
445.73 323.33 11.34 0.34 r p3
/bg { 0.7098 0.4039 0.8392 srgb } def
0.7098 0.4039 0.8392 srgb
445.73 322.99 11.34 0.34 r p3
/bg { 0.7176 0.4157 0.8431 srgb } def
0.7176 0.4157 0.8431 srgb
445.73 322.65 11.34 0.34 r p3
/bg { 0.7255 0.4314 0.8471 srgb } def
0.7255 0.4314 0.8471 srgb
445.73 322.30 11.34 0.34 r p3
/bg { 0.7333 0.4431 0.8510 srgb } def
0.7333 0.4431 0.8510 srgb
445.73 321.96 11.34 0.34 r p3
/bg { 0.7412 0.4588 0.8549 srgb } def
0.7412 0.4588 0.8549 srgb
445.73 321.61 11.34 0.34 r p3
/bg { 0.7490 0.4706 0.8588 srgb } def
0.7490 0.4706 0.8588 srgb
445.73 321.27 11.34 0.34 r p3
/bg { 0.7569 0.4863 0.8627 srgb } def
0.7569 0.4863 0.8627 srgb
445.73 320.93 11.34 0.34 r p3
/bg { 0.7608 0.4980 0.8627 srgb } def
0.7608 0.4980 0.8627 srgb
445.73 320.58 11.34 0.34 r p3
/bg { 0.7686 0.5137 0.8667 srgb } def
0.7686 0.5137 0.8667 srgb
445.73 320.24 11.34 0.34 r p3
/bg { 0.7765 0.5255 0.8706 srgb } def
0.7765 0.5255 0.8706 srgb
445.73 319.90 11.34 0.34 r p3
/bg { 0.7843 0.5373 0.8745 srgb } def
0.7843 0.5373 0.8745 srgb
445.73 319.55 11.34 0.34 r p3
/bg { 0.7922 0.5529 0.8784 srgb } def
0.7922 0.5529 0.8784 srgb
445.73 319.21 11.34 0.34 r p3
/bg { 0.7961 0.5647 0.8824 srgb } def
0.7961 0.5647 0.8824 srgb
445.73 318.87 11.34 0.34 r p3
/bg { 0.8039 0.5804 0.8863 srgb } def
0.8039 0.5804 0.8863 srgb
445.73 318.52 11.34 0.34 r p3
/bg { 0.8118 0.5922 0.8902 srgb } def
0.8118 0.5922 0.8902 srgb
445.73 318.18 11.34 0.34 r p3
/bg { 0.8196 0.6078 0.8941 srgb } def
0.8196 0.6078 0.8941 srgb
445.73 317.83 11.34 0.34 r p3
/bg { 0.8235 0.6196 0.8980 srgb } def
0.8235 0.6196 0.8980 srgb
445.73 317.49 11.34 0.34 r p3
/bg { 0.8314 0.6314 0.9020 srgb } def
0.8314 0.6314 0.9020 srgb
445.73 317.15 11.34 0.34 r p3
/bg { 0.8392 0.6471 0.9059 srgb } def
0.8392 0.6471 0.9059 srgb
445.73 316.80 11.34 0.34 r p3
/bg { 0.8431 0.6588 0.9098 srgb } def
0.8431 0.6588 0.9098 srgb
445.73 316.46 11.34 0.34 r p3
/bg { 0.8510 0.6706 0.9137 srgb } def
0.8510 0.6706 0.9137 srgb
445.73 316.12 11.34 0.34 r p3
/bg { 0.8588 0.6863 0.9176 srgb } def
0.8588 0.6863 0.9176 srgb
445.73 315.77 11.34 0.34 r p3
/bg { 0.8627 0.6980 0.9216 srgb } def
0.8627 0.6980 0.9216 srgb
445.73 315.43 11.34 0.34 r p3
/bg { 0.8706 0.7137 0.9255 srgb } def
0.8706 0.7137 0.9255 srgb
445.73 315.09 11.34 0.34 r p3
/bg { 0.8784 0.7255 0.9294 srgb } def
0.8784 0.7255 0.9294 srgb
445.73 314.74 11.34 0.34 r p3
/bg { 0.8824 0.7373 0.9333 srgb } def
0.8824 0.7373 0.9333 srgb
445.73 314.40 11.34 0.34 r p3
/bg { 0.8902 0.7529 0.9373 srgb } def
0.8902 0.7529 0.9373 srgb
445.73 314.06 11.34 0.34 r p3
/bg { 0.8941 0.7647 0.9373 srgb } def
0.8941 0.7647 0.9373 srgb
445.73 313.71 11.34 0.34 r p3
/bg { 0.9020 0.7804 0.9412 srgb } def
0.9020 0.7804 0.9412 srgb
445.73 313.37 11.34 0.34 r p3
/bg { 0.9098 0.7922 0.9451 srgb } def
0.9098 0.7922 0.9451 srgb
445.73 313.02 11.34 0.34 r p3
/bg { 0.9137 0.8039 0.9490 srgb } def
0.9137 0.8039 0.9490 srgb
445.73 312.68 11.34 0.34 r p3
/bg { 0.9216 0.8196 0.9529 srgb } def
0.9216 0.8196 0.9529 srgb
445.73 312.34 11.34 0.34 r p3
/bg { 0.9255 0.8314 0.9569 srgb } def
0.9255 0.8314 0.9569 srgb
445.73 311.99 11.34 0.34 r p3
/bg { 0.9333 0.8471 0.9608 srgb } def
0.9333 0.8471 0.9608 srgb
445.73 311.65 11.34 0.34 r p3
/bg { 0.9373 0.8588 0.9647 srgb } def
0.9373 0.8588 0.9647 srgb
445.73 311.31 11.34 0.34 r p3
/bg { 0.9451 0.8706 0.9686 srgb } def
0.9451 0.8706 0.9686 srgb
445.73 310.96 11.34 0.34 r p3
/bg { 0.9490 0.8863 0.9725 srgb } def
0.9490 0.8863 0.9725 srgb
445.73 310.62 11.34 0.34 r p3
/bg { 0.9569 0.8980 0.9725 srgb } def
0.9569 0.8980 0.9725 srgb
445.73 310.28 11.34 0.34 r p3
/bg { 0.9608 0.9137 0.9765 srgb } def
0.9608 0.9137 0.9765 srgb
445.73 309.93 11.34 0.34 r p3
/bg { 0.9686 0.9255 0.9804 srgb } def
0.9686 0.9255 0.9804 srgb
445.73 309.59 11.34 0.34 r p3
/bg { 0.9725 0.9412 0.9843 srgb } def
0.9725 0.9412 0.9843 srgb
445.73 309.24 11.34 0.34 r p3
/bg { 0.9804 0.9529 0.9882 srgb } def
0.9804 0.9529 0.9882 srgb
445.73 308.90 11.34 0.34 r p3
/bg { 0.9843 0.9647 0.9922 srgb } def
0.9843 0.9647 0.9922 srgb
445.73 308.56 11.34 0.34 r p3
/bg { 0.9922 0.9804 0.9961 srgb } def
0.9922 0.9804 0.9961 srgb
445.73 308.21 11.34 0.34 r p3
/bg { 0.9961 0.9922 1 srgb } def
0.9961 0.9922 1 srgb
445.73 307.87 11.34 0.34 r p3
/bg { 1 1 1 srgb } def
1 1 1 srgb
445.73 307.53 11.34 0.34 r p3
445.73 307.18 11.34 0.34 r p3
445.73 306.84 11.34 0.34 r p3
445.73 306.50 11.34 0.34 r p3
445.73 306.15 11.34 0.34 r p3
445.73 305.81 11.34 0.34 r p3
445.73 305.47 11.34 0.34 r p3
445.73 305.12 11.34 0.34 r p3
445.73 304.78 11.34 0.34 r p3
445.73 304.43 11.34 0.34 r p3
445.73 304.09 11.34 0.34 r p3
445.73 303.75 11.34 0.34 r p3
445.73 303.40 11.34 0.34 r p3
445.73 303.06 11.34 0.34 r p3
np
445.73 304.65 m
2.27 0 l
o
np
445.73 320.24 m
2.27 0 l
o
np
445.73 335.83 m
2.27 0 l
o
np
457.07 304.65 m
-2.27 0 l
o
np
457.07 320.24 m
-2.27 0 l
o
np
457.07 335.83 m
-2.27 0 l
o
24.94 18.00 816.94 577.28 cl
24.94 18.00 816.94 577.28 cl
/Font5 findfont 10 s
0 0 0 srgb
445.73 284.71 (-) 0 0 t
/Font1 findfont 10 s
452.61 284.71 (l) 0 0 t
454.83 284.71 (o) 0 0 t
460.39 284.71 (g) 0 0 t
/Font1 findfont 7 s
465.95 282.88 (10) 0 0 t
/Font5 findfont 10 s
473.73 284.71 ( ) 0 0 t
/Font1 findfont 10 s
476.23 284.71 (adjusted) 0 0 t
/Font5 findfont 10 s
514.03 284.71 ( ) 0 0 t
/Font3 findfont 10 s
516.53 284.71 (P) 0 0 t
/Font1 findfont 8 s
459.91 241.37 (0) 0 0 t
459.91 256.96 (4) 0 0 t
459.91 272.55 (8) 0 0 t
/bg { 0.0510 0.3451 0.3725 srgb } def
0.0510 0.3451 0.3725 srgb
0.75 setlinewidth
[] 0 setdash
1 setlinecap
1 setlinejoin
10.00 setmiterlimit
445.73 276.33 11.34 0.34 r p3
445.73 275.99 11.34 0.34 r p3
/bg { 0.0588 0.3490 0.3765 srgb } def
0.0588 0.3490 0.3765 srgb
445.73 275.64 11.34 0.34 r p3
/bg { 0.0667 0.3569 0.3804 srgb } def
0.0667 0.3569 0.3804 srgb
445.73 275.30 11.34 0.34 r p3
/bg { 0.0745 0.3647 0.3882 srgb } def
0.0745 0.3647 0.3882 srgb
445.73 274.95 11.34 0.34 r p3
/bg { 0.0784 0.3686 0.3922 srgb } def
0.0784 0.3686 0.3922 srgb
445.73 274.61 11.34 0.34 r p3
/bg { 0.0863 0.3765 0.3961 srgb } def
0.0863 0.3765 0.3961 srgb
445.73 274.27 11.34 0.34 r p3
/bg { 0.0941 0.3804 0.4000 srgb } def
0.0941 0.3804 0.4000 srgb
445.73 273.92 11.34 0.34 r p3
/bg { 0.0980 0.3882 0.4078 srgb } def
0.0980 0.3882 0.4078 srgb
445.73 273.58 11.34 0.34 r p3
/bg { 0.1059 0.3922 0.4118 srgb } def
0.1059 0.3922 0.4118 srgb
445.73 273.24 11.34 0.34 r p3
/bg { 0.1098 0.4000 0.4157 srgb } def
0.1098 0.4000 0.4157 srgb
445.73 272.89 11.34 0.34 r p3
/bg { 0.1176 0.4078 0.4196 srgb } def
0.1176 0.4078 0.4196 srgb
445.73 272.55 11.34 0.34 r p3
/bg { 0.1216 0.4118 0.4275 srgb } def
0.1216 0.4118 0.4275 srgb
445.73 272.21 11.34 0.34 r p3
/bg { 0.1294 0.4196 0.4314 srgb } def
0.1294 0.4196 0.4314 srgb
445.73 271.86 11.34 0.34 r p3
/bg { 0.1333 0.4235 0.4353 srgb } def
0.1333 0.4235 0.4353 srgb
445.73 271.52 11.34 0.34 r p3
/bg { 0.1412 0.4314 0.4392 srgb } def
0.1412 0.4314 0.4392 srgb
445.73 271.17 11.34 0.34 r p3
/bg { 0.1490 0.4392 0.4471 srgb } def
0.1490 0.4392 0.4471 srgb
445.73 270.83 11.34 0.34 r p3
/bg { 0.1569 0.4431 0.4510 srgb } def
0.1569 0.4431 0.4510 srgb
445.73 270.49 11.34 0.34 r p3
/bg { 0.1608 0.4510 0.4549 srgb } def
0.1608 0.4510 0.4549 srgb
445.73 270.14 11.34 0.34 r p3
/bg { 0.1686 0.4588 0.4627 srgb } def
0.1686 0.4588 0.4627 srgb
445.73 269.80 11.34 0.34 r p3
/bg { 0.1765 0.4627 0.4667 srgb } def
0.1765 0.4627 0.4667 srgb
445.73 269.46 11.34 0.34 r p3
/bg { 0.1804 0.4706 0.4706 srgb } def
0.1804 0.4706 0.4706 srgb
445.73 269.11 11.34 0.34 r p3
/bg { 0.1882 0.4784 0.4784 srgb } def
0.1882 0.4784 0.4784 srgb
445.73 268.77 11.34 0.34 r p3
/bg { 0.1922 0.4824 0.4824 srgb } def
0.1922 0.4824 0.4824 srgb
445.73 268.43 11.34 0.34 r p3
/bg { 0.2000 0.4902 0.4863 srgb } def
0.2000 0.4902 0.4863 srgb
445.73 268.08 11.34 0.34 r p3
/bg { 0.2078 0.4980 0.4941 srgb } def
0.2078 0.4980 0.4941 srgb
445.73 267.74 11.34 0.34 r p3
/bg { 0.2118 0.5020 0.4980 srgb } def
0.2118 0.5020 0.4980 srgb
445.73 267.40 11.34 0.34 r p3
/bg { 0.2196 0.5098 0.5020 srgb } def
0.2196 0.5098 0.5020 srgb
445.73 267.05 11.34 0.34 r p3
/bg { 0.2275 0.5137 0.5098 srgb } def
0.2275 0.5137 0.5098 srgb
445.73 266.71 11.34 0.34 r p3
/bg { 0.2353 0.5216 0.5137 srgb } def
0.2353 0.5216 0.5137 srgb
445.73 266.36 11.34 0.34 r p3
/bg { 0.2431 0.5255 0.5216 srgb } def
0.2431 0.5255 0.5216 srgb
445.73 266.02 11.34 0.34 r p3
/bg { 0.2510 0.5333 0.5255 srgb } def
0.2510 0.5333 0.5255 srgb
445.73 265.68 11.34 0.34 r p3
/bg { 0.2549 0.5373 0.5294 srgb } def
0.2549 0.5373 0.5294 srgb
445.73 265.33 11.34 0.34 r p3
/bg { 0.2627 0.5451 0.5373 srgb } def
0.2627 0.5451 0.5373 srgb
445.73 264.99 11.34 0.34 r p3
/bg { 0.2706 0.5529 0.5412 srgb } def
0.2706 0.5529 0.5412 srgb
445.73 264.65 11.34 0.34 r p3
/bg { 0.2784 0.5569 0.5490 srgb } def
0.2784 0.5569 0.5490 srgb
445.73 264.30 11.34 0.34 r p3
/bg { 0.2863 0.5647 0.5529 srgb } def
0.2863 0.5647 0.5529 srgb
445.73 263.96 11.34 0.34 r p3
/bg { 0.2902 0.5686 0.5569 srgb } def
0.2902 0.5686 0.5569 srgb
445.73 263.62 11.34 0.34 r p3
/bg { 0.2980 0.5765 0.5647 srgb } def
0.2980 0.5765 0.5647 srgb
445.73 263.27 11.34 0.34 r p3
/bg { 0.3059 0.5843 0.5686 srgb } def
0.3059 0.5843 0.5686 srgb
445.73 262.93 11.34 0.34 r p3
/bg { 0.3137 0.5882 0.5765 srgb } def
0.3137 0.5882 0.5765 srgb
445.73 262.59 11.34 0.34 r p3
/bg { 0.3216 0.5961 0.5804 srgb } def
0.3216 0.5961 0.5804 srgb
445.73 262.24 11.34 0.34 r p3
/bg { 0.3294 0.6039 0.5843 srgb } def
0.3294 0.6039 0.5843 srgb
445.73 261.90 11.34 0.34 r p3
/bg { 0.3373 0.6078 0.5922 srgb } def
0.3373 0.6078 0.5922 srgb
445.73 261.55 11.34 0.34 r p3
/bg { 0.3451 0.6157 0.5961 srgb } def
0.3451 0.6157 0.5961 srgb
445.73 261.21 11.34 0.34 r p3
/bg { 0.3529 0.6196 0.6039 srgb } def
0.3529 0.6196 0.6039 srgb
445.73 260.87 11.34 0.34 r p3
/bg { 0.3608 0.6275 0.6078 srgb } def
0.3608 0.6275 0.6078 srgb
445.73 260.52 11.34 0.34 r p3
/bg { 0.3686 0.6353 0.6118 srgb } def
0.3686 0.6353 0.6118 srgb
445.73 260.18 11.34 0.34 r p3
/bg { 0.3765 0.6392 0.6196 srgb } def
0.3765 0.6392 0.6196 srgb
445.73 259.84 11.34 0.34 r p3
/bg { 0.3843 0.6471 0.6235 srgb } def
0.3843 0.6471 0.6235 srgb
445.73 259.49 11.34 0.34 r p3
/bg { 0.3922 0.6549 0.6314 srgb } def
0.3922 0.6549 0.6314 srgb
445.73 259.15 11.34 0.34 r p3
/bg { 0.4000 0.6588 0.6353 srgb } def
0.4000 0.6588 0.6353 srgb
445.73 258.81 11.34 0.34 r p3
/bg { 0.4118 0.6667 0.6392 srgb } def
0.4118 0.6667 0.6392 srgb
445.73 258.46 11.34 0.34 r p3
/bg { 0.4196 0.6706 0.6471 srgb } def
0.4196 0.6706 0.6471 srgb
445.73 258.12 11.34 0.34 r p3
/bg { 0.4275 0.6784 0.6510 srgb } def
0.4275 0.6784 0.6510 srgb
445.73 257.77 11.34 0.34 r p3
/bg { 0.4392 0.6863 0.6549 srgb } def
0.4392 0.6863 0.6549 srgb
445.73 257.43 11.34 0.34 r p3
/bg { 0.4471 0.6902 0.6627 srgb } def
0.4471 0.6902 0.6627 srgb
445.73 257.09 11.34 0.34 r p3
/bg { 0.4549 0.6980 0.6667 srgb } def
0.4549 0.6980 0.6667 srgb
445.73 256.74 11.34 0.34 r p3
/bg { 0.4667 0.7020 0.6706 srgb } def
0.4667 0.7020 0.6706 srgb
445.73 256.40 11.34 0.34 r p3
/bg { 0.4745 0.7098 0.6745 srgb } def
0.4745 0.7098 0.6745 srgb
445.73 256.06 11.34 0.34 r p3
/bg { 0.4824 0.7137 0.6824 srgb } def
0.4824 0.7137 0.6824 srgb
445.73 255.71 11.34 0.34 r p3
/bg { 0.4941 0.7216 0.6863 srgb } def
0.4941 0.7216 0.6863 srgb
445.73 255.37 11.34 0.34 r p3
/bg { 0.5020 0.7294 0.6902 srgb } def
0.5020 0.7294 0.6902 srgb
445.73 255.03 11.34 0.34 r p3
/bg { 0.5137 0.7333 0.6980 srgb } def
0.5137 0.7333 0.6980 srgb
445.73 254.68 11.34 0.34 r p3
/bg { 0.5216 0.7412 0.7020 srgb } def
0.5216 0.7412 0.7020 srgb
445.73 254.34 11.34 0.34 r p3
/bg { 0.5333 0.7451 0.7098 srgb } def
0.5333 0.7451 0.7098 srgb
445.73 254.00 11.34 0.34 r p3
/bg { 0.5412 0.7529 0.7137 srgb } def
0.5412 0.7529 0.7137 srgb
445.73 253.65 11.34 0.34 r p3
/bg { 0.5529 0.7569 0.7176 srgb } def
0.5529 0.7569 0.7176 srgb
445.73 253.31 11.34 0.34 r p3
/bg { 0.5608 0.7647 0.7255 srgb } def
0.5608 0.7647 0.7255 srgb
445.73 252.96 11.34 0.34 r p3
/bg { 0.5725 0.7725 0.7294 srgb } def
0.5725 0.7725 0.7294 srgb
445.73 252.62 11.34 0.34 r p3
/bg { 0.5804 0.7765 0.7373 srgb } def
0.5804 0.7765 0.7373 srgb
445.73 252.28 11.34 0.34 r p3
/bg { 0.5922 0.7843 0.7412 srgb } def
0.5922 0.7843 0.7412 srgb
445.73 251.93 11.34 0.34 r p3
/bg { 0.6039 0.7882 0.7490 srgb } def
0.6039 0.7882 0.7490 srgb
445.73 251.59 11.34 0.34 r p3
/bg { 0.6118 0.7961 0.7529 srgb } def
0.6118 0.7961 0.7529 srgb
445.73 251.25 11.34 0.34 r p3
/bg { 0.6235 0.8000 0.7569 srgb } def
0.6235 0.8000 0.7569 srgb
445.73 250.90 11.34 0.34 r p3
/bg { 0.6314 0.8078 0.7647 srgb } def
0.6314 0.8078 0.7647 srgb
445.73 250.56 11.34 0.34 r p3
/bg { 0.6431 0.8118 0.7686 srgb } def
0.6431 0.8118 0.7686 srgb
445.73 250.22 11.34 0.34 r p3
/bg { 0.6549 0.8196 0.7725 srgb } def
0.6549 0.8196 0.7725 srgb
445.73 249.87 11.34 0.34 r p3
/bg { 0.6667 0.8275 0.7804 srgb } def
0.6667 0.8275 0.7804 srgb
445.73 249.53 11.34 0.34 r p3
/bg { 0.6784 0.8314 0.7843 srgb } def
0.6784 0.8314 0.7843 srgb
445.73 249.18 11.34 0.34 r p3
/bg { 0.6902 0.8392 0.7882 srgb } def
0.6902 0.8392 0.7882 srgb
445.73 248.84 11.34 0.34 r p3
/bg { 0.6980 0.8431 0.7961 srgb } def
0.6980 0.8431 0.7961 srgb
445.73 248.50 11.34 0.34 r p3
/bg { 0.7098 0.8510 0.8000 srgb } def
0.7098 0.8510 0.8000 srgb
445.73 248.15 11.34 0.34 r p3
/bg { 0.7216 0.8549 0.8039 srgb } def
0.7216 0.8549 0.8039 srgb
445.73 247.81 11.34 0.34 r p3
/bg { 0.7333 0.8627 0.8078 srgb } def
0.7333 0.8627 0.8078 srgb
445.73 247.47 11.34 0.34 r p3
/bg { 0.7451 0.8706 0.8157 srgb } def
0.7451 0.8706 0.8157 srgb
445.73 247.12 11.34 0.34 r p3
/bg { 0.7529 0.8745 0.8196 srgb } def
0.7529 0.8745 0.8196 srgb
445.73 246.78 11.34 0.34 r p3
/bg { 0.7647 0.8824 0.8235 srgb } def
0.7647 0.8824 0.8235 srgb
445.73 246.44 11.34 0.34 r p3
/bg { 0.7765 0.8863 0.8314 srgb } def
0.7765 0.8863 0.8314 srgb
445.73 246.09 11.34 0.34 r p3
/bg { 0.7882 0.8941 0.8353 srgb } def
0.7882 0.8941 0.8353 srgb
445.73 245.75 11.34 0.34 r p3
/bg { 0.8000 0.8980 0.8392 srgb } def
0.8000 0.8980 0.8392 srgb
445.73 245.41 11.34 0.34 r p3
/bg { 0.8118 0.9059 0.8471 srgb } def
0.8118 0.9059 0.8471 srgb
445.73 245.06 11.34 0.34 r p3
/bg { 0.8235 0.9098 0.8510 srgb } def
0.8235 0.9098 0.8510 srgb
445.73 244.72 11.34 0.34 r p3
/bg { 0.8353 0.9176 0.8549 srgb } def
0.8353 0.9176 0.8549 srgb
445.73 244.37 11.34 0.34 r p3
/bg { 0.8471 0.9216 0.8627 srgb } def
0.8471 0.9216 0.8627 srgb
445.73 244.03 11.34 0.34 r p3
/bg { 0.8588 0.9294 0.8667 srgb } def
0.8588 0.9294 0.8667 srgb
445.73 243.69 11.34 0.34 r p3
/bg { 0.8706 0.9333 0.8706 srgb } def
0.8706 0.9333 0.8706 srgb
445.73 243.34 11.34 0.34 r p3
/bg { 0.8824 0.9412 0.8784 srgb } def
0.8824 0.9412 0.8784 srgb
445.73 243.00 11.34 0.34 r p3
/bg { 0.8941 0.9451 0.8824 srgb } def
0.8941 0.9451 0.8824 srgb
445.73 242.66 11.34 0.34 r p3
1 1 1 srgb
np
445.73 244.25 m
2.27 0 l
o
np
445.73 259.84 m
2.27 0 l
o
np
445.73 275.43 m
2.27 0 l
o
np
457.07 244.25 m
-2.27 0 l
o
np
457.07 259.84 m
-2.27 0 l
o
np
457.07 275.43 m
-2.27 0 l
o
24.94 18.00 816.94 577.28 cl
24.94 18.00 816.94 577.28 cl
24.94 18.00 816.94 577.28 cl
24.94 18.00 816.94 577.28 cl
24.94 18.00 816.94 577.28 cl
24.94 18.00 816.94 577.28 cl
24.94 18.00 816.94 577.28 cl
ep
%%Trailer
%%Pages: 1
%%EOF
