Gm26206	0
Gm27396	0
Gm22307	0
Gm25493	0
Gm24765	0
Gm22607	0
Gm24674	0
Gm25253	0
Gm22633	0
Gm23169	0
Gm24162	0
Gm22260	0
Gm25294	0
Gm23032	0
Gm25814	0
Gm24732	0
Gm24901	0
Gm25792	0
Gm23453	0
Gm23792	0
Gm25634	0
Gm23216	0
Gm23240	1
Gm23460	0
Gm24251	0
Gm25829_Gm23934_Gm22360_Gm26496_Gm25583_Gm22288_Gm22580_Gm26317_Gm22798_Gm22295_Gm25869_Gm22682_Gm24260_Gm25127_Gm24458_Gm24978_Gm24967_Gm22092_Gm26058_Gm25737_Gm25790_Gm25405_Gm22822_Gm25256_Gm24486_Gm25709_Gm26427_Gm24205_Gm24693_Gm22823_Gm24540_Gm25064_Gm24803_Gm24873_Gm22170_Gm22246_Gm23217_Gm24753_Gm25547_Gm26295_Gm24722_Gm23512	0
Gm24014	0
Gm23966	0
Gm25839	0
Gm23448	0
Gm22281	0
Gm24788	0
Gm25411	0
Gm27934	0
Gm25542	0
Gm23879	0
Gm23422	0
Gm25360	3
Gm23472_Gm24497_Gm23444	0
Gm25939	8
Gm25524	0
Gm26263	0
Gm26187	0
Gm22549	0
Gm23504	0
Gm26446	103
Gm22089	0
Gm26245	0
Gm24465	0
Gm23434	0
Gm26214	0
Gm24267	0
Gm24030	0
Gm22710	41
Gm23497	2
Gm25322	0
Gm24547	0
Gm25578	0
Gm25384	0
Gm23056	0
Gm23623	0
Gm25549	0
Gm26034	0
Gm24517	0
Gm22796	0
Gm24086	0
Gm23763	0
Gm25609	0
Gm26271	0
Gm25619	0
Gm25457	0
Gm23672	0
Gm22681	0
Gm23535	0
Gm22756_Gm22003	0
Gm24402	0
Gm25279	0
Gm23744	1
Gm24940	1
Gm23402	0
Gm24182	0
Gm22114	0
Gm23523	0
Gm25235	0
Gm26110	0
Gm24871	16
Gm26412	0
Gm22950	0
Gm24817	0
Gm25560	0
Gm23805	0
Gm26104	0
Gm25312	0
Gm24919	0
Gm24405	0
Gm24836	0
Gm23690	0
Gm23349	0
Gm25269	0
Gm22446	0
Gm26203	0
Gm22265	1
Gm22005	1
Gm23691	0
Gm23118	0
Gm24340	0
Gm26478	0
Gm25147	0
Gm23970	0
Gm25518	0
Gm24875	0
Gm22572	0
Gm25220	0
Gm25541	5
Gm22675	0
Gm23865	0
Gm23369	0
Gm24905	0
Gm22306	0
Gm25081	0
Gm26127	0
Gm22867	0
Gm25338	0
Gm25898	0
Gm25489	0
Gm23503	0
Gm23166	0
Gm23253	0
Gm22975	0
Gm24996	1
Gm22606	0
Gm24461	0
Gm23452	0
Gm27942	0
Gm24037	0
Gm23390	0
Gm23731	0
Gm22997	0
Gm26505	2
Gm25514	183
Gm25189	0
Gm25308	0
Gm23814	0
Gm23858	0
Gm24409	0
Gm22352_Gm24584	0
Gm23753	0
Gm23101	0
Gm25703	0
Gm22245	0
Gm25704	0
Gm27449	0
Gm25258	0
Gm26227	0
Gm27385	0
Gm23846	0
Gm25516	0
Gm27343	0
Gm25643	0
Gm23463	0
Gm24478	1
Gm25881	0
Gm25512	0
Gm24477	2
Gm22502	0
Gm24892	0
Gm22708	0
Gm25184	0
Gm25879	0
Gm22083	0
Gm25481	0
Gm25728	0
Gm26314	0
Gm25552	0
Gm25202	0
Gm25207	0
Gm23516	0
Gm22294	0
Gm22783	0
Gm23678	0
Gm23628	0
Gm26065	0
Gm24535	0
Gm25812	0
Gm26131	0
Gm25047	0
Gm22364	0
Gm26099	0
Gm26437	0
Gm24763	2
Gm25078	0
Gm24038	0
Gm22528	0
Gm22612	3
Gm22550	0
Gm26312	0
Gm23258	0
Gm25023	0
Gm25851	0
Gm26487	0
Gm22287	0
Gm25412	0
Gm26111	0
Gm23000	0
Gm23461	0
Gm26125	0
Gm22351	0
Gm25629	0
Gm25421	1
Gm23121	0
Gm22686	0
Gm25006	0
Gm25332	0
Gm26000	0
Gm24577	0
Gm27510	0
Gm22472	0
Gm25828	73
Gm23378	0
Gm22090	0
Gm26020	0
Gm23656	1
Gm24622	0
Gm24491	0
Gm23322	0
Gm25797	0
Gm26108	2
Gm24831	0
Gm25366	0
Gm24624	0
Gm24783	0
Gm22139	0
Gm25061	0
Gm24522	0
Gm23124	0
Gm22057	0
Gm23958	0
Gm23199	0
Gm25097	0
Gm27659	0
Gm26151	0
Gm26441	0
Gm22248	0
Gm25793	0
Gm25895	0
Gm22359	0
Gm25257	0
Gm24268	0
Gm22666	0
Gm23794	0
Gm23901	2
Gm22746	0
Gm26007	0
Gm25367	0
Gm22062	0
Gm23197	0
Gm24614	0
Gm26485	0
Gm23441	0
Gm23686	5
Gm23330	0
Gm24704	0
Gm23214	0
Gm25696	0
Gm23796	0
Gm22043	0
Gm24997	0
Gm25796	0
Gm23337	0
Gm23511	3
Gm23096	0
Gm24851	0
Gm25132	0
Gm25404	0
Gm24531	0
Gm26166	0
Gm22491	1
Gm25572	1
Gm24382	0
Gm24946	0
Gm23500	0
Gm22165	0
Gm22279	0
Gm25755	0
Gm26442	1
Gm22073	0
Gm22451	0
Gm24150	0
Gm26420	0
Gm26204	0
Gm24501	0
Gm27811	0
Gm23025	0
Gm23850	0
Gm25039	0
Gm23376	0
Gm23054	0
Gm26465_Gm25021_Gm24424_Gm24389	0
Gm22935	0
Gm23269	0
Gm24046	2
Gm24185	0
Gm24593	0
Gm23464	0
Gm24481	0
Gm22577	0
Gm26279	0
Gm22301	0
Gm26361	0
Gm24830_Gm26232_Rnu1b6_Gm25890_Gm22614	0
Rnu1b1_Rnu1b2	0
Gm24136	0
Gm24435	0
Gm22505_Gm22363	0
Gm22826	0
Gm25199	0
Gm23830	0
Gm26091	0
Gm24223	0
Gm23336	0
Gm25681	0
Gm26076	0
Gm22361	0
Gm23733	0
Gm25153	0
Gm22713	0
Gm24456	0
Gm22575	0
Gm26103	0
Gm22421	0
Gm25307	0
Gm23196	0
Gm26107	0
Gm25080	0
Gm25920	0
Gm23467	0
Gm24457	0
Gm25627	0
Gm22078	0
Gm26468	0
Gm25056	0
Gm23038	0
Gm23725	0
Gm22458	0
Gm23379	0
Gm23941	0
Gm23423	0
Gm24152	0
Gm22940	0
Gm24317	0
Gm23975	0
Gm23384	0
Gm24977_Gm25513	0
Gm24042	0
Gm24965	0
Gm25173_Gm25211_Gm26324_Gm23732	0
Gm25705	0
Gm26254	0
Gm25623	0
Gm23314	0
Gm25581	1
Gm22850	0
Gm26087	0
Gm25637	0
Gm24650	0
Gm26049	0
Gm26084	0
Gm25010	0
Gm22706	0
Gm22055	0
Gm22685	0
Gm26424	0
Gm22042	1
Gm24277	0
Gm26138	0
Gm23148	0
Gm24448	0
Gm24234	0
Gm23738	0
Gm24697	0
Gm23412	9
Gm25899	0
Gm25811	0
Gm26017	0
Gm22605	0
Gm24796	0
Gm25004	0
Gm27579	0
Gm27521	0
Gm24960	0
Gm26425	0
Gm22100	0
Gm24468	0
Gm25124	0
Gm23354	0
Gm23138	0
Gm25827	0
Gm22345	0
Gm23589	0
Gm24099	0
Gm23230	0
Gm25137	0
Gm26355	0
Gm22335	0
Gm25099	1
Gm23143	0
Gm23287	0
Rnu6-ps2_Rnu6	0
Gm24678	0
Gm23540	0
Gm22983	0
Gm24480	0
Gm25323	0
Gm25600	0
Gm22221	0
Gm24621	0
Gm23845	0
Rnu11	6
Gm23055	1
Gm24762	0
Gm24913	0
Gm25270	2
Gm22523	0
Gm23106	0
Gm26001	0
Gm25772	0
Gm22961	0
Gm25280	0
Gm26226	0
Gm25938	0
Gm23303	0
Gm24002	0
Gm23318	0
Gm24381	0
Gm23209	0
Gm23405	2
Gm22573	0
Gm25982	0
Gm23838	0
Gm24686	0
Gm24525	0
Gm24666	0
Gm23312	0
Gm25335	0
Gm23570	0
Gm22755	0
Gm22887	0
Gm24512	0
Gm22054	0
Gm22333	0
Gm22656	0
Gm24538	0
Gm25666	0
Gm26335	0
Gm24003	0
Gm25918	0
Gm22847	0
Gm24878	0
Gm22249	0
Gm22779	0
Gm23022	0
Gm22618	0
Gm25601	0
Gm22308	0
Gm23331	0
Gm24399	0
Gm22929	0
Gm23932	0
Gm26044	0
Gm23661	0
Gm23067	0
Gm26072	0
Gm25768	0
Gm23712	0
Gm24776	0
Gm22084	0
Gm24502	0
Gm23429	0
Gm24304	0
Gm22974	0
Gm24129	0
Gm25806	0
Gm24626	0
Gm24524	0
Gm25473	0
Gm24121	0
Gm23092_Gm24242	0
Gm23031	0
Gm25521	0
Gm25937	0
Gm24623	0
Gm22838	0
Gm23173	0
Gm25721	0
Gm24897	0
Gm24097	0
Gm25672	0
Gm24191	1
Gm22557	0
Gm22716	0
Gm22583	0
Gm22740	4
Gm22056	0
Gm24265	8
Gm24407	3
Gm25343	0
Gm26411	0
Gm24671	0
Gm22965	0
Gm23458	0
Gm24840	0
Gm24854	0
Gm23151	0
Gm24839	0
Gm23761	0
Gm22450	0
Gm22214	0
Gm22956	0
Gm25525	0
Gm26285	0
Gm24131	0
Gm24311	1
Gm25284	0
Gm23641	0
Gm24630	0
Gm22155	0
Gm23013	0
Gm23648	0
Gm22828	0
Gm26373	0
Gm24691	0
Gm25589	0
Gm26484	0
Gm24536	0
Gm22321	0
Gm23435	0
Gm23231	0
Gm26008	0
Gm27549	0
Gm24611	0
Gm23982	0
Gm22122	0
Gm25818	10
Gm22212	0
Gm25205	0
Gm23543	0
Gm23625	0
Gm25260	0
Gm23485	0
Gm23924	0
Gm22283	0
Gm23727	0
Gm26264	0
Gm25054	0
Gm23035	0
Gm26501	10
Gm22971	0
Gm26011	0
Gm23510	0
Gm24565	0
Gm26022	0
Gm24784	0
Gm25656	0
Gm22418	0
Gm27944	0
Gm23002	0
Gm23244	0
Gm22591	0
Gm25905	0
Gm25327	0
Gm24592	0
Gm24391	0
Gm22946	0
Rnu7	1
Gm23851	0
Gm24947	0
Gm26160	0
Gm23977	0
Gm22555	0
Gm24676	0
Gm22621	0
Gm24712_Gm23552_Gm24072	0
Gm26105	0
Gm25882	0
Gm22578	0
Gm23462	0
Gm23741	1
Gm24537	0
Gm23942	1
Gm24414	0
Gm26325	0
Gm26056	0
Gm24701	0
Gm25354	0
Gm23714	0
Gm26473	0
Gm24708	2
Gm25815	0
Gm26062	0
Gm24464	0
Gm25134	0
Gm23099	0
Gm24356	0
Gm23103	0
Gm25259	0
Gm22302	0
Gm22203	0
Gm22638	0
Gm25286_Gm25671	0
Gm24797	0
Gm23307	0
Gm26327	0
Gm25784	0
Gm23585	0
Gm22098	0
Gm22969	0
Gm25326	0
Gm22211	0
Gm22444	0
Gm24116	0
Gm26482	0
Gm23431	0
Gm22228	0
Gm23042	0
Gm23815	0
Gm26176	1
Gm25282	17
Gm23239	0
Gm26149	0
Gm22177	0
Gm24249	0
Gm24552	1
Gm22080	0
Gm23928	1
Gm25684	0
Gm22226	0
Gm23040	0
Gm24846	0
Gm27995	0
Gm25424	0
Gm25450	0
Gm24842	0
Gm23100	0
Gm23345	0
Gm25423	0
Gm26054	0
Gm23229	0
Gm25217	0
Gm25924	0
Gm23614	0
Gm23559	0
Gm23788	0
Gm24596	0
Gm25579	1
Gm23445	0
Gm22747	0
Gm22809	0
Gm23783	0
Gm23847	0
Gm25798	0
Gm27975	0
Gm24962	0
Gm22019	0
Gm25416	0
Gm26143	0
Gm25515	0
Gm22739	0
Gm23573	0
Gm24374	0
Gm25682	0
Gm23680	0
Gm23044	1
Gm22995	0
Gm25382	0
Gm24655	0
Gm23410	0
Gm25596	0
Gm22623	0
Gm24168	0
Gm23790	0
Gm22911	0
Gm22105	0
Gm25626	0
Gm22087	0
Gm22503	0
Gm27723	0
Gm25740	0
Gm25650	0
Gm24256	0
Gm26257	2
Gm25664	0
Gm26177	0
Gm25602	0
Gm24285	0
Gm23058	0
Gm26479	0
Gm23854	0
Gm22829	0
Gm26359	0
Gm26402	0
Gm25794	0
Gm24019_Gm26243_Gm24859_Gm23296	0
Gm25044	0
Gm23122	0
Gm25657	0
Gm24226	0
Gm24430	0
Gm23191	0
Gm26357	0
Gm26180	0
Gm22602	0
Gm25390	0
Gm25884	0
Gm26239	0
Gm26122	0
Gm25143	0
Gm22339	0
Gm22945	0
Gm25522	0
Gm25587	0
Gm23041	0
Gm22236	0
Gm22101	0
Gm22507	0
Gm22070	1
Gm22958	0
Gm23664	0
Gm23819	0
Gm23241	0
Gm25494	0
Gm23793	0
Gm25014	0
Gm23142	0
Gm26240	0
Gm24423	0
Gm24735	1
Gm23898	0
Gm24410	0
Gm24202	0
Gm22140	0
Gm26150	0
Gm25126	5
Gm26181	0
Gm25309	0
Gm24669	0
Gm23986	0
Gm24929	0
Gm25813	0
Gm27964	0
Gm22841	0
Gm24847	0
Gm26164	0
Gm23515	0
Gm24274	0
Gm25052	0
Gm22509	0
Gm23260	0
Gm23468	0
Gm23981	0
Gm22044	0
Gm25267	0
Gm22336	0
Gm24490	0
Gm22305	0
Gm26331	0
Gm24254	0
Gm25160	0
Gm23494	0
Gm24602	0
Gm22148	1
Gm22063	0
Gm22085	0
Gm25321	0
Gm23627	0
Gm23853	0
Gm22827	0
Gm24291	0
Gm23677	0
Gm24035	0
Gm24283	0
Gm26497	0
Gm24445	0
Gm24459	0
Gm22730	0
Gm26002	0
Gm25964	0
Gm27851	0
Gm22350	0
Gm25328	0
Gm25864	0
Gm23502	1
Gm22485	0
Gm26228	0
Gm25204	0
Gm25012	0
Gm24388	0
Gm24378	0
Gm23469	0
Gm25380	0
Gm22699	0
Gm23470	0
Gm22116	0
Gm22989	0
Gm24316	0
Gm24689	0
Gm26328	0
Gm24705	0
Gm25887	0
Gm24392	0
Gm27635	0
Gm22218	0
Gm22738	0
Gm25716	0
Gm23629	0
Gm24890	0
Gm23735	0
Gm23622	0
Gm22891	0
Gm23926	0
Gm25115	4
Gm25886	1
Gm23509	0
Gm24043	1
Gm25831	0
Gm26139	0
Gm22984	0
Gm25130	0
Gm22970	0
Gm23538	0
Gm22021	0
Gm22290	0
Gm24207	0
Gm23459	0
Gm23242	0
Gm25670	0
Gm26255	0
Gm22764	0
Gm24073	0
Gm23302	0
Gm25781	0
Gm25464	0
Gm23275	0
Gm23097	0
Gm22815	0
Gm26189	0
Gm22658	0
Gm24546	1
Gm25914	0
Gm26290	0
Gm25425	0
Gm23316	0
Gm27639	1
Gm26435	0
Gm22060	0
Gm25630	0
Gm24764	0
Gm25401	0
Gm23326	0
Gm22540	1
Gm26249	0
Gm22069	0
Gm24646	0
Gm22805	0
Gm22286	0
Gm25633	0
Gm25558	0
Gm22242	0
Gm23407	0
Gm24526	0
Gm25995	0
Gm25313	8
Rnu5g	6
Gm23248	0
Gm23428	0
Gm24225	0
Gm22145	0
Gm22169	0
Gm23588	0
Gm23730	0
Gm22229	0
Gm25045	0
Gm25163	0
Gm23057	0
Gm23567	0
Gm24141	0
Gm25300	0
Gm22836	0
Gm24393	0
Gm26146	0
Gm26126	1
Gm25949	1
Gm22985	0
Gm22717	0
Gm22866	0
Gm26101	0
Gm24200	0
Gm24178	1
Gm24004	0
Gm22894	0
Gm26360	0
Gm22720	0
Gm24631	0
Gm22384	0
Gm22454	0
Gm23856	0
Gm24259	0
Gm22821_Gm25484_Gm24641	0
Gm26409	0
Gm23232	0
Gm23889	0
Gm22479	0
Gm26393	1
Gm25142	0
Gm27393	0
Gm24036	0
Gm24707	0
Gm25698	0
Gm23093	0
Gm23021	0
Gm26253	0
Gm24917	0
Gm22753	0
Gm23827	0
Gm22787	0
Gm22868	0
Gm23109	0
Gm25799	0
Gm22127	0
Gm23520	0
Gm24192	0
Gm24446	0
Gm23039	0
Gm26061	0
Gm25930	0
Gm24198	0
Gm25426	0
Gm24582	1
Gm23341	0
Gm25929	0
Gm23721	0
Gm26128	1
Gm22608	0
Gm25819	12
Gm25371	0
Gm23194	0
Gm22297	0
Gm23226	0
Gm26121	0
Gm22381	0
Gm24211	0
Gm22733	0
Gm22611	0
Gm23219	0
Gm23293	0
Gm25867	1
Gm24887	0
Gm24612	0
Gm23247	0
Gm23506	0
Gm23765	0
Gm26439	0
Gm22883	0
Rnu1a1_Gm22068_Gm22634_Gm23804_Gm25679_Gm26444_Gm22317_Gm26244_Gm24924	0
Gm23137	4
Gm25968	1
Gm23507	0
Gm22534	1
Gm24856	0
Gm22456	53
Gm24725	0
Gm22423	1
Gm25048	0
Gm25106	0
Gm23640	0
Gm22061	0
Gm25475	0
Gm26316_Gm23849_Gm24950_Gm23971_Rnu2-10	0
Gm25337	0
Gm25362	0
Gm25556	0
Gm23645	0
Gm25889	0
Gm24149	0
Gm22378	1
Gm25364	0
Gm24060	0
Gm26133	0
Gm26129	1
Gm25444	0
Gm22628	0
Gm25020	0
Gm24018	0
Gm25605	0
Gm23779	0
Gm22452	0
Gm22013	0
Gm22476	0
Gm23206	0
Gm25186	0
Gm27342	0
Gm22126	248
Gm23972	0
Gm24819	0
Gm22157	0
Gm26064	0
Gm23117	0
Gm23104	0
Gm23387	0
Gm22960	1
Gm24716	0
Gm24594	0
Gm25448_Gm24713	0
Gm25654	0
Gm24863	0
Gm24635	0
Gm24498	0
Gm24737	1
Gm24032	0
Gm23955	0
Gm24261	0
Gm24870	0
Gm24527	3
Gm22768	0
Gm25985	0
Gm23308	0
Gm22108_Gm24798	0
Gm23676	0
Gm23167	0
Gm22845	0
Gm25538	0
Gm24142	0
Gm25414	0
Gm26449	0
Gm22766	0
Gm24922	0
Gm26071	0
Gm26454	0
Gm22663	0
Gm22220	0
Gm24692	1
Gm22513	0
Gm24305	1
Gm24296	0
Gm22296	0
Gm22973	2
Gm23059	0
Gm24750	0
Gm24921	0
Gm25599	0
Gm26256	0
Gm24499	0
Gm24449	0
Gm23579	0
Gm24474	0
Gm25563	0
Gm24775	0
Gm25926	0
Gm25225	0
Gm27297	0
Gm23817	0
Gm23298	0
Gm22004	0
Gm23249	0
Gm26055	0
Gm25486	0
Gm25801	0
Gm22749	0
Gm22079	0
Gm25622	0
Gm25112	0
Gm27649	0
Gm25577	0
Gm22031	0
Gm25652	0
Gm24144	0
Gm25713	0
Gm25101	0
Gm23980	0
Gm22810	0
Gm24487	0
Gm22208	0
Gm22979	0
Gm23754	0
Gm24833	0
Gm22392	0
Gm24768	1
Gm26063	0
Gm23665	0
Gm25007	0
Gm23185	0
Gm23848	0
Gm23545	0
Gm27926	0
Gm26296	0
Gm26178	0
Gm23475	0
Gm24041	0
Gm25875	0
Gm25702	0
Gm25628	0
Gm23907	0
Gm25987	0
Gm24390	0
Gm28020	0
Gm22106	0
Gm23027	0
Gm25720	0
Gm24056	0
Gm22107	0
Gm24204	0
Gm25131	1
Gm22067	0
Rnu12	0
Gm23517	0
Gm22818	0
Gm23144	0
Gm23737	1
Gm24415	0
Gm26371	1
Gm24668	0
Gm22045	0
Gm22951	0
Gm25897	0
Gm23133	0
Gm23590	0
Gm24128	0
Gm25141	0
Gm23483	0
Gm26159	0
Gm25805	0
Gm24667	0
Gm24961	0
Gm24145	0
Gm23116	0
Gm22558	0
Gm22129	0
Gm24927	0
Gm22770	0
Gm26170	0
Gm22741	0
Gm24898	0
Gm25810	0
Gm23715	0
Gm23066	0
Gm24440	0
Gm24928	0
Gm25179	0
Gm23518	0
Gm23080	0
Gm22885	0
Gm25024	0
Gm24801	0
Gm24569	0
Gm23306	0
Gm25254	0
Gm24437	0
Gm25465	0
Gm24218	1
Gm22349	0
Gm22263	0
Gm25903	0
Gm25140	2
Gm22500	0
Gm22543	0
Gm25873	0
Gm24754	0
Gm24651	0
Gm22576	0
Gm24925	0
Gm22977	0
Gm23003	0
Gm26369	0
Gm24164	1
Gm22769	0
Gm22448	0
Gm24968	0
Gm25699	0
Gm24861	0
Gm24773	0
Gm23355	0
Gm24508	0
Gm22808	0
Gm23587	0
Gm23655	0
Gm24695	0
Gm25245	0
Gm23210	0
Gm23692	0
Gm23186	0
Gm26057	0
Gm23050	0
Gm26500	0
Gm25730	0
Gm26375	0
Gm24867	0
Gm23352	0
Gm25598	0
Gm25618	0
Gm22645	0
Gm23887	0
Gm25049	0
Gm24661	0
Gm23294	0
Gm22943	0
Gm23111	0
Gm23421	0
Gm23864	0
Gm25104	0
Gm23078	0
Gm25135	0
Gm25783	1
Gm25008	0
Gm22474	0
Gm25201	0
Gm22978	0
Gm25177	0
Gm22654_AC182748.1	0
Gm25102	0
Gm23203	0
Gm23447	0
Gm23264	0
Gm24736	1
Gm23649	0
Gm24126	0
Gm22215	0
Gm23125	0
Gm24492	0
Gm26066	0
Gm22235	0
Gm22542	0
Gm23947	0
Gm25935	0
Gm22593	0
Gm23102	0
Gm25565	0
Gm23643	0
Gm24292	0
Gm23350	0
Gm25289	0
Gm22251	0
Gm24959	0
Gm22886	0
Gm23207	0
Gm26378	0
Gm22814	0
Gm22788	0
Gm23411	0
Gm23205	0
Gm22264	0
Gm24076	0
Gm23610	0
Gm25440	0
Gm25739	0
Gm25785	0
Gm22259	0
Gm22597	0
Gm26038	0
Gm26403	1
Gm25834	0
Gm23581	0
Gm24848	0
Gm24384	0
Gm23016	0
Gm24504	0
Gm25150	0
Gm26430	0
Gm23895	0
Gm25718	0
Gm25060	2
Gm24720	0
Gm25005	0
Gm25453	0
Gm23859	0
Gm25431	0
Gm23940	0
Gm25334	0
Gm22113	0
Gm24521	0
Gm22443	0
Gm26026	0
Gm24319	0
Gm22880	0
Gm23238	0
Gm24263	0
Gm26207	0
Gm25176	0
Gm26046	0
Gm23095	0
Gm22082	0
Gm23170	0
Gm25268	0
Gm23026	0
Gm23113	0
Gm24400	0
Gm25482	0
Gm23140	0
Gm24805	0
Gm25644	0
Gm24724	1
Gm22365	0
