Gm23274	0
Snord87	42
Gm22963	0
Gm24173	0
Gm26273	0
Gm26345	0
Gm25227	0
Gm25168	0
Gm25166	0
Gm24075	0
Gm24633	0
Gm24723	0
Gm24171	0
Gm24176	0
Gm26418	0
Gm24064	0
Gm26145	1
Gm25096	6
Gm24826	0
Snord89	15
Gm23722	0
Gm23126	1
Gm26352	1
Gm23974	0
Gm27607	21
Gm24349	1
Gm22371	0
Gm24548	0
Gm25502	0
Snord70	31
Gm26293	3
Gm26287	10
Snord11_Gm22285_Gm24153_Gm24609_Gm25155_Gm25816_Gm22417_Gm26270_Gm23265_Gm24760_Gm25350_Gm22128_Gm26246_Gm25597_Gm26201_Gm22812_Gm26433_Gm23357_Gm22110_Gm23724_Gm23549_Snord116l2_Gm26223_Gm23524_Gm26136_Gm24658_Gm23359_Gm24742_Snord116l1_Gm23696_Gm26094	75
Gm24942	0
Gm26457	8
Snora41	0
Gm24729	0
Gm25832	1
Gm26342	0
Gm24160	1
Gm24555	0
Gm22786	0
Snora75	5
Gm24148	15
Snord82	207
Gm23389	0
Gm23181	0
Gm26078	0
Gm23602	0
Gm24122	0
Gm23036	0
Gm22034	0
Gm23965	0
Gm24553	0
Gm22438	0
Gm22159	0
Gm22331	0
Gm24937	0
Gm26080	0
Gm25771	0
Gm24791	0
Gm23734	1
Gm23902	0
Gm22609	0
Gm23939	0
Gm25612	0
Gm23534	0
Gm22727	0
Gm26048	0
Gm25663	4
Gm25460	0
Gm22966	0
Gm25588	1
Gm25336	0
Gm24719	0
Gm23528	0
Gm24988	0
Gm26224	45
Gm22489	34
Gm22357	21
Gm23212	267
Snord78_Snord7	4
Mir5117	48
Snord80	0
Snord47	230
Gm25789	200
Gm22671	1
Gm22434	0
Gm24637	0
Gm23208	1
Gm25151	0
Gm26077	0
Snora36b	2
Gm26169	2
Gm25095	1
Gm23608	0
Gm23877	1
Gm24670	2
Gm25859	0
Gm24886	0
Gm25544	0
Snhg7	0
Snora43	0
Snora17	2
Gm23969	61
Gm22879	10
Gm24134	15
Gm22516	1
Gm22192_Gm25632	0
Gm26236	0
Gm24165	0
Snora65	0
Gm23546	2
Snord90	37
Gm24467	0
Gm24350	0
Gm23072	0
Gm25264	0
Gm25215	1
Gm23315	1
Gm22298	1
Gm24549	0
Gm25388	5
Gm26422	0
Gm22338	0
Gm22020	0
Gm24138	1
Gm23328	0
Gm26408	0
Gm25420	0
Gm22652	0
Gm23716	0
Snord67	58
Gm24318	0
Gm26396	0
Gm22957	0
Gm22313	0
Gm23317	1
Gm22501	2
Gm22439	0
Gm23439	0
Gm23749	0
Gm26421	0
Gm22676	3
Gm25857	1
Gm22865	0
Gm22889	7
Gm23172	0
Gm22424	0
Gm24665	0
Snord110	25
Gm24451	0
Gm23187	0
Gm23650	18
Snord57	415
Gm22310	0
Gm26165	2
Snord17	104
Gm24221	0
Gm25866	0
Gm24551	0
Gm23598	0
Gm22187	0
Gm24199	0
Gm22517	0
Gm23005	0
Gm24077_Gm24868	0
Gm23261	0
Gm22334	2
Gm25407	0
Gm24411	1
Gm26003	0
Gm23925	1
Gm25187	2
Gm25129	2
Gm25090	0
Gm25561	0
Gm22936	0
Gm24473	0
Gm25569	0
Gm25878	28
Gm23201	5
Snord12_Snord123	333
Gm22704	0
Gm25214	0
Gm26401	1
Gm23082	1
Gm22592	0
Gm23613	1
Snora69	1
Gm26494	0
Gm24493	0
Gm24147	0
Gm23705	2
Gm22539	1
Snord61	120
Gm24598	0
Gm26276	0
Gm22332	2
Gm22435	0
Gm22785	0
Gm25226	0
Gm23615	0
Snora70	0
Gm26417	0
Gm25520	10
Gm23320	0
Gm23280	0
Gm22843	0
Gm24706	0
Gm24470	0
Gm24123	0
Gm23454	0
Gm24595	1
Gm24061	4
Gm22266	0
Gm22430	1
Gm23985	0
Gm24438	1
Gm26182	0
Gm22590	0
Gm23277	1
Gm23586	0
Gm26029	2
Gm25170	0
Gm26406	0
Gm23768	0
Gm25868_Gm22233	0
Gm25936	0
Gm22006_Gm24416	0
Gm25770	7
Gm23679	2
Gm25915	0
Gm23325	0
Snora35	0
Gm25107	0
Gm24907	0
Gm24460	0
Gm25429	0
Gm23404	0
Gm25795	0
Gm24281	0
Gm22522	0
Gm23786	0
Gm22023	0
Gm26368	0
Gm25651	3
Gm22944	2
Gm22074	0
Gm23592	0
Gm23670	1
Gm22795	0
Gm23112	0
Gm24963	0
Gm26354	0
Gm25152	0
Gm26040	0
Gm24780	0
Gm23175	0
Gm26404	0
Gm22899	0
Gm23831	0
Gm25487	2
Gm26081	1
Gm23891	0
Gm22480	5
Gm24503	0
Gm23675	2
Gm22784	1
Gm25727	0
Gm22269	0
Gm23897	5
Gm25222	0
Gm25919	1
Gm23484	0
Gm23477	1
Gm25846	0
Gm23644	0
Gm23440	0
Gm22531	0
Gm25876	0
Gm25188	0
Snord73a	131
Rnu73b	240
Gm26343	0
Gm24472	0
Gm25167	0
Gm25945	0
Gm24403	1
Gm24608	0
Gm23723	0
Gm24920	4
Gm22027	0
Gm22581	13
Gm22341	0
Gm24216	0
Gm25802	0
Gm25009	0
Gm23077	0
Gm25592	0
Gm22942	0
Gm25519	23
Gm23750	1
Gm22337	1
Gm26344	0
Gm26358	0
Gm23432	0
Gm25013	0
Snora24	19
Gm22900	0
Gm25501	0
Gm22293	1
Gm26090	0
Gm22322	0
Gm23011	0
Gm25965	0
Gm24728	0
Gm24406	1
Gm23131	0
Gm22206	0
Gm25757	0
Gm24395	0
Snord45b	5
Gm24494	63
Snord45c	134
Gm24373	0
Gm22541	0
Gm22781	0
Gm24016	37
Gm24125	2
Gm26436	0
Gm24337	0
Gm22473	2
Gm23860	1
Gm24068	0
Gm24908	2
Gm26148	1
Gm25977	0
Gm24607	0
Gm25975	0
Gm25378	1
Gm24341	0
Gm22010	0
Gm22732	0
Gm23607	1
Gm23338	1
Gm22888	1
Gm24837	0
Gm23090	31
Gm23709	0
Gm24376	0
Gm22247	0
Gm22670	0
Gm23746	0
Gm25485	2
Gm23043	1
Gm23745	0
Gm24177	0
Gm25419	11
Gm22150	0
Gm26144	0
Gm22952	0
Gm25053	0
Gm22300	1
Gm24117	0
Gm25391	1
Gm23950	0
Gm25480	0
Gm25653	2
Gm25769	0
Gm24170	2
Gm26379	0
Gm22864	0
Gm25836	0
Gm25803	0
Gm24884	0
Gm26490	1
Gm25244	0
Gm23443	0
Gm23836	4
Gm22804	0
Gm24869	0
Gm25877	0
Gm26047	0
Gm22497	0
Gm22980	32
Snord38a	176
Gm26330	203
Snord55	640
Gm23382	0
Gm24352	0
Gm26186	0
Gm26162	0
Gm25788	0
Gm22154	0
Gm24161	0
Gm25604	0
Snord85_Snord8	144
Gm24091_Gm23711	0
Gm22660	1
Gm25261	0
Snora16a	0
Snora44	114
Snora61	0
Snord99	85
Snora73b	38
Snora73a	82
Gm27619	0
Gm23834	0
Gm22039	0
Gm25880	0
Gm26036	1
Gm23993	0
Gm23822	1
Gm25761	1
Gm22490	1
Gm25459	1
Mir3096	0
Snord93	2
Gm25767	0
Gm25377	1
Gm23532	1
Gm24235	0
Gm23896	0
Gm24902	1
Gm23015	0
Gm22536	4
Gm23708	0
Gm22273	1
Gm24079	0
Gm25608	0
Gm22559	0
Gm24346	3
Gm23605	0
Snora26	1
Gm22011	0
Gm25756	0
Gm25765	0
Gm24792	0
Gm25066	0
Gm24314	0
Gm25758	1
Gm25290	2
Gm22915	0
Gm24279	0
Gm25969	0
Gm26252	0
Gm26363	0
Gm26286	0
Snord21	208
Gm22270	38
Gm26387	0
Gm26277	2
Gm26079	2
Gm25076	0
Gm26205	3
Gm23245	8
Snora15	1
Gm23995	0
Gm25091	91
Gm23202	0
Gm24556	0
Gm23362	4
Gm26013	1
Gm22276	0
Gm26075	0
Gm24985	2
Gm23760	0
Gm23960	0
Gm22267	0
Gm24443	0
Gm22529	0
Gm26310	3
Gm26021	3
Gm23273	0
Gm23010	0
Gm25402	0
Gm25108	0
Gm22939	0
Gm25161	0
Gm24348	1
Gm26289	0
Gm24355	0
Gm22910	1
Gm24230	0
Gm24709	0
Gm22493	0
Gm25726	0
Gm22367	1
Gm22622	1
Gm22723	0
Gm22425	2
Gm24911	1
Gm25910	2
Gm25436	3
Gm25833	0
Gm23346	3
Gm22486	255
Gm24533	0
Gm26179	0
Gm22530	2
Gm23014	2
Gm22893	2
Gm25185	2
Gm25094	0
Gm22312	0
Gm22840	0
Gm26175	0
Gm25852	0
Gm23703	0
Gm23234	1
Gm23339	1
Gm24008	0
Snora7a	53
Gm23527	0
Gm22882	0
Gm23908	0
Gm22833_Gm22722	0
Gm25891_Gm25065	0
Gm22724	0
Gm23079	0
Gm22763	1
Gm24843	0
Gm22916	0
Gm23554	0
Gm25311	2
Gm23547	4
Scarna10	29
Gm24175	0
Gm22362	0
Gm22881	1
Gm25136	0
Gm23272	2
Gm22792	0
Gm23498	0
Gm25373	0
Gm23456	0
Gm25539	2
Snord23	105
AF357399	3
Gm25922	0
Gm24505	1
Gm26247	47
Snord88c	107
Snord88a	30
Gm23991	29
Snord35b	5
Snord35a	11
Snord34	230
Snord33	29
Snord32a	86
Gm22478	1
Gm23911	0
Gm26288	0
Gm25499	0
Gm24966	0
Gm22496	0
Gm25648	0
Gm24306	0
Gm25934	0
Gm25156	0
Gm26488_Gm24220	0
Gm24653_Gm24417	0
Gm24969	0
Gm25121	0
Gm24657_Gm23922_Gm22996	0
Gm26230_Gm26498	0
Gm25314	0
Gm26096_Gm26499	0
Gm25646	0
Gm23660	0
Gm23933	0
Gm24862_Gm23310_Gm25461	0
Gm24866_Gm25463_Gm24528_Gm23356_Gm24872_Gm24027_Gm22524_Gm22630_Gm25741_Gm26059_Gm22511_Gm25098_Gm24702_Gm25462_Gm25523_Gm22909_Gm26392_Gm24219_Gm25230_Gm22627_Gm24585_Gm24206_Gm25209_Gm26334_Gm25742_Gm25146_Gm24759_Gm23575_Gm22449_Gm22912_Gm25710_Gm26434_Gm23560	0
Gm22348	0
Gm26466	1
Gm24799	0
Gm24088	0
Gm25229	0
Gm25449	0
Gm26337	0
Gm23145	0
Gm22130_Gm26389_Gm23687_Gm22393_Gm24566_Gm22111	0
Gm25988_Gm25221_Gm23471_Gm23449	0
Gm25120	0
Gm24418_Gm24639_Gm23076_Gm25077	0
Gm25874	0
Gm25088	1
Gm22510_Gm26390_Gm26336	0
Gm24983	0
Gm25175	0
Gm22834	0
Gm24926_Gm22632	0
Gm26200	0
Gm23254	0
Gm26366	0
Gm26283_Gm23682_Gm24654_Gm25585_Gm25840_Gm24040_Gm22050_Gm23286_Gm24021_Gm22274_Gm24652_Gm23618_Gm23688_Gm24570_Gm22640_Gm24952_Gm23944_Gm22629_Gm26374_Gm26284_Gm25452_Gm25984_Gm25017	0
Gm26432	0
Gm24495	0
Gm22255	0
Gm24310	0
Gm25823_Gm25647	0
Gm22252	0
Gm23305_Gm25085	0
Gm25089	0
Gm26467_Gm25087	0
Gm25194	0
Gm24100	0
Gm22253	0
Gm22391_Gm24137	0
Gm25870	0
Gm23862	0
Gm26504	0
Gm22131	0
Gm26365	0
Gm24264	0
Gm23141	26
Gm23767	0
Gm22584	0
Gm23089_Gm24711_Gm26188	0
Gm24518	0
Gm25944	0
Gm23047	2
Gm23953_Gm26332_Gm22863_Gm24618	0
Gm26032_Gm22046_Gm25471_Gm25210	0
Gm26502_Gm23313_Gm23446	0
Gm22776	0
Gm22851	0
Gm25074	0
Gm25157_Gm22941_Gm22258	0
Gm22631	0
Gm25474_Gm22047_Gm23619	0
Gm26097	0
Gm25615	0
Gm22188	0
Gm22173	0
Gm22289	0
Gm22373	0
Snord64	3
Snord107	0
Gm22494	3
Gm23233	1
Gm23795	1
Gm24120	0
Gm25907	0
Gm22934	0
Gm25345	0
Gm25860	1
Gm24412	0
Gm23479	0
Snord15b	80
Snord15a	5
Gm25409	2
Gm24210	0
Gm22504	2
Gm22372	0
Snora3_Snora34	23
Gm24888	1
Gm25636	0
Snora23	2
Gm23262	61
Gm24154	0
Gm24982	0
Snord14a	13
Gm25683	0
Gm26147	0
Gm23321	0
Gm27991	1
Gm25759	0
Gm23168	0
Snora30	0
Gm24581	0
Gm25725	0
Snora52	0
Gm25370	0
Gm23297	11
Gm25369	1
Gm24726	0
Gm25410	1
Gm25635	0
Gm23601	0
Gm25979	1
Gm22546	0
Gm25011	1
Gm25139	4
Gm24343	0
Gm23892	2
Gm23839	1
Snora33	1
Snord100	128
Gm23130	80
Gm25016	0
Gm23353	0
Gm24286	0
Gm26341	0
Gm22554	7
Gm24889	0
Gm24297	0
Gm25613	0
Rnu3a	0
Gm25526	1
Gm26016	0
Gm23481	1
Gm23584	1
Gm23906	0
Gm25055	1
Gm23223	0
Gm23803	0
Snord98	1
Gm25862	0
Gm22594	0
Gm24172	0
Gm22937	0
Gm24984	0
Gm22394	0
Gm22871	1
Snord37	155
Gm24119	4
Gm24241	0
Gm25962	1
Gm24433	0
Gm25658	0
Gm26278	0
Gm25376	0
Gm25422	0
Gm24237	0
Gm25342	0
Gm24745	0
Gm23105	0
Gm23698	1
Gm22186	0
Gm25117	2
Gm26495	0
Gm26311	1
Gm24298	0
Gm24179	0
Gm23996	0
Snord59a	51
Mir677	1
Gm23182	1
Gm25764	0
Gm24717	0
Gm24288	1
Gm25169	0
Gm24698	11
Gm26184	0
Gm24231	0
Gm25278	1
Gm25665	0
Gm24469	0
Gm25763	0
Gm22551	8
Gm24568	0
Gm23561	0
Gm23568_Gm24829	0
Gm22447	0
Gm24335	0
Gm26208	0
Gm23184	1
Gm24992	1
Snord13	209
Gm24727	0
Gm23128	0
Gm23531	0
Gm22986	0
Gm23604	0
Gm22857	0
Gm25830	1
Gm23666	0
Gm24375	0
Gm25379	0
Gm23329	0
Gm22324	0
Gm24236	1
Gm24580	0
Gm26123	1
Gm25275	0
Gm24677	0
Gm22018	0
Gm25906	0
Snora68	4
Gm22532	0
Gm22544	1
Gm24838	0
Gm25138	0
Gm23626	0
Gm25506	82
Gm23904	1
Gm24781	0
Gm24212	1
Gm22428	0
Gm26493	3
Gm26265	0
Gm22780	1
Gm22223	0
Gm22972	0
Snord71	188
Snord111	47
Gm22193	26
Gm26132	0
Gm24793	0
Gm25766	0
Gm25200	0
Gm22999	0
Gm23299	0
Snord68	300
Gm25428	0
Gm26397	7
Gm26100	0
Gm22545	0
Gm22374	1
Gm22053	0
Gm25466	0
Gm24578	0
Gm22499	2
Gm24912	0
Gm24031	0
Gm25697	3
Snord69	56
Gm24916	0
Snord19	27
Gm23946	2
Gm25498	0
Gm24998	0
Gm24394	0
Gm22469	0
Gm23909	0
Gm22354	1
Gm23758	0
Gm23596	0
Gm24118	0
Gm22498	0
Gm23593	0
Gm26440	0
Gm25614	1
Gm24625	0
Gm23816	1
Gm25162	2
Gm26225	1
Gm24258	1
Gm24981	0
Gm22319	0
Gm22725	0
Snora31	12
Gm25517	0
Gm23823	0
Gm26251	0
Gm24774	0
Gm23278	0
Gm25415	0
Gm25495	0
Gm23225	0
Gm24127	0
Gm23324	2
Gm24680	0
Gm25133	0
Gm24770	0
Gm23276	0
Gm26006	0
Gm26367	0
Gm24345	2
Gm26173	1
Gm22347	0
Gm25724	0
Gm24280	0
Gm24634	2
Gm23437	2
Gm24229	0
Gm25901	0
Gm23669	0
Gm22379	0
Gm25272	1
Gm24918	3
Gm24896	1
Gm25500	0
Gm24455	12
Gm24299	15
Gm25791	1
Gm22620	2
Gm24357	67
Gm23455	0
Gm22579_Gm24539	0
Scarna9	22
Gm24339	2
Gm23048	1
Gm24067	4048
Gm23008	34
Gm22380	0
Gm23893	0
Gm25861	3
Gm25346	0
Gm25439	0
Gm24262	0
Gm25273	0
Gm23271	1
Gm24278	0
Snord14c	2
Snord14d	2
Snord14e	125
Gm26272	0
Gm26306	0
Gm24166	0
Gm22659	0
Gm25562	0
Gm22304	0
Gm22099	0
Gm23344	59
Snord16a	30
Gm22571	7
Gm23136	3
Gm22455	38
Gm24347	0
Gm22657	0
Gm22382	2
Gm22962	1
Gm24257	1
Gm24615	1
Gm25105	8
Gm22315	1
Gm22938	0
Gm23609	0
Gm23748	0
Gm25125	0
Gm22830	0
Gm22138	0
Gm25528	0
Gm23176	0
Snord50a_Gm24463	0
Snord50b_Gm26135	0
Gm23017	1
Gm26082	0
Gm23707	0
Gm26423	0
Gm25417	0
Gm25582	0
Gm25607	0
Gm23949	1
Gm23594	0
Gm24338	2
Gm24638	0
Gm22595	0
Gm25904	0
Gm23595	0
Gm24944	0
Gm25456	0
Gm23034	0
Gm23377	0
Gm24957	2
Gm25059	1
Gm22729	1
Gm24044	5
Gm26448	12
Snora62	5
Gm23323	0
Gm24439	1
Gm24013	2
Gm24958	2
Gm22471	0
Gm22457	0
Gm24000	0
Gm24313	0
Snora5c	0
Gm24051	1
Gm26458	0
Gm22156	0
Gm22789	1
Gm25490	0
Gm22807	0
Gm23582	0
Gm23772	0
Gm24398	0
Gm24255	1
Gm23514	1
Gm24850	0
Gm25387	0
Gm22588	6
Gm22022	0
Gm26070	0
Gm22284	0
Gm24422	0
Gm25296	14
Snord96a	1580
Snord95	3
Gm25291	0
Gm22884	0
Gm24253	0
Gm22603	0
Gm22599	0
Gm24945	0
Snord49b	125
Snord49a	555
Snord65	62
Gm24151	0
Snord118	32
Gm24029	0
Gm25835	873
Gm22988	1
Gm23266	0
Gm23311	0
Gm22927	0
Gm24143	0
Snord91a	27
Gm22771	55
Gm22772	0
Gm24989	0
Gm23132	3
Snord42a	24
Snord4a	1
Snord42b	10
Gm22947	0
Gm24454	0
Gm23951	0
Rnu3b1_Rnu3b3_Rnu3b4_Rnu3b2	0
Gm22762	3
Gm25113	0
Gm24949	0
Gm27326	1
Snora21	3
Gm22059	1
Gm26394	8
Gm23451	0
Gm22683	0
Gm22743	0
Snord104	237
Gm22711	0
Gm23699	0
Snord1c	0
Snord1b	10
Snord1a	1
Gm23663	550
Gm22152	0
Gm24790	1
Gm25274	0
Gm22115_Gm23923	0
Gm25496	2
Gm25483	0
Gm25804	0
Gm26172	0
Gm23774	0
Gm23340	0
Gm22358	0
Gm22330	0
Gm23351	0
Gm22674	1
Gm26395	0
Gm22213	1
Gm24620	2
Gm24769	0
Gm25232	1
Gm25394	2
Gm23482	1
Gm22806	0
Gm25148	2
Gm22777	0
Gm24284	0
Gm23713_Gm22615	0
Gm23855	1
Gm24095	0
Gm24130	0
Gm26018	0
Gm23012	0
Gm23127	0
Gm24163	0
Gm23319	0
Gm24519	1
Gm26088	0
Gm25383	0
Gm24295	0
Gm22574	11
Gm24507	4
Gm22778	1
Snora47	26
Gm22661	0
Gm24471	0
Gm25631	0
Gm24431	0
Gm26349	0
Gm23979	0
Gm25610	0
Gm24208	0
Gm22303	0
Gm22748	2
Gm25821	0
Gm26211	1
Gm24326	0
Gm25564	0
Gm25408	0
Gm24613	0
Gm23529	0
Gm24429	0
Gm25438	0
Gm24069	0
Gm24434	0
Gm25497	0
Gm26326	0
Gm24731	0
Gm24948	0
Gm25015	0
Gm22088	1
Gm25917	1
Gm25760	0
Gm24233	0
Gm24377	0
Gm22673	0
Gm24066	0
Gm25970	196
Gm26015	1
Gm23948	0
Gm22782	1
Gm23826	0
Gm23910	0
Gm24070	0
Gm24994	0
Gm24853	2
Gm22149	0
Mir3068	14
Gm23195	0
Gm25776	22
Gm25203	0
Gm24334	0
Gm24986	0
Gm24564_AC152063.4	0
Gm23474_AC152063.6	0
AF357425_AC152063.24	0
Gm24899_AC152063.16	0
Gm23600_AC152063.28	0
Gm24895	0
DQ267100_AC152063.29_AC152063.2	0
DQ267101_AC152063.22	0
Gm23508_AC152063.11	0
Gm26922_AC152063.17	0
DQ267102_AC152063.5	0
Gm25357_AC152063.14	0
Gm27604_AC152063.18	0
Gm23347_AC152063.1_AC152063.13	0
AF357428_AC152063.9	0
Gm23736_AC152063.3	0
AF357341_AC152063.10	0
Gm22981_AC152063.27	0
Gm25856_AC152063.20	0
Gm23787_AC152063.12	0
Gm25854_AC152063.19	0
Gm22205	0
Gm25224_AC152063.8	0
Snora28	12
Snord72	68
Gm23139	0
Gm24844	0
Gm25550	1
Gm25976	0
Gm25711	0
Gm24656	1
Gm23903	0
Gm23033	0
Gm24554	0
Gm23327	10
Gm26163	0
Gm26416	4
Gm24500	0
Gm25809	0
Gm24523	6
Gm24771	0
Gm22353	0
Gm24789	0
Gm24751	0
Gm24903	1
Gm25093	0
Gm23343	1
Gm23530	6
Gm23267	2
Gm23200	5
Gm22299	0
Gm22488	1
Gm23835	0
Gm24696	0
Gm22521	4
Gm24232	0
Gm23987	1
Gm22519	0
Gm24787	0
Gm23747	0
Snord83b	901
Gm22077	2
Gm23220	0
Gm22890	0
Gm25546	0
Gm23129	0
Gm25668	0
Snora2b	7
Gm25183	0
Gm25999	0
Gm22598	0
Gm24579	0
Gm23706	2
Gm25276	0
Gm25777	0
Gm22158	0
Gm25762	0
Snord66	79
Snord2	56
Gm24201	2
Snora81	4
Gm26447	11
Gm24616	1
Gm22672	1
Gm25375	0
Gm24879	1
Gm26419	0
Gm25848	1
Gm25079	0
Gm25967	0
Gm25617	0
Gm27931	1
Gm26074	2
Gm25989	0
Gm26297	1
Gm23513	0
Gm25723	0
Gm22459	0
Gm25853	0
Gm23180	0
Gm22422	1
Gm24039	0
Gm26019	0
Gm23852	0
Gm22429	0
Gm24681	0
Gm22797	0
Gm22163	0
Gm26307	0
Gm22268	0
Gm25916	0
Gm25038	0
Gm23083	0
Gm26153	0
Gm27295	2
Gm25715	0
Gm25896	0
Gm24891	0
Gm23994	1
Gm23406	0
Gm25909	0
Gm24794	1
Gm26130	2
Snora20	17
Gm25092	0
Snord60	180
Snora78	10
Snora64	20
Gm25921	0
Gm23123	0
Gm22327	1
Snord52	13
Gm25744	7
Gm23442	2
Gm22589	21
Gm25128	31
Gm25973	0
Gm24071	0
Gm26291	1
Gm23769	0
Gm25800	1
Gm24730	0
Gm25344	1
Snord92	14
Snord53	1
Gm22858	60
Gm25406	0
Gm24475	0
Gm22386	0
Gm24240	0
Gm24648	0
Gm26005	0
Gm24244	2
Gm22765	1
Gm24894	0
Gm25116	0
Gm24228	0
Gm22470	1845
Gm22495	0
Gm23674	1
Gm24246	0
Gm22870	1
Gm25396	1
Gm25826	0
Gm23639	40
Gm24432	0
Gm22200	0
Gm26109	19
Mir1949	0
Snora74a	27
Gm24401	0
Gm26262	0
Gm22791	0
Gm24183	0
Gm23555	0
Gm23270	1
Gm22210	2
Gm24679	0
Gm24900	0
Gm24559	1
Snord58b	2
Gm23301	76
Gm26202	375
Gm26014	0
Gm25824	0
Gm26012	1
Gm24987	0
Gm25418	0
Gm23927	0
Gm25432	0
Gm25855	17
Gm25894	334
Gm24452	263
Gm24453	3
Gm22744	56
Gm22680	64
Gm23246	390
Snord22	76
Snora57	9
Gm24599	0
Gm22272	1
Gm24124	0
Gm25437	1
Gm22684	1
Gm22506	0
Gm22144	1
Gm23658_Snora19	0
Gm24252	0
Gm24782	0
Gm24006	2
Gm25611	0
Gm23300	2
Gm25216	0
Gm24336	7
Gm24610	0
Gm26085	0
Gm22271	0
Gm26158	0
Gm22520	0
