May 17 14:56:49 ..... Started STAR run
May 17 14:56:49 ..... Loading genome
May 17 14:57:50 ..... Started mapping
May 17 14:58:05 ..... Started sorting BAM
May 17 14:58:07 ..... Finished successfully
