May 17 15:14:31 ..... Started STAR run
May 17 15:14:31 ..... Loading genome
May 17 15:14:49 ..... Started mapping
May 17 15:15:08 ..... Started sorting BAM
May 17 15:15:11 ..... Finished successfully
