May 17 13:12:33 ..... Started STAR run
May 17 13:12:33 ..... Loading genome
May 17 13:13:28 ..... Started mapping
May 17 13:14:03 ..... Started sorting BAM
May 17 13:14:09 ..... Finished successfully
