You are running cutadapt 1.7.1 with Python 2.7.6
Command line parameters: -a GATCGGAAGAGCACACGTCTGAACTCCAGTCAC /share/de/plasma_all_60a243166c4b6/plasma_all_60a243166c4b6/20190308sample2/20190308sample2_cat.fastq.gz
Maximum error rate: 10.00%
   No. of adapters: 1
   Processed reads:      5787054
   Processed bases:    729168804 bp (729.2 Mbp)
     Trimmed reads:      5711405 (98.7%)
     Trimmed bases:    637051588 bp (637.1 Mbp) (87.37% of total)
   Too short reads:            0 (0.0% of processed reads)
    Too long reads:            0 (0.0% of processed reads)
        Total time:     95.22 s
     Time per read:      0.016 ms

=== Adapter 1 ===

Sequence: GATCGGAAGAGCACACGTCTGAACTCCAGTCAC; Type: regular 3'; Length: 33; Trimmed: 5711405 times.

No. of allowed errors:
0-9 bp: 0; 10-19 bp: 1; 20-29 bp: 2; 30-33 bp: 3

Bases preceding removed adapters:
  A: 99.6%
  C: 0.1%
  G: 0.1%
  T: 0.2%
  none/other: 0.0%
WARNING:
    The adapter is preceded by "A" extremely often.
    The provided adapter sequence may be incomplete.
    To fix the problem, add "A" to the beginning of the adapter sequence.

Overview of removed sequences
length	count	expect	max.err	error counts
3	63	90422.7	0	63
4	4	22605.7	0	4
5	1	5651.4	0	1
6	3	1412.9	0	3
7	3	353.2	0	3
8	1	88.3	0	1
9	2	22.1	0	2
10	25	5.5	1	6 19
11	24	1.4	1	3 21
12	22	0.3	1	4 18
13	19	0.1	1	2 17
14	12	0.0	1	4 8
15	11	0.0	1	3 8
16	9	0.0	1	2 7
17	17	0.0	1	2 15
18	10	0.0	1	3 7
19	24	0.0	1	1 3 20
20	16	0.0	2	1 2 13
21	9	0.0	2	0 3 6
22	3	0.0	2	0 1 2
23	3	0.0	2	0 0 3
24	5	0.0	2	0 0 5
25	2	0.0	2	1 0 1
26	5	0.0	2	1 0 4
27	3	0.0	2	0 0 3
29	1	0.0	2	0 1
30	4	0.0	3	0 0 1 3
33	5	0.0	3	0 0 2 3
34	5	0.0	3	0 0 1 4
35	8	0.0	3	0 0 1 7
36	1	0.0	3	0 0 1
37	7	0.0	3	0 0 2 5
38	11	0.0	3	0 0 2 9
39	19	0.0	3	0 0 5 14
40	8	0.0	3	0 0 0 8
41	10	0.0	3	0 0 3 7
42	12	0.0	3	0 2 3 7
43	21	0.0	3	1 1 9 10
44	27	0.0	3	1 1 7 18
45	41	0.0	3	0 2 4 35
46	38	0.0	3	0 3 6 29
47	32	0.0	3	1 3 2 26
48	46	0.0	3	0 2 12 32
49	186	0.0	3	5 21 44 116
50	289	0.0	3	3 22 60 204
51	210	0.0	3	3 16 53 138
52	404	0.0	3	9 39 99 257
53	1023	0.0	3	65 196 267 495
54	768	0.0	3	45 146 199 378
55	252	0.0	3	12 31 70 139
56	238	0.0	3	8 33 68 129
57	766	0.0	3	62 180 217 307
58	700	0.0	3	91 161 174 274
59	403	0.0	3	48 91 104 160
60	551	0.0	3	77 162 127 185
61	1137	0.0	3	228 348 287 274
62	1705	0.0	3	348 536 430 391
63	1565	0.0	3	458 477 336 294
64	2141	0.0	3	895 610 375 261
65	1130	0.0	3	468 351 196 115
66	876	0.0	3	377 266 134 99
67	673	0.0	3	283 195 116 79
68	1016	0.0	3	502 313 112 89
69	1060	0.0	3	552 288 113 107
70	652	0.0	3	368 171 72 41
71	1511	0.0	3	914 344 160 93
72	885	0.0	3	512 237 82 54
73	657	0.0	3	418 151 52 36
74	930	0.0	3	596 190 85 59
75	1195	0.0	3	818 234 84 59
76	1288	0.0	3	939 223 79 47
77	959	0.0	3	711 162 49 37
78	1057	0.0	3	781 186 61 29
79	1100	0.0	3	794 192 66 48
80	1295	0.0	3	1022 183 56 34
81	2199	0.0	3	1742 319 95 43
82	2553	0.0	3	2054 334 100 65
83	2687	0.0	3	2173 362 97 55
84	9992	0.0	3	8056 1356 382 198
85	4585	0.0	3	3788 597 125 75
86	2477	0.0	3	2098 279 62 38
87	2553	0.0	3	2125 312 85 31
88	5426	0.0	3	4547 651 168 60
89	6979	0.0	3	5921 787 177 94
90	5536	0.0	3	4532 741 183 80
91	3946	0.0	3	3291 499 117 39
92	3621	0.0	3	3028 448 108 37
93	5105	0.0	3	4369 561 129 46
94	13005	0.0	3	11050 1492 316 147
95	19815	0.0	3	16790 2311 521 193
96	16933	0.0	3	14530 1835 405 163
97	30684	0.0	3	26354 3404 686 240
98	26902	0.0	3	22860 3152 665 225
99	36641	0.0	3	31213 4388 783 257
100	60351	0.0	3	52026 6523 1351 451
101	84890	0.0	3	70525 11486 2189 690
102	140079	0.0	3	118556 16827 3529 1167
103	238024	0.0	3	203382 28455 4846 1341
104	212800	0.0	3	181277 26200 4192 1131
105	253741	0.0	3	217972 29148 5133 1488
106	221430	0.0	3	192989 23047 4158 1236
107	295167	0.0	3	256123 32180 5400 1464
108	271754	0.0	3	236547 29083 4796 1328
109	305848	0.0	3	268903 30876 4770 1299
110	274162	0.0	3	241646 26691 4496 1329
111	457587	0.0	3	394450 52324 8629 2184
112	285255	0.0	3	252319 27574 4225 1137
113	258322	0.0	3	226267 26915 4105 1035
114	332780	0.0	3	291811 34666 5103 1200
115	206588	0.0	3	181457 21066 3274 791
116	260139	0.0	3	229050 26009 4096 984
117	119713	0.0	3	104656 12621 1972 464
118	137653	0.0	3	119968 15075 2138 472
119	97966	0.0	3	85535 10472 1635 324
120	64838	0.0	3	56814 6798 999 227
121	20421	0.0	3	17841 2221 286 73
122	11628	0.0	3	9899 1497 193 39
123	8511	0.0	3	7345 1002 136 28
124	17496	0.0	3	14956 2202 291 47
125	842284	0.0	3	739048 90350 10787 2099
126	1125	0.0	3	894 173 22 36

WARNING:
    One or more of your adapter sequences may be incomplete.
    Please see the detailed output above.
Started analysis of 20190308sample2-trimmed.fastq
Approx 5% complete for 20190308sample2-trimmed.fastq
Approx 10% complete for 20190308sample2-trimmed.fastq
Approx 15% complete for 20190308sample2-trimmed.fastq
Approx 20% complete for 20190308sample2-trimmed.fastq
Approx 25% complete for 20190308sample2-trimmed.fastq
Approx 30% complete for 20190308sample2-trimmed.fastq
Approx 35% complete for 20190308sample2-trimmed.fastq
Approx 40% complete for 20190308sample2-trimmed.fastq
Approx 45% complete for 20190308sample2-trimmed.fastq
Approx 50% complete for 20190308sample2-trimmed.fastq
Approx 55% complete for 20190308sample2-trimmed.fastq
Approx 60% complete for 20190308sample2-trimmed.fastq
Approx 65% complete for 20190308sample2-trimmed.fastq
Approx 70% complete for 20190308sample2-trimmed.fastq
Approx 75% complete for 20190308sample2-trimmed.fastq
Approx 80% complete for 20190308sample2-trimmed.fastq
Approx 85% complete for 20190308sample2-trimmed.fastq
Approx 90% complete for 20190308sample2-trimmed.fastq
Approx 95% complete for 20190308sample2-trimmed.fastq
Approx 100% complete for 20190308sample2-trimmed.fastq
Started analysis of 20190308sample2-nofilt-trimmed.fastq
Approx 5% complete for 20190308sample2-nofilt-trimmed.fastq
Approx 10% complete for 20190308sample2-nofilt-trimmed.fastq
Approx 15% complete for 20190308sample2-nofilt-trimmed.fastq
Approx 20% complete for 20190308sample2-nofilt-trimmed.fastq
Approx 25% complete for 20190308sample2-nofilt-trimmed.fastq
Approx 30% complete for 20190308sample2-nofilt-trimmed.fastq
Approx 35% complete for 20190308sample2-nofilt-trimmed.fastq
Approx 40% complete for 20190308sample2-nofilt-trimmed.fastq
Approx 45% complete for 20190308sample2-nofilt-trimmed.fastq
Approx 50% complete for 20190308sample2-nofilt-trimmed.fastq
Approx 55% complete for 20190308sample2-nofilt-trimmed.fastq
Approx 60% complete for 20190308sample2-nofilt-trimmed.fastq
Approx 65% complete for 20190308sample2-nofilt-trimmed.fastq
Approx 70% complete for 20190308sample2-nofilt-trimmed.fastq
Approx 75% complete for 20190308sample2-nofilt-trimmed.fastq
Approx 80% complete for 20190308sample2-nofilt-trimmed.fastq
Approx 85% complete for 20190308sample2-nofilt-trimmed.fastq
Approx 90% complete for 20190308sample2-nofilt-trimmed.fastq
Approx 95% complete for 20190308sample2-nofilt-trimmed.fastq
Approx 100% complete for 20190308sample2-nofilt-trimmed.fastq
/tmp/slurmd/job43824/slurm_script: line 510: 28135 Killed                  STAR_2.4.1d --outFileNamePrefix $FULLPATH-genome --genomeDir $PATH_TO_DATABASE/$REFERENCE/star --runThreadN $cores --readFilesIn $INPUT_DIR/$ID-unmapped.fa --outFilterMismatchNoverLmax 0.00 --outFilterMismatchNmax 0 --alignIntronMax 1 --outFilterMatchNmin 15 --outFilterScoreMinOverLread 0 --outFilterMatchNminOverLread 0 --outSAMtype BAM Unsorted --scoreDelOpen -25 --scoreInsOpen -25 --scoreDelBase -25 --scoreInsBase -25 --alignEndsType EndToEnd --outSAMunmapped Within --outStd BAM_Unsorted > $INPUT_DIR/$ID-genome.bam
[bam_header_read] bgzf_check_EOF: Invalid argument
[bam_header_read] invalid BAM binary header (this is not a BAM file).
[main_samview] fail to read the header from "/share/de/plasma_all_60a243166c4b6/20190308sample2-genome.bam".
[bam_header_read] bgzf_check_EOF: Invalid argument
[bam_header_read] invalid BAM binary header (this is not a BAM file).
[main_samview] fail to read the header from "/share/de/plasma_all_60a243166c4b6/20190308sample2-unmapped-genome.bam".
Error in file(file, "rt") : cannot open the connection
Calls: read.table -> file
In addition: Warning message:
In file(file, "rt") :
  cannot open file '/share/de/plasma_all_60a243166c4b6/plasma_all_60a243166c4b6/20190308sample2/output-mpa.labels_filt.log': No such file or directory
Execution halted

EXITING because of fatal input ERROR: could not open readFilesIn=/share/de/plasma_all_60a243166c4b6/20190308sample2-unclassified.txt

May 17 15:17:36 ...... FATAL ERROR, exiting

        ==========     _____ _    _ ____  _____  ______          _____  
        =====         / ____| |  | |  _ \|  __ \|  ____|   /\   |  __ \ 
          =====      | (___ | |  | | |_) | |__) | |__     /  \  | |  | |
            ====      \___ \| |  | |  _ <|  _  /|  __|   / /\ \ | |  | |
              ====    ____) | |__| | |_) | | \ \| |____ / ____ \| |__| |
        ==========   |_____/ \____/|____/|_|  \_\______/_/    \_\_____/
	  v1.4.6

//========================== featureCounts setting ===========================\\
||                                                                            ||
||             Input files : 1 unknown file                                   ||
||                           ? /share/de/plasma_all_60a243166c4b6/2019030 ... ||
||                                                                            ||
||             Output file : /share/de/plasma_all_60a243166c4b6/plasma_al ... ||
||             Annotations : /home/vsac/database2/all/saf/all.saf (SAF)       ||
||                                                                            ||
||                 Threads : 1                                                ||
||                   Level : meta-feature level                               ||
||              Paired-end : no                                               ||
||         Strand specific : no                                               ||
||      Multimapping reads : not counted                                      ||
|| Multi-overlapping reads : not counted                                      ||
||                                                                            ||
\\===================== http://subread.sourceforge.net/ ======================//

//================================= Running ==================================\\
||                                                                            ||
|| Load annotation file /home/vsac/database2/all/saf/all.saf ...              ||
||    Features : 23571                                                        ||
||    Meta-features : 23571                                                   ||
||    Chromosomes : 23571                                                     ||
||                                                                            ||
|| Process Unknown file /share/de/plasma_all_60a243166c4b6/20190308sample ... ||
||    Single-end reads are included.                                          ||
|| WARNING file '/share/de/plasma_all_60a243166c4b6/20190308sample2-all.b ... ||
||    Assign reads to features...                                             ||
||    Total reads : 0                                                         ||
||    Successfully assigned reads : 0                                         ||
||    Running time : 0.00 minutes                                             ||
||                                                                            ||
||                         Read assignment finished.                          ||
||                                                                            ||
\\===================== http://subread.sourceforge.net/ ======================//

cat: 20190308sample2: No such file or directory
grep: /share/de/plasma_all_60a243166c4b6/plasma_all_60a243166c4b6/20190308sample2/20190308sample2-genomeLog.final.out: No such file or directory
awk: cmd. line:1: fatal: cannot open file `/share/de/plasma_all_60a243166c4b6/plasma_all_60a243166c4b6/20190308sample2/output-mpa.labels.log' for reading (No such file or directory)
grep: /share/de/plasma_all_60a243166c4b6/plasma_all_60a243166c4b6/20190308sample2/20190308sample2-allLog.final.out: No such file or directory
cat: /share/de/plasma_all_60a243166c4b6/plasma_all_60a243166c4b6/20190308sample2/output-mpa.labels_filt.log: No such file or directory
Error in /tmp/slurmd/job43824/slurm_script:505 (approximation), [fastqToCountsSmallrna.sh: /share/de/plasma_all_60a243166c4b6/plasma_all_60a243166c4b6/20190308sample2 / tanward@ethz.ch], execution directory /home/oasis, {grep-stderr:34b6da05f52d3060f2304d1ca1604a8d}
