May 17 13:33:49 ..... Started STAR run
May 17 13:33:49 ..... Loading genome
May 17 13:35:24 ..... Started mapping
May 17 13:36:07 ..... Started sorting BAM
May 17 13:36:14 ..... Finished successfully
