May 17 15:23:54 ..... Started STAR run
May 17 15:23:54 ..... Loading genome
May 17 15:24:14 ..... Started mapping
May 17 15:24:34 ..... Started sorting BAM
May 17 15:24:38 ..... Finished successfully
