May 17 15:49:53 ..... Started STAR run
May 17 15:49:53 ..... Loading genome
May 17 15:55:21 ..... Started mapping
May 17 15:55:43 ..... Started sorting BAM
May 17 15:55:47 ..... Finished successfully
