May 17 15:48:37 ..... Started STAR run
May 17 15:48:37 ..... Loading genome
May 17 15:48:41 ..... Started mapping
May 17 15:49:08 ..... Started sorting BAM
May 17 15:49:16 ..... Finished successfully
