Gm23274	0
Snord87	7
Gm22963	0
Gm24173	0
Gm26273	0
Gm26345	0
Gm25227	0
Gm25168	0
Gm25166	0
Gm24075	0
Gm24633	0
Gm24723	0
Gm24171	0
Gm24176	0
Gm26418	0
Gm24064	0
Gm26145	0
Gm25096	0
Gm24826	0
Snord89	0
Gm23722	0
Gm23126	0
Gm26352	0
Gm23974	0
Gm27607	1
Gm24349	0
Gm22371	0
Gm24548	0
Gm25502	0
Snord70	0
Gm26293	0
Gm26287	2
Snord11_Gm22285_Gm24153_Gm24609_Gm25155_Gm25816_Gm22417_Gm26270_Gm23265_Gm24760_Gm25350_Gm22128_Gm26246_Gm25597_Gm26201_Gm22812_Gm26433_Gm23357_Gm22110_Gm23724_Gm23549_Snord116l2_Gm26223_Gm23524_Gm26136_Gm24658_Gm23359_Gm24742_Snord116l1_Gm23696_Gm26094	13
Gm24942	0
Gm26457	2
Snora41	0
Gm24729	0
Gm25832	0
Gm26342	0
Gm24160	0
Gm24555	0
Gm22786	1
Snora75	2
Gm24148	1
Snord82	15
Gm23389	0
Gm23181	0
Gm26078	0
Gm23602	0
Gm24122	0
Gm23036	0
Gm22034	0
Gm23965	0
Gm24553	0
Gm22438	0
Gm22159	0
Gm22331	1
Gm24937	0
Gm26080	0
Gm25771	0
Gm24791	0
Gm23734	0
Gm23902	0
Gm22609	0
Gm23939	0
Gm25612	0
Gm23534	0
Gm22727	0
Gm26048	0
Gm25663	0
Gm25460	0
Gm22966	0
Gm25588	0
Gm25336	0
Gm24719	1
Gm23528	0
Gm24988	0
Gm26224	11
Gm22489	3
Gm22357	2
Gm23212	31
Snord78_Snord7	0
Mir5117	6
Snord80	0
Snord47	18
Gm25789	33
Gm22671	1
Gm22434	0
Gm24637	0
Gm23208	0
Gm25151	0
Gm26077	0
Snora36b	0
Gm26169	0
Gm25095	0
Gm23608	0
Gm23877	0
Gm24670	1
Gm25859	0
Gm24886	0
Gm25544	0
Snhg7	0
Snora43	0
Snora17	0
Gm23969	8
Gm22879	0
Gm24134	0
Gm22516	0
Gm22192_Gm25632	0
Gm26236	0
Gm24165	0
Snora65	0
Gm23546	0
Snord90	19
Gm24467	0
Gm24350	0
Gm23072	0
Gm25264	0
Gm25215	0
Gm23315	0
Gm22298	0
Gm24549	0
Gm25388	0
Gm26422	0
Gm22338	0
Gm22020	0
Gm24138	0
Gm23328	0
Gm26408	0
Gm25420	0
Gm22652	0
Gm23716	0
Snord67	9
Gm24318	0
Gm26396	0
Gm22957	0
Gm22313	0
Gm23317	0
Gm22501	0
Gm22439	0
Gm23439	0
Gm23749	0
Gm26421	0
Gm22676	0
Gm25857	0
Gm22865	0
Gm22889	0
Gm23172	1
Gm22424	0
Gm24665	0
Snord110	1
Gm24451	0
Gm23187	0
Gm23650	2
Snord57	162
Gm22310	0
Gm26165	0
Snord17	24
Gm24221	0
Gm25866	0
Gm24551	0
Gm23598	1
Gm22187	0
Gm24199	0
Gm22517	0
Gm23005	0
Gm24077_Gm24868	0
Gm23261	0
Gm22334	0
Gm25407	0
Gm24411	0
Gm26003	0
Gm23925	0
Gm25187	0
Gm25129	0
Gm25090	0
Gm25561	0
Gm22936	0
Gm24473	0
Gm25569	0
Gm25878	6
Gm23201	0
Snord12_Snord123	125
Gm22704	0
Gm25214	0
Gm26401	0
Gm23082	0
Gm22592	0
Gm23613	0
Snora69	1
Gm26494	0
Gm24493	0
Gm24147	0
Gm23705	0
Gm22539	0
Snord61	42
Gm24598	0
Gm26276	0
Gm22332	0
Gm22435	0
Gm22785	0
Gm25226	0
Gm23615	0
Snora70	1
Gm26417	0
Gm25520	4
Gm23320	0
Gm23280	0
Gm22843	0
Gm24706	0
Gm24470	0
Gm24123	1
Gm23454	0
Gm24595	0
Gm24061	0
Gm22266	0
Gm22430	0
Gm23985	0
Gm24438	0
Gm26182	0
Gm22590	0
Gm23277	0
Gm23586	0
Gm26029	1
Gm25170	0
Gm26406	0
Gm23768	0
Gm25868_Gm22233	0
Gm25936	0
Gm22006_Gm24416	0
Gm25770	0
Gm23679	0
Gm25915	0
Gm23325	0
Snora35	0
Gm25107	0
Gm24907	0
Gm24460	0
Gm25429	0
Gm23404	0
Gm25795	0
Gm24281	0
Gm22522	0
Gm23786	0
Gm22023	0
Gm26368	0
Gm25651	0
Gm22944	0
Gm22074	0
Gm23592	0
Gm23670	0
Gm22795	0
Gm23112	0
Gm24963	0
Gm26354	0
Gm25152	0
Gm26040	0
Gm24780	0
Gm23175	0
Gm26404	0
Gm22899	0
Gm23831	0
Gm25487	0
Gm26081	0
Gm23891	0
Gm22480	0
Gm24503	0
Gm23675	0
Gm22784	0
Gm25727	0
Gm22269	0
Gm23897	0
Gm25222	0
Gm25919	0
Gm23484	0
Gm23477	0
Gm25846	0
Gm23644	0
Gm23440	0
Gm22531	1
Gm25876	0
Gm25188	0
Snord73a	13
Rnu73b	40
Gm26343	0
Gm24472	1
Gm25167	1
Gm25945	0
Gm24403	0
Gm24608	0
Gm23723	0
Gm24920	0
Gm22027	0
Gm22581	4
Gm22341	0
Gm24216	0
Gm25802	0
Gm25009	0
Gm23077	0
Gm25592	0
Gm22942	0
Gm25519	40
Gm23750	0
Gm22337	0
Gm26344	0
Gm26358	0
Gm23432	0
Gm25013	0
Snora24	1
Gm22900	0
Gm25501	0
Gm22293	0
Gm26090	0
Gm22322	0
Gm23011	0
Gm25965	0
Gm24728	0
Gm24406	0
Gm23131	0
Gm22206	0
Gm25757	0
Gm24395	0
Snord45b	10
Gm24494	6
Snord45c	18
Gm24373	0
Gm22541	0
Gm22781	0
Gm24016	4
Gm24125	0
Gm26436	0
Gm24337	0
Gm22473	1
Gm23860	0
Gm24068	0
Gm24908	0
Gm26148	0
Gm25977	0
Gm24607	0
Gm25975	0
Gm25378	0
Gm24341	0
Gm22010	1
Gm22732	0
Gm23607	0
Gm23338	0
Gm22888	0
Gm24837	1
Gm23090	6
Gm23709	0
Gm24376	0
Gm22247	0
Gm22670	0
Gm23746	1
Gm25485	0
Gm23043	0
Gm23745	0
Gm24177	0
Gm25419	4
Gm22150	0
Gm26144	0
Gm22952	0
Gm25053	0
Gm22300	0
Gm24117	0
Gm25391	0
Gm23950	0
Gm25480	0
Gm25653	1
Gm25769	0
Gm24170	0
Gm26379	0
Gm22864	0
Gm25836	0
Gm25803	0
Gm24884	0
Gm26490	0
Gm25244	0
Gm23443	0
Gm23836	0
Gm22804	0
Gm24869	0
Gm25877	0
Gm26047	0
Gm22497	0
Gm22980	10
Snord38a	28
Gm26330	30
Snord55	107
Gm23382	0
Gm24352	0
Gm26186	0
Gm26162	0
Gm25788	0
Gm22154	0
Gm24161	0
Gm25604	0
Snord85_Snord8	25
Gm24091_Gm23711	0
Gm22660	0
Gm25261	0
Snora16a	0
Snora44	43
Snora61	2
Snord99	17
Snora73b	4
Snora73a	5
Gm27619	0
Gm23834	0
Gm22039	0
Gm25880	0
Gm26036	0
Gm23993	0
Gm23822	0
Gm25761	0
Gm22490	0
Gm25459	0
Mir3096	0
Snord93	0
Gm25767	0
Gm25377	0
Gm23532	0
Gm24235	0
Gm23896	0
Gm24902	0
Gm23015	0
Gm22536	0
Gm23708	0
Gm22273	0
Gm24079	0
Gm25608	0
Gm22559	0
Gm24346	0
Gm23605	0
Snora26	0
Gm22011	0
Gm25756	0
Gm25765	0
Gm24792	0
Gm25066	0
Gm24314	0
Gm25758	0
Gm25290	0
Gm22915	0
Gm24279	0
Gm25969	0
Gm26252	0
Gm26363	0
Gm26286	0
Snord21	48
Gm22270	5
Gm26387	1
Gm26277	0
Gm26079	1
Gm25076	0
Gm26205	0
Gm23245	0
Snora15	1
Gm23995	1
Gm25091	8
Gm23202	0
Gm24556	0
Gm23362	0
Gm26013	0
Gm22276	0
Gm26075	0
Gm24985	1
Gm23760	0
Gm23960	0
Gm22267	0
Gm24443	0
Gm22529	0
Gm26310	0
Gm26021	0
Gm23273	0
Gm23010	0
Gm25402	0
Gm25108	0
Gm22939	0
Gm25161	0
Gm24348	1
Gm26289	0
Gm24355	0
Gm22910	0
Gm24230	0
Gm24709	0
Gm22493	0
Gm25726	0
Gm22367	0
Gm22622	0
Gm22723	1
Gm22425	0
Gm24911	1
Gm25910	0
Gm25436	1
Gm25833	0
Gm23346	0
Gm22486	29
Gm24533	0
Gm26179	0
Gm22530	0
Gm23014	0
Gm22893	0
Gm25185	1
Gm25094	0
Gm22312	0
Gm22840	0
Gm26175	0
Gm25852	0
Gm23703	0
Gm23234	0
Gm23339	0
Gm24008	0
Snora7a	6
Gm23527	0
Gm22882	0
Gm23908	0
Gm22833_Gm22722	0
Gm25891_Gm25065	0
Gm22724	1
Gm23079	0
Gm22763	0
Gm24843	0
Gm22916	0
Gm23554	0
Gm25311	0
Gm23547	0
Scarna10	10
Gm24175	0
Gm22362	0
Gm22881	0
Gm25136	0
Gm23272	0
Gm22792	0
Gm23498	0
Gm25373	0
Gm23456	0
Gm25539	0
Snord23	7
AF357399	0
Gm25922	0
Gm24505	0
Gm26247	8
Snord88c	1
Snord88a	1
Gm23991	6
Snord35b	0
Snord35a	0
Snord34	24
Snord33	4
Snord32a	13
Gm22478	0
Gm23911	0
Gm26288	0
Gm25499	0
Gm24966	0
Gm22496	0
Gm25648	0
Gm24306	0
Gm25934	0
Gm25156	0
Gm26488_Gm24220	0
Gm24653_Gm24417	0
Gm24969	0
Gm25121	0
Gm24657_Gm23922_Gm22996	0
Gm26230_Gm26498	0
Gm25314	0
Gm26096_Gm26499	0
Gm25646	0
Gm23660	0
Gm23933	0
Gm24862_Gm23310_Gm25461	0
Gm24866_Gm25463_Gm24528_Gm23356_Gm24872_Gm24027_Gm22524_Gm22630_Gm25741_Gm26059_Gm22511_Gm25098_Gm24702_Gm25462_Gm25523_Gm22909_Gm26392_Gm24219_Gm25230_Gm22627_Gm24585_Gm24206_Gm25209_Gm26334_Gm25742_Gm25146_Gm24759_Gm23575_Gm22449_Gm22912_Gm25710_Gm26434_Gm23560	0
Gm22348	0
Gm26466	0
Gm24799	0
Gm24088	0
Gm25229	0
Gm25449	0
Gm26337	0
Gm23145	0
Gm22130_Gm26389_Gm23687_Gm22393_Gm24566_Gm22111	0
Gm25988_Gm25221_Gm23471_Gm23449	0
Gm25120	0
Gm24418_Gm24639_Gm23076_Gm25077	0
Gm25874	0
Gm25088	0
Gm22510_Gm26390_Gm26336	0
Gm24983	0
Gm25175	0
Gm22834	0
Gm24926_Gm22632	0
Gm26200	0
Gm23254	0
Gm26366	0
Gm26283_Gm23682_Gm24654_Gm25585_Gm25840_Gm24040_Gm22050_Gm23286_Gm24021_Gm22274_Gm24652_Gm23618_Gm23688_Gm24570_Gm22640_Gm24952_Gm23944_Gm22629_Gm26374_Gm26284_Gm25452_Gm25984_Gm25017	0
Gm26432	0
Gm24495	0
Gm22255	0
Gm24310	0
Gm25823_Gm25647	0
Gm22252	0
Gm23305_Gm25085	0
Gm25089	0
Gm26467_Gm25087	0
Gm25194	0
Gm24100	0
Gm22253	0
Gm22391_Gm24137	0
Gm25870	0
Gm23862	0
Gm26504	0
Gm22131	0
Gm26365	0
Gm24264	0
Gm23141	34
Gm23767	0
Gm22584	0
Gm23089_Gm24711_Gm26188	0
Gm24518	0
Gm25944	0
Gm23047	0
Gm23953_Gm26332_Gm22863_Gm24618	0
Gm26032_Gm22046_Gm25471_Gm25210	0
Gm26502_Gm23313_Gm23446	0
Gm22776	0
Gm22851	0
Gm25074	0
Gm25157_Gm22941_Gm22258	0
Gm22631	0
Gm25474_Gm22047_Gm23619	0
Gm26097	0
Gm25615	0
Gm22188	0
Gm22173	0
Gm22289	0
Gm22373	0
Snord64	2
Snord107	0
Gm22494	0
Gm23233	0
Gm23795	0
Gm24120	0
Gm25907	0
Gm22934	0
Gm25345	0
Gm25860	0
Gm24412	0
Gm23479	0
Snord15b	14
Snord15a	0
Gm25409	0
Gm24210	0
Gm22504	4
Gm22372	0
Snora3_Snora34	2
Gm24888	0
Gm25636	0
Snora23	2
Gm23262	18
Gm24154	0
Gm24982	0
Snord14a	0
Gm25683	0
Gm26147	0
Gm23321	0
Gm27991	0
Gm25759	0
Gm23168	0
Snora30	0
Gm24581	0
Gm25725	0
Snora52	0
Gm25370	0
Gm23297	0
Gm25369	0
Gm24726	0
Gm25410	0
Gm25635	0
Gm23601	1
Gm25979	0
Gm22546	0
Gm25011	0
Gm25139	1
Gm24343	0
Gm23892	0
Gm23839	0
Snora33	0
Snord100	8
Gm23130	15
Gm25016	0
Gm23353	0
Gm24286	0
Gm26341	0
Gm22554	0
Gm24889	0
Gm24297	0
Gm25613	0
Rnu3a	0
Gm25526	0
Gm26016	0
Gm23481	0
Gm23584	1
Gm23906	0
Gm25055	2
Gm23223	0
Gm23803	0
Snord98	0
Gm25862	0
Gm22594	0
Gm24172	0
Gm22937	0
Gm24984	0
Gm22394	0
Gm22871	0
Snord37	18
Gm24119	1
Gm24241	0
Gm25962	0
Gm24433	0
Gm25658	0
Gm26278	0
Gm25376	0
Gm25422	0
Gm24237	0
Gm25342	0
Gm24745	0
Gm23105	0
Gm23698	0
Gm22186	0
Gm25117	0
Gm26495	0
Gm26311	0
Gm24298	0
Gm24179	0
Gm23996	0
Snord59a	10
Mir677	1
Gm23182	0
Gm25764	0
Gm24717	0
Gm24288	0
Gm25169	0
Gm24698	0
Gm26184	0
Gm24231	0
Gm25278	1
Gm25665	0
Gm24469	0
Gm25763	1
Gm22551	2
Gm24568	0
Gm23561	0
Gm23568_Gm24829	0
Gm22447	0
Gm24335	0
Gm26208	0
Gm23184	0
Gm24992	0
Snord13	22
Gm24727	0
Gm23128	0
Gm23531	0
Gm22986	0
Gm23604	0
Gm22857	0
Gm25830	0
Gm23666	1
Gm24375	0
Gm25379	0
Gm23329	0
Gm22324	0
Gm24236	0
Gm24580	0
Gm26123	0
Gm25275	1
Gm24677	0
Gm22018	0
Gm25906	0
Snora68	1
Gm22532	0
Gm22544	0
Gm24838	0
Gm25138	0
Gm23626	0
Gm25506	15
Gm23904	0
Gm24781	0
Gm24212	0
Gm22428	0
Gm26493	1
Gm26265	0
Gm22780	0
Gm22223	0
Gm22972	0
Snord71	18
Snord111	6
Gm22193	9
Gm26132	0
Gm24793	0
Gm25766	0
Gm25200	1
Gm22999	0
Gm23299	0
Snord68	31
Gm25428	0
Gm26397	2
Gm26100	0
Gm22545	0
Gm22374	0
Gm22053	0
Gm25466	0
Gm24578	0
Gm22499	0
Gm24912	0
Gm24031	0
Gm25697	0
Snord69	1
Gm24916	1
Snord19	2
Gm23946	0
Gm25498	0
Gm24998	0
Gm24394	0
Gm22469	0
Gm23909	0
Gm22354	0
Gm23758	0
Gm23596	0
Gm24118	0
Gm22498	0
Gm23593	0
Gm26440	0
Gm25614	0
Gm24625	0
Gm23816	0
Gm25162	0
Gm26225	0
Gm24258	0
Gm24981	0
Gm22319	2
Gm22725	0
Snora31	1
Gm25517	0
Gm23823	0
Gm26251	0
Gm24774	0
Gm23278	0
Gm25415	0
Gm25495	0
Gm23225	0
Gm24127	0
Gm23324	0
Gm24680	0
Gm25133	0
Gm24770	0
Gm23276	0
Gm26006	0
Gm26367	0
Gm24345	0
Gm26173	0
Gm22347	0
Gm25724	0
Gm24280	0
Gm24634	0
Gm23437	0
Gm24229	0
Gm25901	0
Gm23669	0
Gm22379	0
Gm25272	0
Gm24918	0
Gm24896	0
Gm25500	0
Gm24455	5
Gm24299	6
Gm25791	1
Gm22620	1
Gm24357	7
Gm23455	1
Gm22579_Gm24539	0
Scarna9	7
Gm24339	0
Gm23048	1
Gm24067	1147
Gm23008	2
Gm22380	0
Gm23893	2
Gm25861	0
Gm25346	0
Gm25439	0
Gm24262	0
Gm25273	0
Gm23271	0
Gm24278	0
Snord14c	1
Snord14d	0
Snord14e	20
Gm26272	0
Gm26306	0
Gm24166	0
Gm22659	0
Gm25562	0
Gm22304	0
Gm22099	0
Gm23344	8
Snord16a	2
Gm22571	2
Gm23136	0
Gm22455	3
Gm24347	0
Gm22657	0
Gm22382	0
Gm22962	0
Gm24257	0
Gm24615	0
Gm25105	5
Gm22315	0
Gm22938	0
Gm23609	0
Gm23748	0
Gm25125	0
Gm22830	0
Gm22138	1
Gm25528	0
Gm23176	0
Snord50a_Gm24463	0
Snord50b_Gm26135	0
Gm23017	0
Gm26082	0
Gm23707	0
Gm26423	1
Gm25417	0
Gm25582	0
Gm25607	0
Gm23949	0
Gm23594	0
Gm24338	0
Gm24638	0
Gm22595	0
Gm25904	0
Gm23595	0
Gm24944	0
Gm25456	0
Gm23034	0
Gm23377	0
Gm24957	0
Gm25059	0
Gm22729	1
Gm24044	0
Gm26448	4
Snora62	0
Gm23323	0
Gm24439	0
Gm24013	0
Gm24958	0
Gm22471	0
Gm22457	0
Gm24000	0
Gm24313	0
Snora5c	0
Gm24051	0
Gm26458	0
Gm22156	0
Gm22789	0
Gm25490	0
Gm22807	0
Gm23582	0
Gm23772	0
Gm24398	0
Gm24255	0
Gm23514	0
Gm24850	0
Gm25387	0
Gm22588	0
Gm22022	0
Gm26070	0
Gm22284	0
Gm24422	0
Gm25296	2
Snord96a	189
Snord95	0
Gm25291	0
Gm22884	1
Gm24253	0
Gm22603	0
Gm22599	0
Gm24945	0
Snord49b	13
Snord49a	111
Snord65	23
Gm24151	0
Snord118	7
Gm24029	3
Gm25835	99
Gm22988	0
Gm23266	0
Gm23311	0
Gm22927	0
Gm24143	0
Snord91a	2
Gm22771	29
Gm22772	0
Gm24989	0
Gm23132	0
Snord42a	2
Snord4a	2
Snord42b	1
Gm22947	0
Gm24454	0
Gm23951	0
Rnu3b1_Rnu3b3_Rnu3b4_Rnu3b2	0
Gm22762	0
Gm25113	0
Gm24949	0
Gm27326	0
Snora21	2
Gm22059	1
Gm26394	2
Gm23451	0
Gm22683	0
Gm22743	0
Snord104	18
Gm22711	0
Gm23699	0
Snord1c	0
Snord1b	2
Snord1a	0
Gm23663	259
Gm22152	0
Gm24790	0
Gm25274	0
Gm22115_Gm23923	0
Gm25496	1
Gm25483	0
Gm25804	0
Gm26172	0
Gm23774	0
Gm23340	0
Gm22358	0
Gm22330	0
Gm23351	0
Gm22674	0
Gm26395	0
Gm22213	0
Gm24620	0
Gm24769	0
Gm25232	0
Gm25394	0
Gm23482	0
Gm22806	0
Gm25148	0
Gm22777	0
Gm24284	0
Gm23713_Gm22615	0
Gm23855	0
Gm24095	0
Gm24130	0
Gm26018	0
Gm23012	0
Gm23127	0
Gm24163	0
Gm23319	1
Gm24519	0
Gm26088	0
Gm25383	0
Gm24295	1
Gm22574	2
Gm24507	1
Gm22778	0
Snora47	2
Gm22661	0
Gm24471	0
Gm25631	0
Gm24431	0
Gm26349	0
Gm23979	0
Gm25610	0
Gm24208	0
Gm22303	0
Gm22748	0
Gm25821	0
Gm26211	0
Gm24326	0
Gm25564	0
Gm25408	0
Gm24613	0
Gm23529	0
Gm24429	0
Gm25438	0
Gm24069	2
Gm24434	0
Gm25497	0
Gm26326	0
Gm24731	0
Gm24948	0
Gm25015	0
Gm22088	0
Gm25917	0
Gm25760	0
Gm24233	0
Gm24377	0
Gm22673	0
Gm24066	0
Gm25970	39
Gm26015	0
Gm23948	0
Gm22782	0
Gm23826	0
Gm23910	1
Gm24070	0
Gm24994	0
Gm24853	0
Gm22149	0
Mir3068	3
Gm23195	0
Gm25776	7
Gm25203	0
Gm24334	0
Gm24986	0
Gm24564_AC152063.4	0
Gm23474_AC152063.6	0
AF357425_AC152063.24	0
Gm24899_AC152063.16	0
Gm23600_AC152063.28	0
Gm24895	0
DQ267100_AC152063.29_AC152063.2	0
DQ267101_AC152063.22	0
Gm23508_AC152063.11	0
Gm26922_AC152063.17	0
DQ267102_AC152063.5	0
Gm25357_AC152063.14	0
Gm27604_AC152063.18	0
Gm23347_AC152063.1_AC152063.13	0
AF357428_AC152063.9	0
Gm23736_AC152063.3	0
AF357341_AC152063.10	0
Gm22981_AC152063.27	0
Gm25856_AC152063.20	0
Gm23787_AC152063.12	0
Gm25854_AC152063.19	0
Gm22205	0
Gm25224_AC152063.8	0
Snora28	2
Snord72	10
Gm23139	0
Gm24844	0
Gm25550	0
Gm25976	0
Gm25711	0
Gm24656	0
Gm23903	0
Gm23033	0
Gm24554	0
Gm23327	2
Gm26163	0
Gm26416	0
Gm24500	0
Gm25809	0
Gm24523	2
Gm24771	0
Gm22353	0
Gm24789	0
Gm24751	0
Gm24903	0
Gm25093	0
Gm23343	0
Gm23530	1
Gm23267	0
Gm23200	2
Gm22299	1
Gm22488	0
Gm23835	0
Gm24696	0
Gm22521	1
Gm24232	0
Gm23987	1
Gm22519	1
Gm24787	0
Gm23747	0
Snord83b	140
Gm22077	0
Gm23220	0
Gm22890	0
Gm25546	0
Gm23129	0
Gm25668	0
Snora2b	1
Gm25183	0
Gm25999	0
Gm22598	0
Gm24579	1
Gm23706	0
Gm25276	1
Gm25777	0
Gm22158	1
Gm25762	0
Snord66	9
Snord2	7
Gm24201	0
Snora81	0
Gm26447	2
Gm24616	0
Gm22672	0
Gm25375	0
Gm24879	0
Gm26419	0
Gm25848	0
Gm25079	1
Gm25967	0
Gm25617	0
Gm27931	0
Gm26074	0
Gm25989	0
Gm26297	0
Gm23513	0
Gm25723	0
Gm22459	0
Gm25853	0
Gm23180	0
Gm22422	2
Gm24039	0
Gm26019	0
Gm23852	0
Gm22429	0
Gm24681	0
Gm22797	0
Gm22163	0
Gm26307	0
Gm22268	0
Gm25916	0
Gm25038	0
Gm23083	0
Gm26153	0
Gm27295	0
Gm25715	0
Gm25896	0
Gm24891	0
Gm23994	0
Gm23406	0
Gm25909	0
Gm24794	0
Gm26130	1
Snora20	4
Gm25092	0
Snord60	23
Snora78	0
Snora64	3
Gm25921	0
Gm23123	0
Gm22327	0
Snord52	2
Gm25744	4
Gm23442	0
Gm22589	3
Gm25128	6
Gm25973	0
Gm24071	0
Gm26291	0
Gm23769	0
Gm25800	0
Gm24730	0
Gm25344	0
Snord92	2
Snord53	0
Gm22858	13
Gm25406	0
Gm24475	0
Gm22386	0
Gm24240	0
Gm24648	0
Gm26005	0
Gm24244	1
Gm22765	0
Gm24894	0
Gm25116	0
Gm24228	0
Gm22470	660
Gm22495	0
Gm23674	0
Gm24246	0
Gm22870	0
Gm25396	0
Gm25826	0
Gm23639	3
Gm24432	0
Gm22200	0
Gm26109	0
Mir1949	0
Snora74a	3
Gm24401	0
Gm26262	0
Gm22791	0
Gm24183	0
Gm23555	0
Gm23270	0
Gm22210	0
Gm24679	0
Gm24900	0
Gm24559	0
Snord58b	1
Gm23301	10
Gm26202	69
Gm26014	0
Gm25824	0
Gm26012	0
Gm24987	0
Gm25418	0
Gm23927	0
Gm25432	0
Gm25855	2
Gm25894	50
Gm24452	36
Gm24453	4
Gm22744	8
Gm22680	12
Gm23246	28
Snord22	9
Snora57	2
Gm24599	0
Gm22272	0
Gm24124	0
Gm25437	0
Gm22684	0
Gm22506	0
Gm22144	0
Gm23658_Snora19	0
Gm24252	0
Gm24782	0
Gm24006	0
Gm25611	0
Gm23300	0
Gm25216	0
Gm24336	4
Gm24610	0
Gm26085	1
Gm22271	0
Gm26158	0
Gm22520	0
