                                 Started job on |	May 17 14:33:55
                             Started mapping on |	May 17 14:33:56
                                    Finished on |	May 17 14:34:41
       Mapping speed, Million of reads per hour |	359.09

                          Number of input reads |	4488568
                      Average input read length |	24
                                    UNIQUE READS:
                   Uniquely mapped reads number |	870367
                        Uniquely mapped reads % |	19.39%
                          Average mapped length |	21.68
                       Number of splices: Total |	0
            Number of splices: Annotated (sjdb) |	0
                       Number of splices: GT/AG |	0
                       Number of splices: GC/AG |	0
                       Number of splices: AT/AC |	0
               Number of splices: Non-canonical |	0
                      Mismatch rate per base, % |	0.28%
                         Deletion rate per base |	0.00%
                        Deletion average length |	1.00
                        Insertion rate per base |	0.00%
                       Insertion average length |	1.04
                             MULTI-MAPPING READS:
        Number of reads mapped to multiple loci |	27297
             % of reads mapped to multiple loci |	0.61%
        Number of reads mapped to too many loci |	0
             % of reads mapped to too many loci |	0.00%
                                  UNMAPPED READS:
       % of reads unmapped: too many mismatches |	0.00%
                 % of reads unmapped: too short |	80.00%
                     % of reads unmapped: other |	0.00%
